(footprint SOT-23 (version 20221018) (generator kicad-footprint-generator)
  (layer F.Cu)
  (descr "SOT, 3 Pin (https://www.jedec.org/system/files/docs/to-236h.pdf variant AB), generated with kicad-footprint-generator ipc_gullwing_generator.py")
  (tags "SOT TO_SOT_SMD")
  (attr smd)
  (fp_text reference REF** (at 0 -2.4) (layer F.SilkS)
    (effects (font (size 1 1) (thickness 0.15)))
  )
  (fp_text value SOT-23 (at 0 2.4) (layer F.Fab)
    (effects (font (size 1 1) (thickness 0.15)))
  )
  (fp_line (start -1.92 -1.7) (end -1.92 1.7)
    (stroke (width 0.05) (type solid)) (layer F.CrtYd))
  (fp_line (start -1.92 1.7) (end 1.92 1.7)
    (stroke (width 0.05) (type solid)) (layer F.CrtYd))
  (fp_line (start 1.92 1.7) (end 1.92 -1.7)
    (stroke (width 0.05) (type solid)) (layer F.CrtYd))
  (fp_line (start 1.92 -1.7) (end -1.92 -1.7)
    (stroke (width 0.05) (type solid)) (layer F.CrtYd))
  (fp_line (start 0 1.56) (end 0.65 1.56)
    (stroke (width 0.12) (type solid)) (layer F.SilkS))
  (fp_line (start 0 1.56) (end -0.65 1.56)
    (stroke (width 0.12) (type solid)) (layer F.SilkS))
  (fp_line (start 0 -1.56) (end 0.65 -1.56)
    (stroke (width 0.12) (type solid)) (layer F.SilkS))
  (fp_line (start 0 -1.56) (end -0.65 -1.56)
    (stroke (width 0.12) (type solid)) (layer F.SilkS))
  (fp_line (start -0.325 -1.45) (end 0.65 -1.45)
    (stroke (width 0.1) (type solid)) (layer F.Fab))
  (fp_line (start 0.65 -1.45) (end 0.65 1.45)
    (stroke (width 0.1) (type solid)) (layer F.Fab))
  (fp_line (start 0.65 1.45) (end -0.65 1.45)
    (stroke (width 0.1) (type solid)) (layer F.Fab))
  (fp_line (start -0.65 1.45) (end -0.65 -1.125)
    (stroke (width 0.1) (type solid)) (layer F.Fab))
  (fp_line (start -0.65 -1.125) (end -0.325 -1.45)
    (stroke (width 0.1) (type solid)) (layer F.Fab))
  (pad 1 smd roundrect (at -0.9375 -0.95) (size 1.475 0.6) (layers F.Cu F.Mask F.Paste) (roundrect_rratio 0.25))
  (pad 2 smd roundrect (at -0.9375 0.95) (size 1.475 0.6) (layers F.Cu F.Mask F.Paste) (roundrect_rratio 0.25))
  (pad 3 smd roundrect (at 0.9375 0) (size 1.475 0.6) (layers F.Cu F.Mask F.Paste) (roundrect_rratio 0.25))
  (fp_poly (pts (xy -1.1625 -1.51) (xy -1.4025 -1.846) (xy -0.9225 -1.846) (xy -1.1625 -1.51))
    (stroke (width 0.12) (type solid)) (fill solid) (layer F.SilkS))
  (fp_text user ${REFERENCE} (at 0 0) (layer F.Fab)
    (effects (font (size 0.32 0.32) (thickness 0.05)))
  )
  (model ${KICAD7_3DMODEL_DIR}/Package_TO_SOT_SMD.3dshapes/SOT-23.wrl
    (offset (xyz 0 0 0))
    (scale (xyz 1 1 1))
    (rotate (xyz 0 0 0))
  )
)
