(footprint HTSSOP-16-1EP_4.4x5mm_P0.65mm_EP3x3mm (version 20221018) (generator kicad-footprint-generator)
  (layer F.Cu)
  (descr "HTSSOP, 16 Pin (https://www.st.com/resource/en/datasheet/stp08cp05.pdf#page=20), generated with kicad-footprint-generator ipc_gullwing_generator.py")
  (tags "HTSSOP SO")
  (attr smd)
  (fp_text reference REF** (at 0 -3.45) (layer F.SilkS)
    (effects (font (size 1 1) (thickness 0.15)))
  )
  (fp_text value HTSSOP-16-1EP_4.4x5mm_P0.65mm_EP3x3mm (at 0 3.45) (layer F.Fab)
    (effects (font (size 1 1) (thickness 0.15)))
  )
  (fp_line (start -3.9 -2.75) (end -3.9 2.75)
    (stroke (width 0.05) (type solid)) (layer F.CrtYd))
  (fp_line (start -3.9 2.75) (end 3.9 2.75)
    (stroke (width 0.05) (type solid)) (layer F.CrtYd))
  (fp_line (start 3.9 2.75) (end 3.9 -2.75)
    (stroke (width 0.05) (type solid)) (layer F.CrtYd))
  (fp_line (start 3.9 -2.75) (end -3.9 -2.75)
    (stroke (width 0.05) (type solid)) (layer F.CrtYd))
  (fp_line (start 0 2.735) (end 2.2 2.735)
    (stroke (width 0.12) (type solid)) (layer F.SilkS))
  (fp_line (start 0 2.735) (end -2.2 2.735)
    (stroke (width 0.12) (type solid)) (layer F.SilkS))
  (fp_line (start 0 -2.735) (end 2.2 -2.735)
    (stroke (width 0.12) (type solid)) (layer F.SilkS))
  (fp_line (start 0 -2.735) (end -2.2 -2.735)
    (stroke (width 0.12) (type solid)) (layer F.SilkS))
  (fp_line (start -1.2 -2.5) (end 2.2 -2.5)
    (stroke (width 0.1) (type solid)) (layer F.Fab))
  (fp_line (start 2.2 -2.5) (end 2.2 2.5)
    (stroke (width 0.1) (type solid)) (layer F.Fab))
  (fp_line (start 2.2 2.5) (end -2.2 2.5)
    (stroke (width 0.1) (type solid)) (layer F.Fab))
  (fp_line (start -2.2 2.5) (end -2.2 -1.5)
    (stroke (width 0.1) (type solid)) (layer F.Fab))
  (fp_line (start -2.2 -1.5) (end -1.2 -2.5)
    (stroke (width 0.1) (type solid)) (layer F.Fab))
  (pad 1 smd roundrect (at -2.875 -2.275) (size 1.55 0.4) (layers F.Cu F.Mask F.Paste) (roundrect_rratio 0.25))
  (pad 2 smd roundrect (at -2.875 -1.625) (size 1.55 0.4) (layers F.Cu F.Mask F.Paste) (roundrect_rratio 0.25))
  (pad 3 smd roundrect (at -2.875 -0.975) (size 1.55 0.4) (layers F.Cu F.Mask F.Paste) (roundrect_rratio 0.25))
  (pad 4 smd roundrect (at -2.875 -0.325) (size 1.55 0.4) (layers F.Cu F.Mask F.Paste) (roundrect_rratio 0.25))
  (pad 5 smd roundrect (at -2.875 0.325) (size 1.55 0.4) (layers F.Cu F.Mask F.Paste) (roundrect_rratio 0.25))
  (pad 6 smd roundrect (at -2.875 0.975) (size 1.55 0.4) (layers F.Cu F.Mask F.Paste) (roundrect_rratio 0.25))
  (pad 7 smd roundrect (at -2.875 1.625) (size 1.55 0.4) (layers F.Cu F.Mask F.Paste) (roundrect_rratio 0.25))
  (pad 8 smd roundrect (at -2.875 2.275) (size 1.55 0.4) (layers F.Cu F.Mask F.Paste) (roundrect_rratio 0.25))
  (pad 9 smd roundrect (at 2.875 2.275) (size 1.55 0.4) (layers F.Cu F.Mask F.Paste) (roundrect_rratio 0.25))
  (pad 10 smd roundrect (at 2.875 1.625) (size 1.55 0.4) (layers F.Cu F.Mask F.Paste) (roundrect_rratio 0.25))
  (pad 11 smd roundrect (at 2.875 0.975) (size 1.55 0.4) (layers F.Cu F.Mask F.Paste) (roundrect_rratio 0.25))
  (pad 12 smd roundrect (at 2.875 0.325) (size 1.55 0.4) (layers F.Cu F.Mask F.Paste) (roundrect_rratio 0.25))
  (pad 13 smd roundrect (at 2.875 -0.325) (size 1.55 0.4) (layers F.Cu F.Mask F.Paste) (roundrect_rratio 0.25))
  (pad 14 smd roundrect (at 2.875 -0.975) (size 1.55 0.4) (layers F.Cu F.Mask F.Paste) (roundrect_rratio 0.25))
  (pad 15 smd roundrect (at 2.875 -1.625) (size 1.55 0.4) (layers F.Cu F.Mask F.Paste) (roundrect_rratio 0.25))
  (pad 16 smd roundrect (at 2.875 -2.275) (size 1.55 0.4) (layers F.Cu F.Mask F.Paste) (roundrect_rratio 0.25))
  (pad 17 smd rect (at 0 0) (size 3 3) (property pad_prop_heatsink) (layers F.Cu F.Mask)
    (zone_connect 2))
  (pad "" smd roundrect (at -0.75 -0.75) (size 1.21 1.21) (layers F.Paste) (roundrect_rratio 0.206612))
  (pad "" smd roundrect (at -0.75 0.75) (size 1.21 1.21) (layers F.Paste) (roundrect_rratio 0.206612))
  (pad "" smd roundrect (at 0.75 -0.75) (size 1.21 1.21) (layers F.Paste) (roundrect_rratio 0.206612))
  (pad "" smd roundrect (at 0.75 0.75) (size 1.21 1.21) (layers F.Paste) (roundrect_rratio 0.206612))
  (fp_poly (pts (xy -3.91 -2.275) (xy -4.162 -2.455) (xy -4.162 -2.095) (xy -3.91 -2.275))
    (stroke (width 0.12) (type solid)) (fill solid) (layer F.SilkS))
  (fp_text user ${REFERENCE} (at 0 0) (layer F.Fab)
    (effects (font (size 1 1) (thickness 0.15)))
  )
  (model ${KICAD7_3DMODEL_DIR}/Package_SO.3dshapes/HTSSOP-16-1EP_4.4x5mm_P0.65mm_EP3x3mm.wrl
    (offset (xyz 0 0 0))
    (scale (xyz 1 1 1))
    (rotate (xyz 0 0 0))
  )
)
