(footprint Infineon_PG-DSO-20-U03_7.5x12.8mm (version 20221018) (generator kicad-footprint-generator)
  (layer F.Cu)
  (descr "Infineon  PG-DSO, 20 Pin (https://www.infineon.com/dgdl/Infineon-2ED1323S12P_2ED1324S12P-DataSheet-v01_01-EN.pdf?fileId=8ac78c8c869190210186e92f0f506d0c), generated with kicad-footprint-generator ipc_gullwing_generator.py")
  (tags "Infineon PG-DSO SO")
  (attr smd)
  (fp_text reference REF** (at 0 -7.35) (layer F.SilkS)
    (effects (font (size 1 1) (thickness 0.15)))
  )
  (fp_text value Infineon_PG-DSO-20-U03_7.5x12.8mm (at 0 7.35) (layer F.Fab)
    (effects (font (size 1 1) (thickness 0.15)))
  )
  (fp_line (start -5.88 -6.65) (end -5.88 6.65)
    (stroke (width 0.05) (type solid)) (layer F.CrtYd))
  (fp_line (start -5.88 6.65) (end 5.88 6.65)
    (stroke (width 0.05) (type solid)) (layer F.CrtYd))
  (fp_line (start 5.88 6.65) (end 5.88 -6.65)
    (stroke (width 0.05) (type solid)) (layer F.CrtYd))
  (fp_line (start 5.88 -6.65) (end -5.88 -6.65)
    (stroke (width 0.05) (type solid)) (layer F.CrtYd))
  (fp_line (start 0 6.51) (end 3.86 6.51)
    (stroke (width 0.12) (type solid)) (layer F.SilkS))
  (fp_line (start 3.86 6.51) (end 3.86 6.035)
    (stroke (width 0.12) (type solid)) (layer F.SilkS))
  (fp_line (start 0 6.51) (end -3.86 6.51)
    (stroke (width 0.12) (type solid)) (layer F.SilkS))
  (fp_line (start -3.86 6.51) (end -3.86 6.035)
    (stroke (width 0.12) (type solid)) (layer F.SilkS))
  (fp_line (start 0 -6.51) (end 3.86 -6.51)
    (stroke (width 0.12) (type solid)) (layer F.SilkS))
  (fp_line (start 3.86 -6.51) (end 3.86 -6.035)
    (stroke (width 0.12) (type solid)) (layer F.SilkS))
  (fp_line (start 0 -6.51) (end -3.86 -6.51)
    (stroke (width 0.12) (type solid)) (layer F.SilkS))
  (fp_line (start -3.86 -6.51) (end -3.86 -6.035)
    (stroke (width 0.12) (type solid)) (layer F.SilkS))
  (fp_line (start -2.75 -6.4) (end 3.75 -6.4)
    (stroke (width 0.1) (type solid)) (layer F.Fab))
  (fp_line (start 3.75 -6.4) (end 3.75 6.4)
    (stroke (width 0.1) (type solid)) (layer F.Fab))
  (fp_line (start 3.75 6.4) (end -3.75 6.4)
    (stroke (width 0.1) (type solid)) (layer F.Fab))
  (fp_line (start -3.75 6.4) (end -3.75 -5.4)
    (stroke (width 0.1) (type solid)) (layer F.Fab))
  (fp_line (start -3.75 -5.4) (end -2.75 -6.4)
    (stroke (width 0.1) (type solid)) (layer F.Fab))
  (pad 1 smd roundrect (at -4.65 -5.525) (size 1.95 0.5) (layers F.Cu F.Mask F.Paste) (roundrect_rratio 0.25))
  (pad 2 smd roundrect (at -4.65 -4.875) (size 1.95 0.5) (layers F.Cu F.Mask F.Paste) (roundrect_rratio 0.25))
  (pad 3 smd roundrect (at -4.65 -2.925) (size 1.95 0.5) (layers F.Cu F.Mask F.Paste) (roundrect_rratio 0.25))
  (pad 4 smd roundrect (at -4.65 -2.275) (size 1.95 0.5) (layers F.Cu F.Mask F.Paste) (roundrect_rratio 0.25))
  (pad 5 smd roundrect (at -4.65 -1.625) (size 1.95 0.5) (layers F.Cu F.Mask F.Paste) (roundrect_rratio 0.25))
  (pad 6 smd roundrect (at -4.65 -0.975) (size 1.95 0.5) (layers F.Cu F.Mask F.Paste) (roundrect_rratio 0.25))
  (pad 7 smd roundrect (at -4.65 -0.325) (size 1.95 0.5) (layers F.Cu F.Mask F.Paste) (roundrect_rratio 0.25))
  (pad 8 smd roundrect (at -4.65 0.325) (size 1.95 0.5) (layers F.Cu F.Mask F.Paste) (roundrect_rratio 0.25))
  (pad 9 smd roundrect (at -4.65 0.975) (size 1.95 0.5) (layers F.Cu F.Mask F.Paste) (roundrect_rratio 0.25))
  (pad 10 smd roundrect (at -4.65 1.625) (size 1.95 0.5) (layers F.Cu F.Mask F.Paste) (roundrect_rratio 0.25))
  (pad 11 smd roundrect (at -4.65 2.275) (size 1.95 0.5) (layers F.Cu F.Mask F.Paste) (roundrect_rratio 0.25))
  (pad 12 smd roundrect (at -4.65 2.925) (size 1.95 0.5) (layers F.Cu F.Mask F.Paste) (roundrect_rratio 0.25))
  (pad 13 smd roundrect (at -4.65 3.575) (size 1.95 0.5) (layers F.Cu F.Mask F.Paste) (roundrect_rratio 0.25))
  (pad 14 smd roundrect (at 4.65 3.575) (size 1.95 0.5) (layers F.Cu F.Mask F.Paste) (roundrect_rratio 0.25))
  (pad 15 smd roundrect (at 4.65 2.925) (size 1.95 0.5) (layers F.Cu F.Mask F.Paste) (roundrect_rratio 0.25))
  (pad 16 smd roundrect (at 4.65 2.275) (size 1.95 0.5) (layers F.Cu F.Mask F.Paste) (roundrect_rratio 0.25))
  (pad 17 smd roundrect (at 4.65 1.625) (size 1.95 0.5) (layers F.Cu F.Mask F.Paste) (roundrect_rratio 0.25))
  (pad 18 smd roundrect (at 4.65 0.975) (size 1.95 0.5) (layers F.Cu F.Mask F.Paste) (roundrect_rratio 0.25))
  (pad 19 smd roundrect (at 4.65 -4.875) (size 1.95 0.5) (layers F.Cu F.Mask F.Paste) (roundrect_rratio 0.25))
  (pad 20 smd roundrect (at 4.65 -5.525) (size 1.95 0.5) (layers F.Cu F.Mask F.Paste) (roundrect_rratio 0.25))
  (fp_poly (pts (xy -4.6875 -6.035) (xy -4.8775 -6.301) (xy -4.4975 -6.301) (xy -4.6875 -6.035))
    (stroke (width 0.12) (type solid)) (fill solid) (layer F.SilkS))
  (fp_text user ${REFERENCE} (at 0 0) (layer F.Fab)
    (effects (font (size 1 1) (thickness 0.15)))
  )
  (model ${KICAD7_3DMODEL_DIR}/Package_SO.3dshapes/Infineon_PG-DSO-20-U03_7.5x12.8mm.wrl
    (offset (xyz 0 0 0))
    (scale (xyz 1 1 1))
    (rotate (xyz 0 0 0))
  )
)
