(footprint SO-14_5.3x10.2mm_P1.27mm (version 20221018) (generator kicad-footprint-generator)
  (layer F.Cu)
  (descr "SO, 14 Pin (https://www.ti.com/lit/ml/msop002a/msop002a.pdf), generated with kicad-footprint-generator ipc_gullwing_generator.py")
  (tags "SO SO")
  (attr smd)
  (fp_text reference REF** (at 0 -6.05) (layer F.SilkS)
    (effects (font (size 1 1) (thickness 0.15)))
  )
  (fp_text value SO-14_5.3x10.2mm_P1.27mm (at 0 6.05) (layer F.Fab)
    (effects (font (size 1 1) (thickness 0.15)))
  )
  (fp_line (start -4.7 -5.35) (end -4.7 5.35)
    (stroke (width 0.05) (type solid)) (layer F.CrtYd))
  (fp_line (start -4.7 5.35) (end 4.7 5.35)
    (stroke (width 0.05) (type solid)) (layer F.CrtYd))
  (fp_line (start 4.7 5.35) (end 4.7 -5.35)
    (stroke (width 0.05) (type solid)) (layer F.CrtYd))
  (fp_line (start 4.7 -5.35) (end -4.7 -5.35)
    (stroke (width 0.05) (type solid)) (layer F.CrtYd))
  (fp_line (start 0 5.21) (end 2.76 5.21)
    (stroke (width 0.12) (type solid)) (layer F.SilkS))
  (fp_line (start 2.76 5.21) (end 2.76 4.37)
    (stroke (width 0.12) (type solid)) (layer F.SilkS))
  (fp_line (start 0 5.21) (end -2.76 5.21)
    (stroke (width 0.12) (type solid)) (layer F.SilkS))
  (fp_line (start -2.76 5.21) (end -2.76 4.37)
    (stroke (width 0.12) (type solid)) (layer F.SilkS))
  (fp_line (start 0 -5.21) (end 2.76 -5.21)
    (stroke (width 0.12) (type solid)) (layer F.SilkS))
  (fp_line (start 2.76 -5.21) (end 2.76 -4.37)
    (stroke (width 0.12) (type solid)) (layer F.SilkS))
  (fp_line (start 0 -5.21) (end -2.76 -5.21)
    (stroke (width 0.12) (type solid)) (layer F.SilkS))
  (fp_line (start -2.76 -5.21) (end -2.76 -4.37)
    (stroke (width 0.12) (type solid)) (layer F.SilkS))
  (fp_line (start -1.65 -5.1) (end 2.65 -5.1)
    (stroke (width 0.1) (type solid)) (layer F.Fab))
  (fp_line (start 2.65 -5.1) (end 2.65 5.1)
    (stroke (width 0.1) (type solid)) (layer F.Fab))
  (fp_line (start 2.65 5.1) (end -2.65 5.1)
    (stroke (width 0.1) (type solid)) (layer F.Fab))
  (fp_line (start -2.65 5.1) (end -2.65 -4.1)
    (stroke (width 0.1) (type solid)) (layer F.Fab))
  (fp_line (start -2.65 -4.1) (end -1.65 -5.1)
    (stroke (width 0.1) (type solid)) (layer F.Fab))
  (pad 1 smd roundrect (at -3.4625 -3.81) (size 1.975 0.6) (layers F.Cu F.Mask F.Paste) (roundrect_rratio 0.25))
  (pad 2 smd roundrect (at -3.4625 -2.54) (size 1.975 0.6) (layers F.Cu F.Mask F.Paste) (roundrect_rratio 0.25))
  (pad 3 smd roundrect (at -3.4625 -1.27) (size 1.975 0.6) (layers F.Cu F.Mask F.Paste) (roundrect_rratio 0.25))
  (pad 4 smd roundrect (at -3.4625 0) (size 1.975 0.6) (layers F.Cu F.Mask F.Paste) (roundrect_rratio 0.25))
  (pad 5 smd roundrect (at -3.4625 1.27) (size 1.975 0.6) (layers F.Cu F.Mask F.Paste) (roundrect_rratio 0.25))
  (pad 6 smd roundrect (at -3.4625 2.54) (size 1.975 0.6) (layers F.Cu F.Mask F.Paste) (roundrect_rratio 0.25))
  (pad 7 smd roundrect (at -3.4625 3.81) (size 1.975 0.6) (layers F.Cu F.Mask F.Paste) (roundrect_rratio 0.25))
  (pad 8 smd roundrect (at 3.4625 3.81) (size 1.975 0.6) (layers F.Cu F.Mask F.Paste) (roundrect_rratio 0.25))
  (pad 9 smd roundrect (at 3.4625 2.54) (size 1.975 0.6) (layers F.Cu F.Mask F.Paste) (roundrect_rratio 0.25))
  (pad 10 smd roundrect (at 3.4625 1.27) (size 1.975 0.6) (layers F.Cu F.Mask F.Paste) (roundrect_rratio 0.25))
  (pad 11 smd roundrect (at 3.4625 0) (size 1.975 0.6) (layers F.Cu F.Mask F.Paste) (roundrect_rratio 0.25))
  (pad 12 smd roundrect (at 3.4625 -1.27) (size 1.975 0.6) (layers F.Cu F.Mask F.Paste) (roundrect_rratio 0.25))
  (pad 13 smd roundrect (at 3.4625 -2.54) (size 1.975 0.6) (layers F.Cu F.Mask F.Paste) (roundrect_rratio 0.25))
  (pad 14 smd roundrect (at 3.4625 -3.81) (size 1.975 0.6) (layers F.Cu F.Mask F.Paste) (roundrect_rratio 0.25))
  (fp_poly (pts (xy -3.55 -4.37) (xy -3.79 -4.706) (xy -3.31 -4.706) (xy -3.55 -4.37))
    (stroke (width 0.12) (type solid)) (fill solid) (layer F.SilkS))
  (fp_text user ${REFERENCE} (at 0 0) (layer F.Fab)
    (effects (font (size 1 1) (thickness 0.15)))
  )
  (model ${KICAD7_3DMODEL_DIR}/Package_SO.3dshapes/SO-14_5.3x10.2mm_P1.27mm.wrl
    (offset (xyz 0 0 0))
    (scale (xyz 1 1 1))
    (rotate (xyz 0 0 0))
  )
)
