(footprint SOIC-8_7.5x5.85mm_P1.27mm (version 20221018) (generator kicad-footprint-generator)
  (layer F.Cu)
  (descr "SOIC, 8 Pin (http://www.ti.com/lit/ml/mpds382b/mpds382b.pdf), generated with kicad-footprint-generator ipc_gullwing_generator.py")
  (tags "SOIC SO")
  (attr smd)
  (fp_text reference REF** (at 0 -3.88) (layer F.SilkS)
    (effects (font (size 1 1) (thickness 0.15)))
  )
  (fp_text value SOIC-8_7.5x5.85mm_P1.27mm (at 0 3.88) (layer F.Fab)
    (effects (font (size 1 1) (thickness 0.15)))
  )
  (fp_line (start -6.48 -3.18) (end -6.48 3.18)
    (stroke (width 0.05) (type solid)) (layer F.CrtYd))
  (fp_line (start -6.48 3.18) (end 6.48 3.18)
    (stroke (width 0.05) (type solid)) (layer F.CrtYd))
  (fp_line (start 6.48 3.18) (end 6.48 -3.18)
    (stroke (width 0.05) (type solid)) (layer F.CrtYd))
  (fp_line (start 6.48 -3.18) (end -6.48 -3.18)
    (stroke (width 0.05) (type solid)) (layer F.CrtYd))
  (fp_line (start 0 3.035) (end 3.86 3.035)
    (stroke (width 0.12) (type solid)) (layer F.SilkS))
  (fp_line (start 3.86 3.035) (end 3.86 2.465)
    (stroke (width 0.12) (type solid)) (layer F.SilkS))
  (fp_line (start 0 3.035) (end -3.86 3.035)
    (stroke (width 0.12) (type solid)) (layer F.SilkS))
  (fp_line (start -3.86 3.035) (end -3.86 2.465)
    (stroke (width 0.12) (type solid)) (layer F.SilkS))
  (fp_line (start 0 -3.035) (end 3.86 -3.035)
    (stroke (width 0.12) (type solid)) (layer F.SilkS))
  (fp_line (start 3.86 -3.035) (end 3.86 -2.465)
    (stroke (width 0.12) (type solid)) (layer F.SilkS))
  (fp_line (start 0 -3.035) (end -3.86 -3.035)
    (stroke (width 0.12) (type solid)) (layer F.SilkS))
  (fp_line (start -3.86 -3.035) (end -3.86 -2.465)
    (stroke (width 0.12) (type solid)) (layer F.SilkS))
  (fp_line (start -2.75 -2.925) (end 3.75 -2.925)
    (stroke (width 0.1) (type solid)) (layer F.Fab))
  (fp_line (start 3.75 -2.925) (end 3.75 2.925)
    (stroke (width 0.1) (type solid)) (layer F.Fab))
  (fp_line (start 3.75 2.925) (end -3.75 2.925)
    (stroke (width 0.1) (type solid)) (layer F.Fab))
  (fp_line (start -3.75 2.925) (end -3.75 -1.925)
    (stroke (width 0.1) (type solid)) (layer F.Fab))
  (fp_line (start -3.75 -1.925) (end -2.75 -2.925)
    (stroke (width 0.1) (type solid)) (layer F.Fab))
  (pad 1 smd roundrect (at -5.325 -1.905) (size 1.8 0.6) (layers F.Cu F.Mask F.Paste) (roundrect_rratio 0.25))
  (pad 2 smd roundrect (at -5.325 -0.635) (size 1.8 0.6) (layers F.Cu F.Mask F.Paste) (roundrect_rratio 0.25))
  (pad 3 smd roundrect (at -5.325 0.635) (size 1.8 0.6) (layers F.Cu F.Mask F.Paste) (roundrect_rratio 0.25))
  (pad 4 smd roundrect (at -5.325 1.905) (size 1.8 0.6) (layers F.Cu F.Mask F.Paste) (roundrect_rratio 0.25))
  (pad 5 smd roundrect (at 5.325 1.905) (size 1.8 0.6) (layers F.Cu F.Mask F.Paste) (roundrect_rratio 0.25))
  (pad 6 smd roundrect (at 5.325 0.635) (size 1.8 0.6) (layers F.Cu F.Mask F.Paste) (roundrect_rratio 0.25))
  (pad 7 smd roundrect (at 5.325 -0.635) (size 1.8 0.6) (layers F.Cu F.Mask F.Paste) (roundrect_rratio 0.25))
  (pad 8 smd roundrect (at 5.325 -1.905) (size 1.8 0.6) (layers F.Cu F.Mask F.Paste) (roundrect_rratio 0.25))
  (fp_poly (pts (xy -4.9875 -2.465) (xy -5.2275 -2.801) (xy -4.7475 -2.801) (xy -4.9875 -2.465))
    (stroke (width 0.12) (type solid)) (fill solid) (layer F.SilkS))
  (fp_text user ${REFERENCE} (at 0 0) (layer F.Fab)
    (effects (font (size 1 1) (thickness 0.15)))
  )
  (model ${KICAD7_3DMODEL_DIR}/Package_SO.3dshapes/SOIC-8_7.5x5.85mm_P1.27mm.wrl
    (offset (xyz 0 0 0))
    (scale (xyz 1 1 1))
    (rotate (xyz 0 0 0))
  )
)
