(footprint SOP-4_4.4x2.6mm_P1.27mm (version 20221018) (generator kicad-footprint-generator)
  (layer F.Cu)
  (descr "SOP, 4 Pin (http://www.vishay.com/docs/83510/tcmt1100.pdf), generated with kicad-footprint-generator ipc_gullwing_generator.py")
  (tags "SOP SO")
  (attr smd)
  (fp_text reference REF** (at 0 -2.25) (layer F.SilkS)
    (effects (font (size 1 1) (thickness 0.15)))
  )
  (fp_text value SOP-4_4.4x2.6mm_P1.27mm (at 0 2.25) (layer F.Fab)
    (effects (font (size 1 1) (thickness 0.15)))
  )
  (fp_line (start -4.25 -1.55) (end -4.25 1.55)
    (stroke (width 0.05) (type solid)) (layer F.CrtYd))
  (fp_line (start -4.25 1.55) (end 4.25 1.55)
    (stroke (width 0.05) (type solid)) (layer F.CrtYd))
  (fp_line (start 4.25 1.55) (end 4.25 -1.55)
    (stroke (width 0.05) (type solid)) (layer F.CrtYd))
  (fp_line (start 4.25 -1.55) (end -4.25 -1.55)
    (stroke (width 0.05) (type solid)) (layer F.CrtYd))
  (fp_line (start 0 1.41) (end 2.31 1.41)
    (stroke (width 0.12) (type solid)) (layer F.SilkS))
  (fp_line (start 2.31 1.41) (end 2.31 1.195)
    (stroke (width 0.12) (type solid)) (layer F.SilkS))
  (fp_line (start 0 1.41) (end -2.31 1.41)
    (stroke (width 0.12) (type solid)) (layer F.SilkS))
  (fp_line (start -2.31 1.41) (end -2.31 1.195)
    (stroke (width 0.12) (type solid)) (layer F.SilkS))
  (fp_line (start 0 -1.41) (end 2.31 -1.41)
    (stroke (width 0.12) (type solid)) (layer F.SilkS))
  (fp_line (start 2.31 -1.41) (end 2.31 -1.195)
    (stroke (width 0.12) (type solid)) (layer F.SilkS))
  (fp_line (start 0 -1.41) (end -2.31 -1.41)
    (stroke (width 0.12) (type solid)) (layer F.SilkS))
  (fp_line (start -2.31 -1.41) (end -2.31 -1.195)
    (stroke (width 0.12) (type solid)) (layer F.SilkS))
  (fp_line (start -1.55 -1.3) (end 2.2 -1.3)
    (stroke (width 0.1) (type solid)) (layer F.Fab))
  (fp_line (start 2.2 -1.3) (end 2.2 1.3)
    (stroke (width 0.1) (type solid)) (layer F.Fab))
  (fp_line (start 2.2 1.3) (end -2.2 1.3)
    (stroke (width 0.1) (type solid)) (layer F.Fab))
  (fp_line (start -2.2 1.3) (end -2.2 -0.65)
    (stroke (width 0.1) (type solid)) (layer F.Fab))
  (fp_line (start -2.2 -0.65) (end -1.55 -1.3)
    (stroke (width 0.1) (type solid)) (layer F.Fab))
  (pad 1 smd roundrect (at -3.1875 -0.635) (size 1.625 0.6) (layers F.Cu F.Mask F.Paste) (roundrect_rratio 0.25))
  (pad 2 smd roundrect (at -3.1875 0.635) (size 1.625 0.6) (layers F.Cu F.Mask F.Paste) (roundrect_rratio 0.25))
  (pad 3 smd roundrect (at 3.1875 0.635) (size 1.625 0.6) (layers F.Cu F.Mask F.Paste) (roundrect_rratio 0.25))
  (pad 4 smd roundrect (at 3.1875 -0.635) (size 1.625 0.6) (layers F.Cu F.Mask F.Paste) (roundrect_rratio 0.25))
  (fp_poly (pts (xy -3.1 -1.195) (xy -3.34 -1.531) (xy -2.86 -1.531) (xy -3.1 -1.195))
    (stroke (width 0.12) (type solid)) (fill solid) (layer F.SilkS))
  (fp_text user ${REFERENCE} (at 0 0) (layer F.Fab)
    (effects (font (size 1 1) (thickness 0.15)))
  )
  (model ${KICAD7_3DMODEL_DIR}/Package_SO.3dshapes/SOP-4_4.4x2.6mm_P1.27mm.wrl
    (offset (xyz 0 0 0))
    (scale (xyz 1 1 1))
    (rotate (xyz 0 0 0))
  )
)
