(footprint SOP-44_12.6x28.5mm_P1.27mm (version 20221018) (generator kicad-footprint-generator)
  (layer F.Cu)
  (descr "SOP, 44 Pin (https://www.mxic.com.tw/Lists/Datasheet/Attachments/8177/MX23C6410,%205V,%2064Mb,%20v3.1.pdf#page=5), generated with kicad-footprint-generator ipc_gullwing_generator.py")
  (tags "SOP SO")
  (attr smd)
  (fp_text reference REF** (at 0 -15.2) (layer F.SilkS)
    (effects (font (size 1 1) (thickness 0.15)))
  )
  (fp_text value SOP-44_12.6x28.5mm_P1.27mm (at 0 15.2) (layer F.Fab)
    (effects (font (size 1 1) (thickness 0.15)))
  )
  (fp_line (start -8.72 -14.5) (end -8.72 14.5)
    (stroke (width 0.05) (type solid)) (layer F.CrtYd))
  (fp_line (start -8.72 14.5) (end 8.72 14.5)
    (stroke (width 0.05) (type solid)) (layer F.CrtYd))
  (fp_line (start 8.72 14.5) (end 8.72 -14.5)
    (stroke (width 0.05) (type solid)) (layer F.CrtYd))
  (fp_line (start 8.72 -14.5) (end -8.72 -14.5)
    (stroke (width 0.05) (type solid)) (layer F.CrtYd))
  (fp_line (start 0 14.36) (end 6.41 14.36)
    (stroke (width 0.12) (type solid)) (layer F.SilkS))
  (fp_line (start 6.41 14.36) (end 6.41 13.895)
    (stroke (width 0.12) (type solid)) (layer F.SilkS))
  (fp_line (start 0 14.36) (end -6.41 14.36)
    (stroke (width 0.12) (type solid)) (layer F.SilkS))
  (fp_line (start -6.41 14.36) (end -6.41 13.895)
    (stroke (width 0.12) (type solid)) (layer F.SilkS))
  (fp_line (start 0 -14.36) (end 6.41 -14.36)
    (stroke (width 0.12) (type solid)) (layer F.SilkS))
  (fp_line (start 6.41 -14.36) (end 6.41 -13.895)
    (stroke (width 0.12) (type solid)) (layer F.SilkS))
  (fp_line (start 0 -14.36) (end -6.41 -14.36)
    (stroke (width 0.12) (type solid)) (layer F.SilkS))
  (fp_line (start -6.41 -14.36) (end -6.41 -13.895)
    (stroke (width 0.12) (type solid)) (layer F.SilkS))
  (fp_line (start -5.3 -14.25) (end 6.3 -14.25)
    (stroke (width 0.1) (type solid)) (layer F.Fab))
  (fp_line (start 6.3 -14.25) (end 6.3 14.25)
    (stroke (width 0.1) (type solid)) (layer F.Fab))
  (fp_line (start 6.3 14.25) (end -6.3 14.25)
    (stroke (width 0.1) (type solid)) (layer F.Fab))
  (fp_line (start -6.3 14.25) (end -6.3 -13.25)
    (stroke (width 0.1) (type solid)) (layer F.Fab))
  (fp_line (start -6.3 -13.25) (end -5.3 -14.25)
    (stroke (width 0.1) (type solid)) (layer F.Fab))
  (pad 1 smd roundrect (at -7.6 -13.335) (size 1.75 0.6) (layers F.Cu F.Mask F.Paste) (roundrect_rratio 0.25))
  (pad 2 smd roundrect (at -7.6 -12.065) (size 1.75 0.6) (layers F.Cu F.Mask F.Paste) (roundrect_rratio 0.25))
  (pad 3 smd roundrect (at -7.6 -10.795) (size 1.75 0.6) (layers F.Cu F.Mask F.Paste) (roundrect_rratio 0.25))
  (pad 4 smd roundrect (at -7.6 -9.525) (size 1.75 0.6) (layers F.Cu F.Mask F.Paste) (roundrect_rratio 0.25))
  (pad 5 smd roundrect (at -7.6 -8.255) (size 1.75 0.6) (layers F.Cu F.Mask F.Paste) (roundrect_rratio 0.25))
  (pad 6 smd roundrect (at -7.6 -6.985) (size 1.75 0.6) (layers F.Cu F.Mask F.Paste) (roundrect_rratio 0.25))
  (pad 7 smd roundrect (at -7.6 -5.715) (size 1.75 0.6) (layers F.Cu F.Mask F.Paste) (roundrect_rratio 0.25))
  (pad 8 smd roundrect (at -7.6 -4.445) (size 1.75 0.6) (layers F.Cu F.Mask F.Paste) (roundrect_rratio 0.25))
  (pad 9 smd roundrect (at -7.6 -3.175) (size 1.75 0.6) (layers F.Cu F.Mask F.Paste) (roundrect_rratio 0.25))
  (pad 10 smd roundrect (at -7.6 -1.905) (size 1.75 0.6) (layers F.Cu F.Mask F.Paste) (roundrect_rratio 0.25))
  (pad 11 smd roundrect (at -7.6 -0.635) (size 1.75 0.6) (layers F.Cu F.Mask F.Paste) (roundrect_rratio 0.25))
  (pad 12 smd roundrect (at -7.6 0.635) (size 1.75 0.6) (layers F.Cu F.Mask F.Paste) (roundrect_rratio 0.25))
  (pad 13 smd roundrect (at -7.6 1.905) (size 1.75 0.6) (layers F.Cu F.Mask F.Paste) (roundrect_rratio 0.25))
  (pad 14 smd roundrect (at -7.6 3.175) (size 1.75 0.6) (layers F.Cu F.Mask F.Paste) (roundrect_rratio 0.25))
  (pad 15 smd roundrect (at -7.6 4.445) (size 1.75 0.6) (layers F.Cu F.Mask F.Paste) (roundrect_rratio 0.25))
  (pad 16 smd roundrect (at -7.6 5.715) (size 1.75 0.6) (layers F.Cu F.Mask F.Paste) (roundrect_rratio 0.25))
  (pad 17 smd roundrect (at -7.6 6.985) (size 1.75 0.6) (layers F.Cu F.Mask F.Paste) (roundrect_rratio 0.25))
  (pad 18 smd roundrect (at -7.6 8.255) (size 1.75 0.6) (layers F.Cu F.Mask F.Paste) (roundrect_rratio 0.25))
  (pad 19 smd roundrect (at -7.6 9.525) (size 1.75 0.6) (layers F.Cu F.Mask F.Paste) (roundrect_rratio 0.25))
  (pad 20 smd roundrect (at -7.6 10.795) (size 1.75 0.6) (layers F.Cu F.Mask F.Paste) (roundrect_rratio 0.25))
  (pad 21 smd roundrect (at -7.6 12.065) (size 1.75 0.6) (layers F.Cu F.Mask F.Paste) (roundrect_rratio 0.25))
  (pad 22 smd roundrect (at -7.6 13.335) (size 1.75 0.6) (layers F.Cu F.Mask F.Paste) (roundrect_rratio 0.25))
  (pad 23 smd roundrect (at 7.6 13.335) (size 1.75 0.6) (layers F.Cu F.Mask F.Paste) (roundrect_rratio 0.25))
  (pad 24 smd roundrect (at 7.6 12.065) (size 1.75 0.6) (layers F.Cu F.Mask F.Paste) (roundrect_rratio 0.25))
  (pad 25 smd roundrect (at 7.6 10.795) (size 1.75 0.6) (layers F.Cu F.Mask F.Paste) (roundrect_rratio 0.25))
  (pad 26 smd roundrect (at 7.6 9.525) (size 1.75 0.6) (layers F.Cu F.Mask F.Paste) (roundrect_rratio 0.25))
  (pad 27 smd roundrect (at 7.6 8.255) (size 1.75 0.6) (layers F.Cu F.Mask F.Paste) (roundrect_rratio 0.25))
  (pad 28 smd roundrect (at 7.6 6.985) (size 1.75 0.6) (layers F.Cu F.Mask F.Paste) (roundrect_rratio 0.25))
  (pad 29 smd roundrect (at 7.6 5.715) (size 1.75 0.6) (layers F.Cu F.Mask F.Paste) (roundrect_rratio 0.25))
  (pad 30 smd roundrect (at 7.6 4.445) (size 1.75 0.6) (layers F.Cu F.Mask F.Paste) (roundrect_rratio 0.25))
  (pad 31 smd roundrect (at 7.6 3.175) (size 1.75 0.6) (layers F.Cu F.Mask F.Paste) (roundrect_rratio 0.25))
  (pad 32 smd roundrect (at 7.6 1.905) (size 1.75 0.6) (layers F.Cu F.Mask F.Paste) (roundrect_rratio 0.25))
  (pad 33 smd roundrect (at 7.6 0.635) (size 1.75 0.6) (layers F.Cu F.Mask F.Paste) (roundrect_rratio 0.25))
  (pad 34 smd roundrect (at 7.6 -0.635) (size 1.75 0.6) (layers F.Cu F.Mask F.Paste) (roundrect_rratio 0.25))
  (pad 35 smd roundrect (at 7.6 -1.905) (size 1.75 0.6) (layers F.Cu F.Mask F.Paste) (roundrect_rratio 0.25))
  (pad 36 smd roundrect (at 7.6 -3.175) (size 1.75 0.6) (layers F.Cu F.Mask F.Paste) (roundrect_rratio 0.25))
  (pad 37 smd roundrect (at 7.6 -4.445) (size 1.75 0.6) (layers F.Cu F.Mask F.Paste) (roundrect_rratio 0.25))
  (pad 38 smd roundrect (at 7.6 -5.715) (size 1.75 0.6) (layers F.Cu F.Mask F.Paste) (roundrect_rratio 0.25))
  (pad 39 smd roundrect (at 7.6 -6.985) (size 1.75 0.6) (layers F.Cu F.Mask F.Paste) (roundrect_rratio 0.25))
  (pad 40 smd roundrect (at 7.6 -8.255) (size 1.75 0.6) (layers F.Cu F.Mask F.Paste) (roundrect_rratio 0.25))
  (pad 41 smd roundrect (at 7.6 -9.525) (size 1.75 0.6) (layers F.Cu F.Mask F.Paste) (roundrect_rratio 0.25))
  (pad 42 smd roundrect (at 7.6 -10.795) (size 1.75 0.6) (layers F.Cu F.Mask F.Paste) (roundrect_rratio 0.25))
  (pad 43 smd roundrect (at 7.6 -12.065) (size 1.75 0.6) (layers F.Cu F.Mask F.Paste) (roundrect_rratio 0.25))
  (pad 44 smd roundrect (at 7.6 -13.335) (size 1.75 0.6) (layers F.Cu F.Mask F.Paste) (roundrect_rratio 0.25))
  (fp_poly (pts (xy -7.3875 -13.895) (xy -7.6275 -14.231) (xy -7.1475 -14.231) (xy -7.3875 -13.895))
    (stroke (width 0.12) (type solid)) (fill solid) (layer F.SilkS))
  (fp_text user ${REFERENCE} (at 0 0) (layer F.Fab)
    (effects (font (size 1 1) (thickness 0.15)))
  )
  (model ${KICAD7_3DMODEL_DIR}/Package_SO.3dshapes/SOP-44_12.6x28.5mm_P1.27mm.wrl
    (offset (xyz 0 0 0))
    (scale (xyz 1 1 1))
    (rotate (xyz 0 0 0))
  )
)
