(footprint SOP-4_3.8x4.1mm_P2.54mm (version 20221018) (generator kicad-footprint-generator)
  (layer F.Cu)
  (descr "SOP, 4 Pin (http://www.ixysic.com/home/pdfs.nsf/www/CPC1017N.pdf/$file/CPC1017N.pdf), generated with kicad-footprint-generator ipc_gullwing_generator.py")
  (tags "SOP SO")
  (attr smd)
  (fp_text reference REF** (at 0 -3) (layer F.SilkS)
    (effects (font (size 1 1) (thickness 0.15)))
  )
  (fp_text value SOP-4_3.8x4.1mm_P2.54mm (at 0 3) (layer F.Fab)
    (effects (font (size 1 1) (thickness 0.15)))
  )
  (fp_line (start -3.72 -2.3) (end -3.72 2.3)
    (stroke (width 0.05) (type solid)) (layer F.CrtYd))
  (fp_line (start -3.72 2.3) (end 3.72 2.3)
    (stroke (width 0.05) (type solid)) (layer F.CrtYd))
  (fp_line (start 3.72 2.3) (end 3.72 -2.3)
    (stroke (width 0.05) (type solid)) (layer F.CrtYd))
  (fp_line (start 3.72 -2.3) (end -3.72 -2.3)
    (stroke (width 0.05) (type solid)) (layer F.CrtYd))
  (fp_line (start 0 2.16) (end 2.01 2.16)
    (stroke (width 0.12) (type solid)) (layer F.SilkS))
  (fp_line (start 2.01 2.16) (end 2.01 1.805)
    (stroke (width 0.12) (type solid)) (layer F.SilkS))
  (fp_line (start 0 2.16) (end -2.01 2.16)
    (stroke (width 0.12) (type solid)) (layer F.SilkS))
  (fp_line (start -2.01 2.16) (end -2.01 1.805)
    (stroke (width 0.12) (type solid)) (layer F.SilkS))
  (fp_line (start 0 -2.16) (end 2.01 -2.16)
    (stroke (width 0.12) (type solid)) (layer F.SilkS))
  (fp_line (start 2.01 -2.16) (end 2.01 -1.805)
    (stroke (width 0.12) (type solid)) (layer F.SilkS))
  (fp_line (start 0 -2.16) (end -2.01 -2.16)
    (stroke (width 0.12) (type solid)) (layer F.SilkS))
  (fp_line (start -2.01 -2.16) (end -2.01 -1.805)
    (stroke (width 0.12) (type solid)) (layer F.SilkS))
  (fp_line (start -0.95 -2.05) (end 1.9 -2.05)
    (stroke (width 0.1) (type solid)) (layer F.Fab))
  (fp_line (start 1.9 -2.05) (end 1.9 2.05)
    (stroke (width 0.1) (type solid)) (layer F.Fab))
  (fp_line (start 1.9 2.05) (end -1.9 2.05)
    (stroke (width 0.1) (type solid)) (layer F.Fab))
  (fp_line (start -1.9 2.05) (end -1.9 -1.1)
    (stroke (width 0.1) (type solid)) (layer F.Fab))
  (fp_line (start -1.9 -1.1) (end -0.95 -2.05)
    (stroke (width 0.1) (type solid)) (layer F.Fab))
  (pad 1 smd roundrect (at -2.75 -1.27) (size 1.45 0.55) (layers F.Cu F.Mask F.Paste) (roundrect_rratio 0.25))
  (pad 2 smd roundrect (at -2.75 1.27) (size 1.45 0.55) (layers F.Cu F.Mask F.Paste) (roundrect_rratio 0.25))
  (pad 3 smd roundrect (at 2.75 1.27) (size 1.45 0.55) (layers F.Cu F.Mask F.Paste) (roundrect_rratio 0.25))
  (pad 4 smd roundrect (at 2.75 -1.27) (size 1.45 0.55) (layers F.Cu F.Mask F.Paste) (roundrect_rratio 0.25))
  (fp_poly (pts (xy -2.6875 -1.805) (xy -2.9025 -2.106) (xy -2.4725 -2.106) (xy -2.6875 -1.805))
    (stroke (width 0.12) (type solid)) (fill solid) (layer F.SilkS))
  (fp_text user ${REFERENCE} (at 0 0) (layer F.Fab)
    (effects (font (size 0.95 0.95) (thickness 0.14)))
  )
  (model ${KICAD7_3DMODEL_DIR}/Package_SO.3dshapes/SOP-4_3.8x4.1mm_P2.54mm.wrl
    (offset (xyz 0 0 0))
    (scale (xyz 1 1 1))
    (rotate (xyz 0 0 0))
  )
)
