(footprint SOP-8_6.605x9.655mm_P2.54mm (version 20221018) (generator kicad-footprint-generator)
  (layer F.Cu)
  (descr "SOP, 8 Pin (https://www.onsemi.com/pdf/datasheet/hcpl2631m-d.pdf), generated with kicad-footprint-generator ipc_gullwing_generator.py")
  (tags "SOP SO")
  (attr smd)
  (fp_text reference REF** (at 0 -5.78) (layer F.SilkS)
    (effects (font (size 1 1) (thickness 0.15)))
  )
  (fp_text value SOP-8_6.605x9.655mm_P2.54mm (at 0 5.78) (layer F.Fab)
    (effects (font (size 1 1) (thickness 0.15)))
  )
  (fp_line (start -5.75 -5.08) (end -5.75 5.08)
    (stroke (width 0.05) (type solid)) (layer F.CrtYd))
  (fp_line (start -5.75 5.08) (end 5.75 5.08)
    (stroke (width 0.05) (type solid)) (layer F.CrtYd))
  (fp_line (start 5.75 5.08) (end 5.75 -5.08)
    (stroke (width 0.05) (type solid)) (layer F.CrtYd))
  (fp_line (start 5.75 -5.08) (end -5.75 -5.08)
    (stroke (width 0.05) (type solid)) (layer F.CrtYd))
  (fp_line (start 0 4.995) (end 3.3025 4.995)
    (stroke (width 0.12) (type solid)) (layer F.SilkS))
  (fp_line (start 0 4.995) (end -3.3025 4.995)
    (stroke (width 0.12) (type solid)) (layer F.SilkS))
  (fp_line (start 0 -4.995) (end 3.3025 -4.995)
    (stroke (width 0.12) (type solid)) (layer F.SilkS))
  (fp_line (start 0 -4.995) (end -3.3025 -4.995)
    (stroke (width 0.12) (type solid)) (layer F.SilkS))
  (fp_line (start -2.3025 -4.8275) (end 3.3025 -4.8275)
    (stroke (width 0.1) (type solid)) (layer F.Fab))
  (fp_line (start 3.3025 -4.8275) (end 3.3025 4.8275)
    (stroke (width 0.1) (type solid)) (layer F.Fab))
  (fp_line (start 3.3025 4.8275) (end -3.3025 4.8275)
    (stroke (width 0.1) (type solid)) (layer F.Fab))
  (fp_line (start -3.3025 4.8275) (end -3.3025 -3.8275)
    (stroke (width 0.1) (type solid)) (layer F.Fab))
  (fp_line (start -3.3025 -3.8275) (end -2.3025 -4.8275)
    (stroke (width 0.1) (type solid)) (layer F.Fab))
  (pad 1 smd roundrect (at -4.35 -3.81) (size 2.3 1.85) (layers F.Cu F.Mask F.Paste) (roundrect_rratio 0.135135))
  (pad 2 smd roundrect (at -4.35 -1.27) (size 2.3 1.85) (layers F.Cu F.Mask F.Paste) (roundrect_rratio 0.135135))
  (pad 3 smd roundrect (at -4.35 1.27) (size 2.3 1.85) (layers F.Cu F.Mask F.Paste) (roundrect_rratio 0.135135))
  (pad 4 smd roundrect (at -4.35 3.81) (size 2.3 1.85) (layers F.Cu F.Mask F.Paste) (roundrect_rratio 0.135135))
  (pad 5 smd roundrect (at 4.35 3.81) (size 2.3 1.85) (layers F.Cu F.Mask F.Paste) (roundrect_rratio 0.135135))
  (pad 6 smd roundrect (at 4.35 1.27) (size 2.3 1.85) (layers F.Cu F.Mask F.Paste) (roundrect_rratio 0.135135))
  (pad 7 smd roundrect (at 4.35 -1.27) (size 2.3 1.85) (layers F.Cu F.Mask F.Paste) (roundrect_rratio 0.135135))
  (pad 8 smd roundrect (at 4.35 -3.81) (size 2.3 1.85) (layers F.Cu F.Mask F.Paste) (roundrect_rratio 0.135135))
  (fp_poly (pts (xy -5.76 -3.81) (xy -6.376 -4.25) (xy -6.376 -3.37) (xy -5.76 -3.81))
    (stroke (width 0.12) (type solid)) (fill solid) (layer F.SilkS))
  (fp_text user ${REFERENCE} (at 0 0) (layer F.Fab)
    (effects (font (size 1 1) (thickness 0.15)))
  )
  (model ${KICAD7_3DMODEL_DIR}/Package_SO.3dshapes/SOP-8_6.605x9.655mm_P2.54mm.wrl
    (offset (xyz 0 0 0))
    (scale (xyz 1 1 1))
    (rotate (xyz 0 0 0))
  )
)
