(footprint SOP-16_4.55x10.3mm_P1.27mm (version 20221018) (generator kicad-footprint-generator)
  (layer F.Cu)
  (descr "SOP, 16 Pin (https://toshiba.semicon-storage.com/info/docget.jsp?did=12855&prodName=TLP290-4), generated with kicad-footprint-generator ipc_gullwing_generator.py")
  (tags "SOP SO")
  (attr smd)
  (fp_text reference REF** (at 0 -6.1) (layer F.SilkS)
    (effects (font (size 1 1) (thickness 0.15)))
  )
  (fp_text value SOP-16_4.55x10.3mm_P1.27mm (at 0 6.1) (layer F.Fab)
    (effects (font (size 1 1) (thickness 0.15)))
  )
  (fp_line (start -4.3 -5.4) (end -4.3 5.4)
    (stroke (width 0.05) (type solid)) (layer F.CrtYd))
  (fp_line (start -4.3 5.4) (end 4.3 5.4)
    (stroke (width 0.05) (type solid)) (layer F.CrtYd))
  (fp_line (start 4.3 5.4) (end 4.3 -5.4)
    (stroke (width 0.05) (type solid)) (layer F.CrtYd))
  (fp_line (start 4.3 -5.4) (end -4.3 -5.4)
    (stroke (width 0.05) (type solid)) (layer F.CrtYd))
  (fp_line (start 0 5.26) (end 2.385 5.26)
    (stroke (width 0.12) (type solid)) (layer F.SilkS))
  (fp_line (start 2.385 5.26) (end 2.385 5.005)
    (stroke (width 0.12) (type solid)) (layer F.SilkS))
  (fp_line (start 0 5.26) (end -2.385 5.26)
    (stroke (width 0.12) (type solid)) (layer F.SilkS))
  (fp_line (start -2.385 5.26) (end -2.385 5.005)
    (stroke (width 0.12) (type solid)) (layer F.SilkS))
  (fp_line (start 0 -5.26) (end 2.385 -5.26)
    (stroke (width 0.12) (type solid)) (layer F.SilkS))
  (fp_line (start 2.385 -5.26) (end 2.385 -5.005)
    (stroke (width 0.12) (type solid)) (layer F.SilkS))
  (fp_line (start 0 -5.26) (end -2.385 -5.26)
    (stroke (width 0.12) (type solid)) (layer F.SilkS))
  (fp_line (start -2.385 -5.26) (end -2.385 -5.005)
    (stroke (width 0.12) (type solid)) (layer F.SilkS))
  (fp_line (start -1.275 -5.15) (end 2.275 -5.15)
    (stroke (width 0.1) (type solid)) (layer F.Fab))
  (fp_line (start 2.275 -5.15) (end 2.275 5.15)
    (stroke (width 0.1) (type solid)) (layer F.Fab))
  (fp_line (start 2.275 5.15) (end -2.275 5.15)
    (stroke (width 0.1) (type solid)) (layer F.Fab))
  (fp_line (start -2.275 5.15) (end -2.275 -4.15)
    (stroke (width 0.1) (type solid)) (layer F.Fab))
  (fp_line (start -2.275 -4.15) (end -1.275 -5.15)
    (stroke (width 0.1) (type solid)) (layer F.Fab))
  (pad 1 smd roundrect (at -3.25 -4.445) (size 1.6 0.6) (layers F.Cu F.Mask F.Paste) (roundrect_rratio 0.25))
  (pad 2 smd roundrect (at -3.25 -3.175) (size 1.6 0.6) (layers F.Cu F.Mask F.Paste) (roundrect_rratio 0.25))
  (pad 3 smd roundrect (at -3.25 -1.905) (size 1.6 0.6) (layers F.Cu F.Mask F.Paste) (roundrect_rratio 0.25))
  (pad 4 smd roundrect (at -3.25 -0.635) (size 1.6 0.6) (layers F.Cu F.Mask F.Paste) (roundrect_rratio 0.25))
  (pad 5 smd roundrect (at -3.25 0.635) (size 1.6 0.6) (layers F.Cu F.Mask F.Paste) (roundrect_rratio 0.25))
  (pad 6 smd roundrect (at -3.25 1.905) (size 1.6 0.6) (layers F.Cu F.Mask F.Paste) (roundrect_rratio 0.25))
  (pad 7 smd roundrect (at -3.25 3.175) (size 1.6 0.6) (layers F.Cu F.Mask F.Paste) (roundrect_rratio 0.25))
  (pad 8 smd roundrect (at -3.25 4.445) (size 1.6 0.6) (layers F.Cu F.Mask F.Paste) (roundrect_rratio 0.25))
  (pad 9 smd roundrect (at 3.25 4.445) (size 1.6 0.6) (layers F.Cu F.Mask F.Paste) (roundrect_rratio 0.25))
  (pad 10 smd roundrect (at 3.25 3.175) (size 1.6 0.6) (layers F.Cu F.Mask F.Paste) (roundrect_rratio 0.25))
  (pad 11 smd roundrect (at 3.25 1.905) (size 1.6 0.6) (layers F.Cu F.Mask F.Paste) (roundrect_rratio 0.25))
  (pad 12 smd roundrect (at 3.25 0.635) (size 1.6 0.6) (layers F.Cu F.Mask F.Paste) (roundrect_rratio 0.25))
  (pad 13 smd roundrect (at 3.25 -0.635) (size 1.6 0.6) (layers F.Cu F.Mask F.Paste) (roundrect_rratio 0.25))
  (pad 14 smd roundrect (at 3.25 -1.905) (size 1.6 0.6) (layers F.Cu F.Mask F.Paste) (roundrect_rratio 0.25))
  (pad 15 smd roundrect (at 3.25 -3.175) (size 1.6 0.6) (layers F.Cu F.Mask F.Paste) (roundrect_rratio 0.25))
  (pad 16 smd roundrect (at 3.25 -4.445) (size 1.6 0.6) (layers F.Cu F.Mask F.Paste) (roundrect_rratio 0.25))
  (fp_poly (pts (xy -3.1625 -5.005) (xy -3.4025 -5.341) (xy -2.9225 -5.341) (xy -3.1625 -5.005))
    (stroke (width 0.12) (type solid)) (fill solid) (layer F.SilkS))
  (fp_text user ${REFERENCE} (at 0 0) (layer F.Fab)
    (effects (font (size 1 1) (thickness 0.15)))
  )
  (model ${KICAD7_3DMODEL_DIR}/Package_SO.3dshapes/SOP-16_4.55x10.3mm_P1.27mm.wrl
    (offset (xyz 0 0 0))
    (scale (xyz 1 1 1))
    (rotate (xyz 0 0 0))
  )
)
