(footprint SSO-7-8_6.4x9.78mm_P2.54mm (version 20221018) (generator kicad-footprint-generator)
  (layer F.Cu)
  (descr "SSO, 7 Pin (https://b2b-api.panasonic.eu/file_stream/pids/fileversion/2787), generated with kicad-footprint-generator ipc_gullwing_generator.py")
  (tags "SSO SO")
  (attr smd)
  (fp_text reference REF** (at 0 -5.84) (layer F.SilkS)
    (effects (font (size 1 1) (thickness 0.15)))
  )
  (fp_text value SSO-7-8_6.4x9.78mm_P2.54mm (at 0 5.84) (layer F.Fab)
    (effects (font (size 1 1) (thickness 0.15)))
  )
  (fp_line (start -5.48 -5.14) (end -5.48 5.14)
    (stroke (width 0.05) (type solid)) (layer F.CrtYd))
  (fp_line (start -5.48 5.14) (end 5.48 5.14)
    (stroke (width 0.05) (type solid)) (layer F.CrtYd))
  (fp_line (start 5.48 5.14) (end 5.48 -5.14)
    (stroke (width 0.05) (type solid)) (layer F.CrtYd))
  (fp_line (start 5.48 -5.14) (end -5.48 -5.14)
    (stroke (width 0.05) (type solid)) (layer F.CrtYd))
  (fp_line (start 0 5) (end 3.31 5)
    (stroke (width 0.12) (type solid)) (layer F.SilkS))
  (fp_line (start 3.31 5) (end 3.31 4.77)
    (stroke (width 0.12) (type solid)) (layer F.SilkS))
  (fp_line (start 0 5) (end -3.31 5)
    (stroke (width 0.12) (type solid)) (layer F.SilkS))
  (fp_line (start -3.31 5) (end -3.31 4.77)
    (stroke (width 0.12) (type solid)) (layer F.SilkS))
  (fp_line (start 0 -5) (end 3.31 -5)
    (stroke (width 0.12) (type solid)) (layer F.SilkS))
  (fp_line (start 3.31 -5) (end 3.31 -4.77)
    (stroke (width 0.12) (type solid)) (layer F.SilkS))
  (fp_line (start 0 -5) (end -3.31 -5)
    (stroke (width 0.12) (type solid)) (layer F.SilkS))
  (fp_line (start -3.31 -5) (end -3.31 -4.77)
    (stroke (width 0.12) (type solid)) (layer F.SilkS))
  (fp_line (start -2.2 -4.89) (end 3.2 -4.89)
    (stroke (width 0.1) (type solid)) (layer F.Fab))
  (fp_line (start 3.2 -4.89) (end 3.2 4.89)
    (stroke (width 0.1) (type solid)) (layer F.Fab))
  (fp_line (start 3.2 4.89) (end -3.2 4.89)
    (stroke (width 0.1) (type solid)) (layer F.Fab))
  (fp_line (start -3.2 4.89) (end -3.2 -3.89)
    (stroke (width 0.1) (type solid)) (layer F.Fab))
  (fp_line (start -3.2 -3.89) (end -2.2 -4.89)
    (stroke (width 0.1) (type solid)) (layer F.Fab))
  (pad 1 smd roundrect (at -4.3 -3.81) (size 1.85 1.4) (layers F.Cu F.Mask F.Paste) (roundrect_rratio 0.178571))
  (pad 2 smd roundrect (at -4.3 -1.27) (size 1.85 1.4) (layers F.Cu F.Mask F.Paste) (roundrect_rratio 0.178571))
  (pad 3 smd roundrect (at -4.3 1.27) (size 1.85 1.4) (layers F.Cu F.Mask F.Paste) (roundrect_rratio 0.178571))
  (pad 4 smd roundrect (at -4.3 3.81) (size 1.85 1.4) (layers F.Cu F.Mask F.Paste) (roundrect_rratio 0.178571))
  (pad 5 smd roundrect (at 4.3 3.81) (size 1.85 1.4) (layers F.Cu F.Mask F.Paste) (roundrect_rratio 0.178571))
  (pad 6 smd roundrect (at 4.3 1.27) (size 1.85 1.4) (layers F.Cu F.Mask F.Paste) (roundrect_rratio 0.178571))
  (pad 8 smd roundrect (at 4.3 -3.81) (size 1.85 1.4) (layers F.Cu F.Mask F.Paste) (roundrect_rratio 0.178571))
  (fp_poly (pts (xy -5.485 -3.81) (xy -6.101 -4.25) (xy -6.101 -3.37) (xy -5.485 -3.81))
    (stroke (width 0.12) (type solid)) (fill solid) (layer F.SilkS))
  (fp_text user ${REFERENCE} (at 0 0) (layer F.Fab)
    (effects (font (size 1 1) (thickness 0.15)))
  )
  (model ${KICAD7_3DMODEL_DIR}/Package_SO.3dshapes/SSO-7-8_6.4x9.78mm_P2.54mm.wrl
    (offset (xyz 0 0 0))
    (scale (xyz 1 1 1))
    (rotate (xyz 0 0 0))
  )
)
