(footprint SSOP-8_3.9x5.05mm_P1.27mm (version 20221018) (generator kicad-footprint-generator)
  (layer F.Cu)
  (descr "SSOP, 8 Pin (http://www.fujitsu.com/downloads/MICRO/fsa/pdf/products/memory/fram/MB85RS16-DS501-00014-6v0-E.pdf), generated with kicad-footprint-generator ipc_gullwing_generator.py")
  (tags "SSOP SO")
  (attr smd)
  (fp_text reference REF** (at 0 -3.48) (layer F.SilkS)
    (effects (font (size 1 1) (thickness 0.15)))
  )
  (fp_text value SSOP-8_3.9x5.05mm_P1.27mm (at 0 3.48) (layer F.Fab)
    (effects (font (size 1 1) (thickness 0.15)))
  )
  (fp_line (start -3.7 -2.78) (end -3.7 2.78)
    (stroke (width 0.05) (type solid)) (layer F.CrtYd))
  (fp_line (start -3.7 2.78) (end 3.7 2.78)
    (stroke (width 0.05) (type solid)) (layer F.CrtYd))
  (fp_line (start 3.7 2.78) (end 3.7 -2.78)
    (stroke (width 0.05) (type solid)) (layer F.CrtYd))
  (fp_line (start 3.7 -2.78) (end -3.7 -2.78)
    (stroke (width 0.05) (type solid)) (layer F.CrtYd))
  (fp_line (start 0 2.635) (end 1.95 2.635)
    (stroke (width 0.12) (type solid)) (layer F.SilkS))
  (fp_line (start 0 2.635) (end -1.95 2.635)
    (stroke (width 0.12) (type solid)) (layer F.SilkS))
  (fp_line (start 0 -2.635) (end 1.95 -2.635)
    (stroke (width 0.12) (type solid)) (layer F.SilkS))
  (fp_line (start 0 -2.635) (end -1.95 -2.635)
    (stroke (width 0.12) (type solid)) (layer F.SilkS))
  (fp_line (start -0.975 -2.525) (end 1.95 -2.525)
    (stroke (width 0.1) (type solid)) (layer F.Fab))
  (fp_line (start 1.95 -2.525) (end 1.95 2.525)
    (stroke (width 0.1) (type solid)) (layer F.Fab))
  (fp_line (start 1.95 2.525) (end -1.95 2.525)
    (stroke (width 0.1) (type solid)) (layer F.Fab))
  (fp_line (start -1.95 2.525) (end -1.95 -1.55)
    (stroke (width 0.1) (type solid)) (layer F.Fab))
  (fp_line (start -1.95 -1.55) (end -0.975 -2.525)
    (stroke (width 0.1) (type solid)) (layer F.Fab))
  (pad 1 smd roundrect (at -2.675 -1.905) (size 1.55 0.6) (layers F.Cu F.Mask F.Paste) (roundrect_rratio 0.25))
  (pad 2 smd roundrect (at -2.675 -0.635) (size 1.55 0.6) (layers F.Cu F.Mask F.Paste) (roundrect_rratio 0.25))
  (pad 3 smd roundrect (at -2.675 0.635) (size 1.55 0.6) (layers F.Cu F.Mask F.Paste) (roundrect_rratio 0.25))
  (pad 4 smd roundrect (at -2.675 1.905) (size 1.55 0.6) (layers F.Cu F.Mask F.Paste) (roundrect_rratio 0.25))
  (pad 5 smd roundrect (at 2.675 1.905) (size 1.55 0.6) (layers F.Cu F.Mask F.Paste) (roundrect_rratio 0.25))
  (pad 6 smd roundrect (at 2.675 0.635) (size 1.55 0.6) (layers F.Cu F.Mask F.Paste) (roundrect_rratio 0.25))
  (pad 7 smd roundrect (at 2.675 -0.635) (size 1.55 0.6) (layers F.Cu F.Mask F.Paste) (roundrect_rratio 0.25))
  (pad 8 smd roundrect (at 2.675 -1.905) (size 1.55 0.6) (layers F.Cu F.Mask F.Paste) (roundrect_rratio 0.25))
  (fp_poly (pts (xy -2.7 -2.465) (xy -2.94 -2.801) (xy -2.46 -2.801) (xy -2.7 -2.465))
    (stroke (width 0.12) (type solid)) (fill solid) (layer F.SilkS))
  (fp_text user ${REFERENCE} (at 0 0) (layer F.Fab)
    (effects (font (size 0.98 0.98) (thickness 0.15)))
  )
  (model ${KICAD7_3DMODEL_DIR}/Package_SO.3dshapes/SSOP-8_3.9x5.05mm_P1.27mm.wrl
    (offset (xyz 0 0 0))
    (scale (xyz 1 1 1))
    (rotate (xyz 0 0 0))
  )
)
