(footprint TSOP-I-40_16.4x10mm_P0.5mm (version 20221018) (generator kicad-footprint-generator)
  (layer F.Cu)
  (descr "TSOP-I, 40 Pin (https://www.jedec.org/standards-documents/docs/mo-142-d variation CC), generated with kicad-footprint-generator ipc_gullwing_generator.py")
  (tags "TSOP-I SO")
  (attr smd)
  (fp_text reference REF** (at 0 -5.95) (layer F.SilkS)
    (effects (font (size 1 1) (thickness 0.15)))
  )
  (fp_text value TSOP-I-40_16.4x10mm_P0.5mm (at 0 5.95) (layer F.Fab)
    (effects (font (size 1 1) (thickness 0.15)))
  )
  (fp_line (start -9.72 -5.25) (end -9.72 5.25)
    (stroke (width 0.05) (type solid)) (layer F.CrtYd))
  (fp_line (start -9.72 5.25) (end 9.72 5.25)
    (stroke (width 0.05) (type solid)) (layer F.CrtYd))
  (fp_line (start 9.72 5.25) (end 9.72 -5.25)
    (stroke (width 0.05) (type solid)) (layer F.CrtYd))
  (fp_line (start 9.72 -5.25) (end -9.72 -5.25)
    (stroke (width 0.05) (type solid)) (layer F.CrtYd))
  (fp_line (start 0 5.16) (end 8.2 5.16)
    (stroke (width 0.12) (type solid)) (layer F.SilkS))
  (fp_line (start 0 5.16) (end -8.2 5.16)
    (stroke (width 0.12) (type solid)) (layer F.SilkS))
  (fp_line (start 0 -5.16) (end 8.2 -5.16)
    (stroke (width 0.12) (type solid)) (layer F.SilkS))
  (fp_line (start 0 -5.16) (end -8.2 -5.16)
    (stroke (width 0.12) (type solid)) (layer F.SilkS))
  (fp_line (start -7.2 -5) (end 8.2 -5)
    (stroke (width 0.1) (type solid)) (layer F.Fab))
  (fp_line (start 8.2 -5) (end 8.2 5)
    (stroke (width 0.1) (type solid)) (layer F.Fab))
  (fp_line (start 8.2 5) (end -8.2 5)
    (stroke (width 0.1) (type solid)) (layer F.Fab))
  (fp_line (start -8.2 5) (end -8.2 -4)
    (stroke (width 0.1) (type solid)) (layer F.Fab))
  (fp_line (start -8.2 -4) (end -7.2 -5)
    (stroke (width 0.1) (type solid)) (layer F.Fab))
  (pad 1 smd roundrect (at -8.6875 -4.75) (size 1.575 0.3) (layers F.Cu F.Mask F.Paste) (roundrect_rratio 0.25))
  (pad 2 smd roundrect (at -8.6875 -4.25) (size 1.575 0.3) (layers F.Cu F.Mask F.Paste) (roundrect_rratio 0.25))
  (pad 3 smd roundrect (at -8.6875 -3.75) (size 1.575 0.3) (layers F.Cu F.Mask F.Paste) (roundrect_rratio 0.25))
  (pad 4 smd roundrect (at -8.6875 -3.25) (size 1.575 0.3) (layers F.Cu F.Mask F.Paste) (roundrect_rratio 0.25))
  (pad 5 smd roundrect (at -8.6875 -2.75) (size 1.575 0.3) (layers F.Cu F.Mask F.Paste) (roundrect_rratio 0.25))
  (pad 6 smd roundrect (at -8.6875 -2.25) (size 1.575 0.3) (layers F.Cu F.Mask F.Paste) (roundrect_rratio 0.25))
  (pad 7 smd roundrect (at -8.6875 -1.75) (size 1.575 0.3) (layers F.Cu F.Mask F.Paste) (roundrect_rratio 0.25))
  (pad 8 smd roundrect (at -8.6875 -1.25) (size 1.575 0.3) (layers F.Cu F.Mask F.Paste) (roundrect_rratio 0.25))
  (pad 9 smd roundrect (at -8.6875 -0.75) (size 1.575 0.3) (layers F.Cu F.Mask F.Paste) (roundrect_rratio 0.25))
  (pad 10 smd roundrect (at -8.6875 -0.25) (size 1.575 0.3) (layers F.Cu F.Mask F.Paste) (roundrect_rratio 0.25))
  (pad 11 smd roundrect (at -8.6875 0.25) (size 1.575 0.3) (layers F.Cu F.Mask F.Paste) (roundrect_rratio 0.25))
  (pad 12 smd roundrect (at -8.6875 0.75) (size 1.575 0.3) (layers F.Cu F.Mask F.Paste) (roundrect_rratio 0.25))
  (pad 13 smd roundrect (at -8.6875 1.25) (size 1.575 0.3) (layers F.Cu F.Mask F.Paste) (roundrect_rratio 0.25))
  (pad 14 smd roundrect (at -8.6875 1.75) (size 1.575 0.3) (layers F.Cu F.Mask F.Paste) (roundrect_rratio 0.25))
  (pad 15 smd roundrect (at -8.6875 2.25) (size 1.575 0.3) (layers F.Cu F.Mask F.Paste) (roundrect_rratio 0.25))
  (pad 16 smd roundrect (at -8.6875 2.75) (size 1.575 0.3) (layers F.Cu F.Mask F.Paste) (roundrect_rratio 0.25))
  (pad 17 smd roundrect (at -8.6875 3.25) (size 1.575 0.3) (layers F.Cu F.Mask F.Paste) (roundrect_rratio 0.25))
  (pad 18 smd roundrect (at -8.6875 3.75) (size 1.575 0.3) (layers F.Cu F.Mask F.Paste) (roundrect_rratio 0.25))
  (pad 19 smd roundrect (at -8.6875 4.25) (size 1.575 0.3) (layers F.Cu F.Mask F.Paste) (roundrect_rratio 0.25))
  (pad 20 smd roundrect (at -8.6875 4.75) (size 1.575 0.3) (layers F.Cu F.Mask F.Paste) (roundrect_rratio 0.25))
  (pad 21 smd roundrect (at 8.6875 4.75) (size 1.575 0.3) (layers F.Cu F.Mask F.Paste) (roundrect_rratio 0.25))
  (pad 22 smd roundrect (at 8.6875 4.25) (size 1.575 0.3) (layers F.Cu F.Mask F.Paste) (roundrect_rratio 0.25))
  (pad 23 smd roundrect (at 8.6875 3.75) (size 1.575 0.3) (layers F.Cu F.Mask F.Paste) (roundrect_rratio 0.25))
  (pad 24 smd roundrect (at 8.6875 3.25) (size 1.575 0.3) (layers F.Cu F.Mask F.Paste) (roundrect_rratio 0.25))
  (pad 25 smd roundrect (at 8.6875 2.75) (size 1.575 0.3) (layers F.Cu F.Mask F.Paste) (roundrect_rratio 0.25))
  (pad 26 smd roundrect (at 8.6875 2.25) (size 1.575 0.3) (layers F.Cu F.Mask F.Paste) (roundrect_rratio 0.25))
  (pad 27 smd roundrect (at 8.6875 1.75) (size 1.575 0.3) (layers F.Cu F.Mask F.Paste) (roundrect_rratio 0.25))
  (pad 28 smd roundrect (at 8.6875 1.25) (size 1.575 0.3) (layers F.Cu F.Mask F.Paste) (roundrect_rratio 0.25))
  (pad 29 smd roundrect (at 8.6875 0.75) (size 1.575 0.3) (layers F.Cu F.Mask F.Paste) (roundrect_rratio 0.25))
  (pad 30 smd roundrect (at 8.6875 0.25) (size 1.575 0.3) (layers F.Cu F.Mask F.Paste) (roundrect_rratio 0.25))
  (pad 31 smd roundrect (at 8.6875 -0.25) (size 1.575 0.3) (layers F.Cu F.Mask F.Paste) (roundrect_rratio 0.25))
  (pad 32 smd roundrect (at 8.6875 -0.75) (size 1.575 0.3) (layers F.Cu F.Mask F.Paste) (roundrect_rratio 0.25))
  (pad 33 smd roundrect (at 8.6875 -1.25) (size 1.575 0.3) (layers F.Cu F.Mask F.Paste) (roundrect_rratio 0.25))
  (pad 34 smd roundrect (at 8.6875 -1.75) (size 1.575 0.3) (layers F.Cu F.Mask F.Paste) (roundrect_rratio 0.25))
  (pad 35 smd roundrect (at 8.6875 -2.25) (size 1.575 0.3) (layers F.Cu F.Mask F.Paste) (roundrect_rratio 0.25))
  (pad 36 smd roundrect (at 8.6875 -2.75) (size 1.575 0.3) (layers F.Cu F.Mask F.Paste) (roundrect_rratio 0.25))
  (pad 37 smd roundrect (at 8.6875 -3.25) (size 1.575 0.3) (layers F.Cu F.Mask F.Paste) (roundrect_rratio 0.25))
  (pad 38 smd roundrect (at 8.6875 -3.75) (size 1.575 0.3) (layers F.Cu F.Mask F.Paste) (roundrect_rratio 0.25))
  (pad 39 smd roundrect (at 8.6875 -4.25) (size 1.575 0.3) (layers F.Cu F.Mask F.Paste) (roundrect_rratio 0.25))
  (pad 40 smd roundrect (at 8.6875 -4.75) (size 1.575 0.3) (layers F.Cu F.Mask F.Paste) (roundrect_rratio 0.25))
  (fp_poly (pts (xy -8.8375 -5.16) (xy -9.0175 -5.412) (xy -8.6575 -5.412) (xy -8.8375 -5.16))
    (stroke (width 0.12) (type solid)) (fill solid) (layer F.SilkS))
  (fp_text user ${REFERENCE} (at 0 0) (layer F.Fab)
    (effects (font (size 1 1) (thickness 0.15)))
  )
  (model ${KICAD7_3DMODEL_DIR}/Package_SO.3dshapes/TSOP-I-40_16.4x10mm_P0.5mm.wrl
    (offset (xyz 0 0 0))
    (scale (xyz 1 1 1))
    (rotate (xyz 0 0 0))
  )
)
