(footprint TSOP-II-40-44_10.16x18.37mm_P0.8mm (version 20221018) (generator kicad-footprint-generator)
  (layer F.Cu)
  (descr "TSOP-II, 40 Pin (https://www.renesas.com/us/en/document/psc/package-drawing-tsop2-44pin-ptsb0044ge-e), generated with kicad-footprint-generator ipc_gullwing_generator.py")
  (tags "TSOP-II SO")
  (attr smd)
  (fp_text reference REF** (at 0 -10.14) (layer F.SilkS)
    (effects (font (size 1 1) (thickness 0.15)))
  )
  (fp_text value TSOP-II-40-44_10.16x18.37mm_P0.8mm (at 0 10.14) (layer F.Fab)
    (effects (font (size 1 1) (thickness 0.15)))
  )
  (fp_line (start -6.6 -9.44) (end -6.6 9.44)
    (stroke (width 0.05) (type solid)) (layer F.CrtYd))
  (fp_line (start -6.6 9.44) (end 6.6 9.44)
    (stroke (width 0.05) (type solid)) (layer F.CrtYd))
  (fp_line (start 6.6 9.44) (end 6.6 -9.44)
    (stroke (width 0.05) (type solid)) (layer F.CrtYd))
  (fp_line (start 6.6 -9.44) (end -6.6 -9.44)
    (stroke (width 0.05) (type solid)) (layer F.CrtYd))
  (fp_line (start 0 9.295) (end 5.19 9.295)
    (stroke (width 0.12) (type solid)) (layer F.SilkS))
  (fp_line (start 5.19 9.295) (end 5.19 8.91)
    (stroke (width 0.12) (type solid)) (layer F.SilkS))
  (fp_line (start 0 9.295) (end -5.19 9.295)
    (stroke (width 0.12) (type solid)) (layer F.SilkS))
  (fp_line (start -5.19 9.295) (end -5.19 8.91)
    (stroke (width 0.12) (type solid)) (layer F.SilkS))
  (fp_line (start 0 -9.295) (end 5.19 -9.295)
    (stroke (width 0.12) (type solid)) (layer F.SilkS))
  (fp_line (start 5.19 -9.295) (end 5.19 -8.91)
    (stroke (width 0.12) (type solid)) (layer F.SilkS))
  (fp_line (start 0 -9.295) (end -5.19 -9.295)
    (stroke (width 0.12) (type solid)) (layer F.SilkS))
  (fp_line (start -5.19 -9.295) (end -5.19 -8.91)
    (stroke (width 0.12) (type solid)) (layer F.SilkS))
  (fp_line (start -4.08 -9.185) (end 5.08 -9.185)
    (stroke (width 0.1) (type solid)) (layer F.Fab))
  (fp_line (start 5.08 -9.185) (end 5.08 9.185)
    (stroke (width 0.1) (type solid)) (layer F.Fab))
  (fp_line (start 5.08 9.185) (end -5.08 9.185)
    (stroke (width 0.1) (type solid)) (layer F.Fab))
  (fp_line (start -5.08 9.185) (end -5.08 -8.185)
    (stroke (width 0.1) (type solid)) (layer F.Fab))
  (fp_line (start -5.08 -8.185) (end -4.08 -9.185)
    (stroke (width 0.1) (type solid)) (layer F.Fab))
  (pad 1 smd roundrect (at -5.625 -8.4) (size 1.45 0.5) (layers F.Cu F.Mask F.Paste) (roundrect_rratio 0.25))
  (pad 2 smd roundrect (at -5.625 -7.6) (size 1.45 0.5) (layers F.Cu F.Mask F.Paste) (roundrect_rratio 0.25))
  (pad 3 smd roundrect (at -5.625 -6.8) (size 1.45 0.5) (layers F.Cu F.Mask F.Paste) (roundrect_rratio 0.25))
  (pad 4 smd roundrect (at -5.625 -6) (size 1.45 0.5) (layers F.Cu F.Mask F.Paste) (roundrect_rratio 0.25))
  (pad 5 smd roundrect (at -5.625 -5.2) (size 1.45 0.5) (layers F.Cu F.Mask F.Paste) (roundrect_rratio 0.25))
  (pad 6 smd roundrect (at -5.625 -4.4) (size 1.45 0.5) (layers F.Cu F.Mask F.Paste) (roundrect_rratio 0.25))
  (pad 7 smd roundrect (at -5.625 -3.6) (size 1.45 0.5) (layers F.Cu F.Mask F.Paste) (roundrect_rratio 0.25))
  (pad 8 smd roundrect (at -5.625 -2.8) (size 1.45 0.5) (layers F.Cu F.Mask F.Paste) (roundrect_rratio 0.25))
  (pad 9 smd roundrect (at -5.625 -2) (size 1.45 0.5) (layers F.Cu F.Mask F.Paste) (roundrect_rratio 0.25))
  (pad 10 smd roundrect (at -5.625 -1.2) (size 1.45 0.5) (layers F.Cu F.Mask F.Paste) (roundrect_rratio 0.25))
  (pad 13 smd roundrect (at -5.625 1.2) (size 1.45 0.5) (layers F.Cu F.Mask F.Paste) (roundrect_rratio 0.25))
  (pad 14 smd roundrect (at -5.625 2) (size 1.45 0.5) (layers F.Cu F.Mask F.Paste) (roundrect_rratio 0.25))
  (pad 15 smd roundrect (at -5.625 2.8) (size 1.45 0.5) (layers F.Cu F.Mask F.Paste) (roundrect_rratio 0.25))
  (pad 16 smd roundrect (at -5.625 3.6) (size 1.45 0.5) (layers F.Cu F.Mask F.Paste) (roundrect_rratio 0.25))
  (pad 17 smd roundrect (at -5.625 4.4) (size 1.45 0.5) (layers F.Cu F.Mask F.Paste) (roundrect_rratio 0.25))
  (pad 18 smd roundrect (at -5.625 5.2) (size 1.45 0.5) (layers F.Cu F.Mask F.Paste) (roundrect_rratio 0.25))
  (pad 19 smd roundrect (at -5.625 6) (size 1.45 0.5) (layers F.Cu F.Mask F.Paste) (roundrect_rratio 0.25))
  (pad 20 smd roundrect (at -5.625 6.8) (size 1.45 0.5) (layers F.Cu F.Mask F.Paste) (roundrect_rratio 0.25))
  (pad 21 smd roundrect (at -5.625 7.6) (size 1.45 0.5) (layers F.Cu F.Mask F.Paste) (roundrect_rratio 0.25))
  (pad 22 smd roundrect (at -5.625 8.4) (size 1.45 0.5) (layers F.Cu F.Mask F.Paste) (roundrect_rratio 0.25))
  (pad 23 smd roundrect (at 5.625 8.4) (size 1.45 0.5) (layers F.Cu F.Mask F.Paste) (roundrect_rratio 0.25))
  (pad 24 smd roundrect (at 5.625 7.6) (size 1.45 0.5) (layers F.Cu F.Mask F.Paste) (roundrect_rratio 0.25))
  (pad 25 smd roundrect (at 5.625 6.8) (size 1.45 0.5) (layers F.Cu F.Mask F.Paste) (roundrect_rratio 0.25))
  (pad 26 smd roundrect (at 5.625 6) (size 1.45 0.5) (layers F.Cu F.Mask F.Paste) (roundrect_rratio 0.25))
  (pad 27 smd roundrect (at 5.625 5.2) (size 1.45 0.5) (layers F.Cu F.Mask F.Paste) (roundrect_rratio 0.25))
  (pad 28 smd roundrect (at 5.625 4.4) (size 1.45 0.5) (layers F.Cu F.Mask F.Paste) (roundrect_rratio 0.25))
  (pad 29 smd roundrect (at 5.625 3.6) (size 1.45 0.5) (layers F.Cu F.Mask F.Paste) (roundrect_rratio 0.25))
  (pad 30 smd roundrect (at 5.625 2.8) (size 1.45 0.5) (layers F.Cu F.Mask F.Paste) (roundrect_rratio 0.25))
  (pad 31 smd roundrect (at 5.625 2) (size 1.45 0.5) (layers F.Cu F.Mask F.Paste) (roundrect_rratio 0.25))
  (pad 32 smd roundrect (at 5.625 1.2) (size 1.45 0.5) (layers F.Cu F.Mask F.Paste) (roundrect_rratio 0.25))
  (pad 35 smd roundrect (at 5.625 -1.2) (size 1.45 0.5) (layers F.Cu F.Mask F.Paste) (roundrect_rratio 0.25))
  (pad 36 smd roundrect (at 5.625 -2) (size 1.45 0.5) (layers F.Cu F.Mask F.Paste) (roundrect_rratio 0.25))
  (pad 37 smd roundrect (at 5.625 -2.8) (size 1.45 0.5) (layers F.Cu F.Mask F.Paste) (roundrect_rratio 0.25))
  (pad 38 smd roundrect (at 5.625 -3.6) (size 1.45 0.5) (layers F.Cu F.Mask F.Paste) (roundrect_rratio 0.25))
  (pad 39 smd roundrect (at 5.625 -4.4) (size 1.45 0.5) (layers F.Cu F.Mask F.Paste) (roundrect_rratio 0.25))
  (pad 40 smd roundrect (at 5.625 -5.2) (size 1.45 0.5) (layers F.Cu F.Mask F.Paste) (roundrect_rratio 0.25))
  (pad 41 smd roundrect (at 5.625 -6) (size 1.45 0.5) (layers F.Cu F.Mask F.Paste) (roundrect_rratio 0.25))
  (pad 42 smd roundrect (at 5.625 -6.8) (size 1.45 0.5) (layers F.Cu F.Mask F.Paste) (roundrect_rratio 0.25))
  (pad 43 smd roundrect (at 5.625 -7.6) (size 1.45 0.5) (layers F.Cu F.Mask F.Paste) (roundrect_rratio 0.25))
  (pad 44 smd roundrect (at 5.625 -8.4) (size 1.45 0.5) (layers F.Cu F.Mask F.Paste) (roundrect_rratio 0.25))
  (fp_poly (pts (xy -5.715 -8.91) (xy -5.905 -9.176) (xy -5.525 -9.176) (xy -5.715 -8.91))
    (stroke (width 0.12) (type solid)) (fill solid) (layer F.SilkS))
  (fp_text user ${REFERENCE} (at 0 0) (layer F.Fab)
    (effects (font (size 1 1) (thickness 0.15)))
  )
  (model ${KICAD7_3DMODEL_DIR}/Package_SO.3dshapes/TSOP-II-40-44_10.16x18.37mm_P0.8mm.wrl
    (offset (xyz 0 0 0))
    (scale (xyz 1 1 1))
    (rotate (xyz 0 0 0))
  )
)
