(footprint TSSOP-100_6.1x20.8mm_P0.4mm (version 20221018) (generator kicad-footprint-generator)
  (layer F.Cu)
  (descr "TSSOP, 100 Pin (JEDEC MO-194 Var BB https://www.jedec.org/document_search?search_api_views_fulltext=MO-194), generated with kicad-footprint-generator ipc_gullwing_generator.py")
  (tags "TSSOP SO")
  (attr smd)
  (fp_text reference REF** (at 0 -11.35) (layer F.SilkS)
    (effects (font (size 1 1) (thickness 0.15)))
  )
  (fp_text value TSSOP-100_6.1x20.8mm_P0.4mm (at 0 11.35) (layer F.Fab)
    (effects (font (size 1 1) (thickness 0.15)))
  )
  (fp_line (start -4.7 -10.65) (end -4.7 10.65)
    (stroke (width 0.05) (type solid)) (layer F.CrtYd))
  (fp_line (start -4.7 10.65) (end 4.7 10.65)
    (stroke (width 0.05) (type solid)) (layer F.CrtYd))
  (fp_line (start 4.7 10.65) (end 4.7 -10.65)
    (stroke (width 0.05) (type solid)) (layer F.CrtYd))
  (fp_line (start 4.7 -10.65) (end -4.7 -10.65)
    (stroke (width 0.05) (type solid)) (layer F.CrtYd))
  (fp_line (start 0 10.51) (end 3.16 10.51)
    (stroke (width 0.12) (type solid)) (layer F.SilkS))
  (fp_line (start 3.16 10.51) (end 3.16 10.185)
    (stroke (width 0.12) (type solid)) (layer F.SilkS))
  (fp_line (start 0 10.51) (end -3.16 10.51)
    (stroke (width 0.12) (type solid)) (layer F.SilkS))
  (fp_line (start -3.16 10.51) (end -3.16 10.185)
    (stroke (width 0.12) (type solid)) (layer F.SilkS))
  (fp_line (start 0 -10.51) (end 3.16 -10.51)
    (stroke (width 0.12) (type solid)) (layer F.SilkS))
  (fp_line (start 3.16 -10.51) (end 3.16 -10.185)
    (stroke (width 0.12) (type solid)) (layer F.SilkS))
  (fp_line (start 0 -10.51) (end -3.16 -10.51)
    (stroke (width 0.12) (type solid)) (layer F.SilkS))
  (fp_line (start -3.16 -10.51) (end -3.16 -10.185)
    (stroke (width 0.12) (type solid)) (layer F.SilkS))
  (fp_line (start -2.05 -10.4) (end 3.05 -10.4)
    (stroke (width 0.1) (type solid)) (layer F.Fab))
  (fp_line (start 3.05 -10.4) (end 3.05 10.4)
    (stroke (width 0.1) (type solid)) (layer F.Fab))
  (fp_line (start 3.05 10.4) (end -3.05 10.4)
    (stroke (width 0.1) (type solid)) (layer F.Fab))
  (fp_line (start -3.05 10.4) (end -3.05 -9.4)
    (stroke (width 0.1) (type solid)) (layer F.Fab))
  (fp_line (start -3.05 -9.4) (end -2.05 -10.4)
    (stroke (width 0.1) (type solid)) (layer F.Fab))
  (pad 1 smd roundrect (at -3.7125 -9.8) (size 1.475 0.25) (layers F.Cu F.Mask F.Paste) (roundrect_rratio 0.25))
  (pad 2 smd roundrect (at -3.7125 -9.4) (size 1.475 0.25) (layers F.Cu F.Mask F.Paste) (roundrect_rratio 0.25))
  (pad 3 smd roundrect (at -3.7125 -9) (size 1.475 0.25) (layers F.Cu F.Mask F.Paste) (roundrect_rratio 0.25))
  (pad 4 smd roundrect (at -3.7125 -8.6) (size 1.475 0.25) (layers F.Cu F.Mask F.Paste) (roundrect_rratio 0.25))
  (pad 5 smd roundrect (at -3.7125 -8.2) (size 1.475 0.25) (layers F.Cu F.Mask F.Paste) (roundrect_rratio 0.25))
  (pad 6 smd roundrect (at -3.7125 -7.8) (size 1.475 0.25) (layers F.Cu F.Mask F.Paste) (roundrect_rratio 0.25))
  (pad 7 smd roundrect (at -3.7125 -7.4) (size 1.475 0.25) (layers F.Cu F.Mask F.Paste) (roundrect_rratio 0.25))
  (pad 8 smd roundrect (at -3.7125 -7) (size 1.475 0.25) (layers F.Cu F.Mask F.Paste) (roundrect_rratio 0.25))
  (pad 9 smd roundrect (at -3.7125 -6.6) (size 1.475 0.25) (layers F.Cu F.Mask F.Paste) (roundrect_rratio 0.25))
  (pad 10 smd roundrect (at -3.7125 -6.2) (size 1.475 0.25) (layers F.Cu F.Mask F.Paste) (roundrect_rratio 0.25))
  (pad 11 smd roundrect (at -3.7125 -5.8) (size 1.475 0.25) (layers F.Cu F.Mask F.Paste) (roundrect_rratio 0.25))
  (pad 12 smd roundrect (at -3.7125 -5.4) (size 1.475 0.25) (layers F.Cu F.Mask F.Paste) (roundrect_rratio 0.25))
  (pad 13 smd roundrect (at -3.7125 -5) (size 1.475 0.25) (layers F.Cu F.Mask F.Paste) (roundrect_rratio 0.25))
  (pad 14 smd roundrect (at -3.7125 -4.6) (size 1.475 0.25) (layers F.Cu F.Mask F.Paste) (roundrect_rratio 0.25))
  (pad 15 smd roundrect (at -3.7125 -4.2) (size 1.475 0.25) (layers F.Cu F.Mask F.Paste) (roundrect_rratio 0.25))
  (pad 16 smd roundrect (at -3.7125 -3.8) (size 1.475 0.25) (layers F.Cu F.Mask F.Paste) (roundrect_rratio 0.25))
  (pad 17 smd roundrect (at -3.7125 -3.4) (size 1.475 0.25) (layers F.Cu F.Mask F.Paste) (roundrect_rratio 0.25))
  (pad 18 smd roundrect (at -3.7125 -3) (size 1.475 0.25) (layers F.Cu F.Mask F.Paste) (roundrect_rratio 0.25))
  (pad 19 smd roundrect (at -3.7125 -2.6) (size 1.475 0.25) (layers F.Cu F.Mask F.Paste) (roundrect_rratio 0.25))
  (pad 20 smd roundrect (at -3.7125 -2.2) (size 1.475 0.25) (layers F.Cu F.Mask F.Paste) (roundrect_rratio 0.25))
  (pad 21 smd roundrect (at -3.7125 -1.8) (size 1.475 0.25) (layers F.Cu F.Mask F.Paste) (roundrect_rratio 0.25))
  (pad 22 smd roundrect (at -3.7125 -1.4) (size 1.475 0.25) (layers F.Cu F.Mask F.Paste) (roundrect_rratio 0.25))
  (pad 23 smd roundrect (at -3.7125 -1) (size 1.475 0.25) (layers F.Cu F.Mask F.Paste) (roundrect_rratio 0.25))
  (pad 24 smd roundrect (at -3.7125 -0.6) (size 1.475 0.25) (layers F.Cu F.Mask F.Paste) (roundrect_rratio 0.25))
  (pad 25 smd roundrect (at -3.7125 -0.2) (size 1.475 0.25) (layers F.Cu F.Mask F.Paste) (roundrect_rratio 0.25))
  (pad 26 smd roundrect (at -3.7125 0.2) (size 1.475 0.25) (layers F.Cu F.Mask F.Paste) (roundrect_rratio 0.25))
  (pad 27 smd roundrect (at -3.7125 0.6) (size 1.475 0.25) (layers F.Cu F.Mask F.Paste) (roundrect_rratio 0.25))
  (pad 28 smd roundrect (at -3.7125 1) (size 1.475 0.25) (layers F.Cu F.Mask F.Paste) (roundrect_rratio 0.25))
  (pad 29 smd roundrect (at -3.7125 1.4) (size 1.475 0.25) (layers F.Cu F.Mask F.Paste) (roundrect_rratio 0.25))
  (pad 30 smd roundrect (at -3.7125 1.8) (size 1.475 0.25) (layers F.Cu F.Mask F.Paste) (roundrect_rratio 0.25))
  (pad 31 smd roundrect (at -3.7125 2.2) (size 1.475 0.25) (layers F.Cu F.Mask F.Paste) (roundrect_rratio 0.25))
  (pad 32 smd roundrect (at -3.7125 2.6) (size 1.475 0.25) (layers F.Cu F.Mask F.Paste) (roundrect_rratio 0.25))
  (pad 33 smd roundrect (at -3.7125 3) (size 1.475 0.25) (layers F.Cu F.Mask F.Paste) (roundrect_rratio 0.25))
  (pad 34 smd roundrect (at -3.7125 3.4) (size 1.475 0.25) (layers F.Cu F.Mask F.Paste) (roundrect_rratio 0.25))
  (pad 35 smd roundrect (at -3.7125 3.8) (size 1.475 0.25) (layers F.Cu F.Mask F.Paste) (roundrect_rratio 0.25))
  (pad 36 smd roundrect (at -3.7125 4.2) (size 1.475 0.25) (layers F.Cu F.Mask F.Paste) (roundrect_rratio 0.25))
  (pad 37 smd roundrect (at -3.7125 4.6) (size 1.475 0.25) (layers F.Cu F.Mask F.Paste) (roundrect_rratio 0.25))
  (pad 38 smd roundrect (at -3.7125 5) (size 1.475 0.25) (layers F.Cu F.Mask F.Paste) (roundrect_rratio 0.25))
  (pad 39 smd roundrect (at -3.7125 5.4) (size 1.475 0.25) (layers F.Cu F.Mask F.Paste) (roundrect_rratio 0.25))
  (pad 40 smd roundrect (at -3.7125 5.8) (size 1.475 0.25) (layers F.Cu F.Mask F.Paste) (roundrect_rratio 0.25))
  (pad 41 smd roundrect (at -3.7125 6.2) (size 1.475 0.25) (layers F.Cu F.Mask F.Paste) (roundrect_rratio 0.25))
  (pad 42 smd roundrect (at -3.7125 6.6) (size 1.475 0.25) (layers F.Cu F.Mask F.Paste) (roundrect_rratio 0.25))
  (pad 43 smd roundrect (at -3.7125 7) (size 1.475 0.25) (layers F.Cu F.Mask F.Paste) (roundrect_rratio 0.25))
  (pad 44 smd roundrect (at -3.7125 7.4) (size 1.475 0.25) (layers F.Cu F.Mask F.Paste) (roundrect_rratio 0.25))
  (pad 45 smd roundrect (at -3.7125 7.8) (size 1.475 0.25) (layers F.Cu F.Mask F.Paste) (roundrect_rratio 0.25))
  (pad 46 smd roundrect (at -3.7125 8.2) (size 1.475 0.25) (layers F.Cu F.Mask F.Paste) (roundrect_rratio 0.25))
  (pad 47 smd roundrect (at -3.7125 8.6) (size 1.475 0.25) (layers F.Cu F.Mask F.Paste) (roundrect_rratio 0.25))
  (pad 48 smd roundrect (at -3.7125 9) (size 1.475 0.25) (layers F.Cu F.Mask F.Paste) (roundrect_rratio 0.25))
  (pad 49 smd roundrect (at -3.7125 9.4) (size 1.475 0.25) (layers F.Cu F.Mask F.Paste) (roundrect_rratio 0.25))
  (pad 50 smd roundrect (at -3.7125 9.8) (size 1.475 0.25) (layers F.Cu F.Mask F.Paste) (roundrect_rratio 0.25))
  (pad 51 smd roundrect (at 3.7125 9.8) (size 1.475 0.25) (layers F.Cu F.Mask F.Paste) (roundrect_rratio 0.25))
  (pad 52 smd roundrect (at 3.7125 9.4) (size 1.475 0.25) (layers F.Cu F.Mask F.Paste) (roundrect_rratio 0.25))
  (pad 53 smd roundrect (at 3.7125 9) (size 1.475 0.25) (layers F.Cu F.Mask F.Paste) (roundrect_rratio 0.25))
  (pad 54 smd roundrect (at 3.7125 8.6) (size 1.475 0.25) (layers F.Cu F.Mask F.Paste) (roundrect_rratio 0.25))
  (pad 55 smd roundrect (at 3.7125 8.2) (size 1.475 0.25) (layers F.Cu F.Mask F.Paste) (roundrect_rratio 0.25))
  (pad 56 smd roundrect (at 3.7125 7.8) (size 1.475 0.25) (layers F.Cu F.Mask F.Paste) (roundrect_rratio 0.25))
  (pad 57 smd roundrect (at 3.7125 7.4) (size 1.475 0.25) (layers F.Cu F.Mask F.Paste) (roundrect_rratio 0.25))
  (pad 58 smd roundrect (at 3.7125 7) (size 1.475 0.25) (layers F.Cu F.Mask F.Paste) (roundrect_rratio 0.25))
  (pad 59 smd roundrect (at 3.7125 6.6) (size 1.475 0.25) (layers F.Cu F.Mask F.Paste) (roundrect_rratio 0.25))
  (pad 60 smd roundrect (at 3.7125 6.2) (size 1.475 0.25) (layers F.Cu F.Mask F.Paste) (roundrect_rratio 0.25))
  (pad 61 smd roundrect (at 3.7125 5.8) (size 1.475 0.25) (layers F.Cu F.Mask F.Paste) (roundrect_rratio 0.25))
  (pad 62 smd roundrect (at 3.7125 5.4) (size 1.475 0.25) (layers F.Cu F.Mask F.Paste) (roundrect_rratio 0.25))
  (pad 63 smd roundrect (at 3.7125 5) (size 1.475 0.25) (layers F.Cu F.Mask F.Paste) (roundrect_rratio 0.25))
  (pad 64 smd roundrect (at 3.7125 4.6) (size 1.475 0.25) (layers F.Cu F.Mask F.Paste) (roundrect_rratio 0.25))
  (pad 65 smd roundrect (at 3.7125 4.2) (size 1.475 0.25) (layers F.Cu F.Mask F.Paste) (roundrect_rratio 0.25))
  (pad 66 smd roundrect (at 3.7125 3.8) (size 1.475 0.25) (layers F.Cu F.Mask F.Paste) (roundrect_rratio 0.25))
  (pad 67 smd roundrect (at 3.7125 3.4) (size 1.475 0.25) (layers F.Cu F.Mask F.Paste) (roundrect_rratio 0.25))
  (pad 68 smd roundrect (at 3.7125 3) (size 1.475 0.25) (layers F.Cu F.Mask F.Paste) (roundrect_rratio 0.25))
  (pad 69 smd roundrect (at 3.7125 2.6) (size 1.475 0.25) (layers F.Cu F.Mask F.Paste) (roundrect_rratio 0.25))
  (pad 70 smd roundrect (at 3.7125 2.2) (size 1.475 0.25) (layers F.Cu F.Mask F.Paste) (roundrect_rratio 0.25))
  (pad 71 smd roundrect (at 3.7125 1.8) (size 1.475 0.25) (layers F.Cu F.Mask F.Paste) (roundrect_rratio 0.25))
  (pad 72 smd roundrect (at 3.7125 1.4) (size 1.475 0.25) (layers F.Cu F.Mask F.Paste) (roundrect_rratio 0.25))
  (pad 73 smd roundrect (at 3.7125 1) (size 1.475 0.25) (layers F.Cu F.Mask F.Paste) (roundrect_rratio 0.25))
  (pad 74 smd roundrect (at 3.7125 0.6) (size 1.475 0.25) (layers F.Cu F.Mask F.Paste) (roundrect_rratio 0.25))
  (pad 75 smd roundrect (at 3.7125 0.2) (size 1.475 0.25) (layers F.Cu F.Mask F.Paste) (roundrect_rratio 0.25))
  (pad 76 smd roundrect (at 3.7125 -0.2) (size 1.475 0.25) (layers F.Cu F.Mask F.Paste) (roundrect_rratio 0.25))
  (pad 77 smd roundrect (at 3.7125 -0.6) (size 1.475 0.25) (layers F.Cu F.Mask F.Paste) (roundrect_rratio 0.25))
  (pad 78 smd roundrect (at 3.7125 -1) (size 1.475 0.25) (layers F.Cu F.Mask F.Paste) (roundrect_rratio 0.25))
  (pad 79 smd roundrect (at 3.7125 -1.4) (size 1.475 0.25) (layers F.Cu F.Mask F.Paste) (roundrect_rratio 0.25))
  (pad 80 smd roundrect (at 3.7125 -1.8) (size 1.475 0.25) (layers F.Cu F.Mask F.Paste) (roundrect_rratio 0.25))
  (pad 81 smd roundrect (at 3.7125 -2.2) (size 1.475 0.25) (layers F.Cu F.Mask F.Paste) (roundrect_rratio 0.25))
  (pad 82 smd roundrect (at 3.7125 -2.6) (size 1.475 0.25) (layers F.Cu F.Mask F.Paste) (roundrect_rratio 0.25))
  (pad 83 smd roundrect (at 3.7125 -3) (size 1.475 0.25) (layers F.Cu F.Mask F.Paste) (roundrect_rratio 0.25))
  (pad 84 smd roundrect (at 3.7125 -3.4) (size 1.475 0.25) (layers F.Cu F.Mask F.Paste) (roundrect_rratio 0.25))
  (pad 85 smd roundrect (at 3.7125 -3.8) (size 1.475 0.25) (layers F.Cu F.Mask F.Paste) (roundrect_rratio 0.25))
  (pad 86 smd roundrect (at 3.7125 -4.2) (size 1.475 0.25) (layers F.Cu F.Mask F.Paste) (roundrect_rratio 0.25))
  (pad 87 smd roundrect (at 3.7125 -4.6) (size 1.475 0.25) (layers F.Cu F.Mask F.Paste) (roundrect_rratio 0.25))
  (pad 88 smd roundrect (at 3.7125 -5) (size 1.475 0.25) (layers F.Cu F.Mask F.Paste) (roundrect_rratio 0.25))
  (pad 89 smd roundrect (at 3.7125 -5.4) (size 1.475 0.25) (layers F.Cu F.Mask F.Paste) (roundrect_rratio 0.25))
  (pad 90 smd roundrect (at 3.7125 -5.8) (size 1.475 0.25) (layers F.Cu F.Mask F.Paste) (roundrect_rratio 0.25))
  (pad 91 smd roundrect (at 3.7125 -6.2) (size 1.475 0.25) (layers F.Cu F.Mask F.Paste) (roundrect_rratio 0.25))
  (pad 92 smd roundrect (at 3.7125 -6.6) (size 1.475 0.25) (layers F.Cu F.Mask F.Paste) (roundrect_rratio 0.25))
  (pad 93 smd roundrect (at 3.7125 -7) (size 1.475 0.25) (layers F.Cu F.Mask F.Paste) (roundrect_rratio 0.25))
  (pad 94 smd roundrect (at 3.7125 -7.4) (size 1.475 0.25) (layers F.Cu F.Mask F.Paste) (roundrect_rratio 0.25))
  (pad 95 smd roundrect (at 3.7125 -7.8) (size 1.475 0.25) (layers F.Cu F.Mask F.Paste) (roundrect_rratio 0.25))
  (pad 96 smd roundrect (at 3.7125 -8.2) (size 1.475 0.25) (layers F.Cu F.Mask F.Paste) (roundrect_rratio 0.25))
  (pad 97 smd roundrect (at 3.7125 -8.6) (size 1.475 0.25) (layers F.Cu F.Mask F.Paste) (roundrect_rratio 0.25))
  (pad 98 smd roundrect (at 3.7125 -9) (size 1.475 0.25) (layers F.Cu F.Mask F.Paste) (roundrect_rratio 0.25))
  (pad 99 smd roundrect (at 3.7125 -9.4) (size 1.475 0.25) (layers F.Cu F.Mask F.Paste) (roundrect_rratio 0.25))
  (pad 100 smd roundrect (at 3.7125 -9.8) (size 1.475 0.25) (layers F.Cu F.Mask F.Paste) (roundrect_rratio 0.25))
  (fp_poly (pts (xy -3.75 -10.185) (xy -3.93 -10.437) (xy -3.57 -10.437) (xy -3.75 -10.185))
    (stroke (width 0.12) (type solid)) (fill solid) (layer F.SilkS))
  (fp_text user ${REFERENCE} (at 0 0) (layer F.Fab)
    (effects (font (size 1 1) (thickness 0.15)))
  )
  (model ${KICAD7_3DMODEL_DIR}/Package_SO.3dshapes/TSSOP-100_6.1x20.8mm_P0.4mm.wrl
    (offset (xyz 0 0 0))
    (scale (xyz 1 1 1))
    (rotate (xyz 0 0 0))
  )
)
