(footprint TSSOP-24-1EP_4.4x7.8mm_P0.65mm_EP3.2x5mm (version 20221018) (generator kicad-footprint-generator)
  (layer F.Cu)
  (descr "TSSOP, 24 Pin (https://www.st.com/resource/en/datasheet/led1642gw.pdf#page=37), generated with kicad-footprint-generator ipc_gullwing_generator.py")
  (tags "TSSOP SO")
  (attr smd)
  (fp_text reference REF** (at 0 -4.85) (layer F.SilkS)
    (effects (font (size 1 1) (thickness 0.15)))
  )
  (fp_text value TSSOP-24-1EP_4.4x7.8mm_P0.65mm_EP3.2x5mm (at 0 4.85) (layer F.Fab)
    (effects (font (size 1 1) (thickness 0.15)))
  )
  (fp_line (start -3.88 -4.15) (end -3.88 4.15)
    (stroke (width 0.05) (type solid)) (layer F.CrtYd))
  (fp_line (start -3.88 4.15) (end 3.88 4.15)
    (stroke (width 0.05) (type solid)) (layer F.CrtYd))
  (fp_line (start 3.88 4.15) (end 3.88 -4.15)
    (stroke (width 0.05) (type solid)) (layer F.CrtYd))
  (fp_line (start 3.88 -4.15) (end -3.88 -4.15)
    (stroke (width 0.05) (type solid)) (layer F.CrtYd))
  (fp_line (start 0 4.035) (end 2.2 4.035)
    (stroke (width 0.12) (type solid)) (layer F.SilkS))
  (fp_line (start 0 4.035) (end -2.2 4.035)
    (stroke (width 0.12) (type solid)) (layer F.SilkS))
  (fp_line (start 0 -4.035) (end 2.2 -4.035)
    (stroke (width 0.12) (type solid)) (layer F.SilkS))
  (fp_line (start 0 -4.035) (end -2.2 -4.035)
    (stroke (width 0.12) (type solid)) (layer F.SilkS))
  (fp_line (start -1.2 -3.9) (end 2.2 -3.9)
    (stroke (width 0.1) (type solid)) (layer F.Fab))
  (fp_line (start 2.2 -3.9) (end 2.2 3.9)
    (stroke (width 0.1) (type solid)) (layer F.Fab))
  (fp_line (start 2.2 3.9) (end -2.2 3.9)
    (stroke (width 0.1) (type solid)) (layer F.Fab))
  (fp_line (start -2.2 3.9) (end -2.2 -2.9)
    (stroke (width 0.1) (type solid)) (layer F.Fab))
  (fp_line (start -2.2 -2.9) (end -1.2 -3.9)
    (stroke (width 0.1) (type solid)) (layer F.Fab))
  (pad 1 smd roundrect (at -2.875 -3.575) (size 1.5 0.4) (layers F.Cu F.Mask F.Paste) (roundrect_rratio 0.25))
  (pad 2 smd roundrect (at -2.875 -2.925) (size 1.5 0.4) (layers F.Cu F.Mask F.Paste) (roundrect_rratio 0.25))
  (pad 3 smd roundrect (at -2.875 -2.275) (size 1.5 0.4) (layers F.Cu F.Mask F.Paste) (roundrect_rratio 0.25))
  (pad 4 smd roundrect (at -2.875 -1.625) (size 1.5 0.4) (layers F.Cu F.Mask F.Paste) (roundrect_rratio 0.25))
  (pad 5 smd roundrect (at -2.875 -0.975) (size 1.5 0.4) (layers F.Cu F.Mask F.Paste) (roundrect_rratio 0.25))
  (pad 6 smd roundrect (at -2.875 -0.325) (size 1.5 0.4) (layers F.Cu F.Mask F.Paste) (roundrect_rratio 0.25))
  (pad 7 smd roundrect (at -2.875 0.325) (size 1.5 0.4) (layers F.Cu F.Mask F.Paste) (roundrect_rratio 0.25))
  (pad 8 smd roundrect (at -2.875 0.975) (size 1.5 0.4) (layers F.Cu F.Mask F.Paste) (roundrect_rratio 0.25))
  (pad 9 smd roundrect (at -2.875 1.625) (size 1.5 0.4) (layers F.Cu F.Mask F.Paste) (roundrect_rratio 0.25))
  (pad 10 smd roundrect (at -2.875 2.275) (size 1.5 0.4) (layers F.Cu F.Mask F.Paste) (roundrect_rratio 0.25))
  (pad 11 smd roundrect (at -2.875 2.925) (size 1.5 0.4) (layers F.Cu F.Mask F.Paste) (roundrect_rratio 0.25))
  (pad 12 smd roundrect (at -2.875 3.575) (size 1.5 0.4) (layers F.Cu F.Mask F.Paste) (roundrect_rratio 0.25))
  (pad 13 smd roundrect (at 2.875 3.575) (size 1.5 0.4) (layers F.Cu F.Mask F.Paste) (roundrect_rratio 0.25))
  (pad 14 smd roundrect (at 2.875 2.925) (size 1.5 0.4) (layers F.Cu F.Mask F.Paste) (roundrect_rratio 0.25))
  (pad 15 smd roundrect (at 2.875 2.275) (size 1.5 0.4) (layers F.Cu F.Mask F.Paste) (roundrect_rratio 0.25))
  (pad 16 smd roundrect (at 2.875 1.625) (size 1.5 0.4) (layers F.Cu F.Mask F.Paste) (roundrect_rratio 0.25))
  (pad 17 smd roundrect (at 2.875 0.975) (size 1.5 0.4) (layers F.Cu F.Mask F.Paste) (roundrect_rratio 0.25))
  (pad 18 smd roundrect (at 2.875 0.325) (size 1.5 0.4) (layers F.Cu F.Mask F.Paste) (roundrect_rratio 0.25))
  (pad 19 smd roundrect (at 2.875 -0.325) (size 1.5 0.4) (layers F.Cu F.Mask F.Paste) (roundrect_rratio 0.25))
  (pad 20 smd roundrect (at 2.875 -0.975) (size 1.5 0.4) (layers F.Cu F.Mask F.Paste) (roundrect_rratio 0.25))
  (pad 21 smd roundrect (at 2.875 -1.625) (size 1.5 0.4) (layers F.Cu F.Mask F.Paste) (roundrect_rratio 0.25))
  (pad 22 smd roundrect (at 2.875 -2.275) (size 1.5 0.4) (layers F.Cu F.Mask F.Paste) (roundrect_rratio 0.25))
  (pad 23 smd roundrect (at 2.875 -2.925) (size 1.5 0.4) (layers F.Cu F.Mask F.Paste) (roundrect_rratio 0.25))
  (pad 24 smd roundrect (at 2.875 -3.575) (size 1.5 0.4) (layers F.Cu F.Mask F.Paste) (roundrect_rratio 0.25))
  (pad 25 smd rect (at 0 0) (size 3.2 5) (property pad_prop_heatsink) (layers F.Cu F.Mask)
    (zone_connect 2))
  (pad "" smd roundrect (at -0.8 -1.67) (size 1.29 1.34) (layers F.Paste) (roundrect_rratio 0.193798))
  (pad "" smd roundrect (at -0.8 0) (size 1.29 1.34) (layers F.Paste) (roundrect_rratio 0.193798))
  (pad "" smd roundrect (at -0.8 1.67) (size 1.29 1.34) (layers F.Paste) (roundrect_rratio 0.193798))
  (pad "" smd roundrect (at 0.8 -1.67) (size 1.29 1.34) (layers F.Paste) (roundrect_rratio 0.193798))
  (pad "" smd roundrect (at 0.8 0) (size 1.29 1.34) (layers F.Paste) (roundrect_rratio 0.193798))
  (pad "" smd roundrect (at 0.8 1.67) (size 1.29 1.34) (layers F.Paste) (roundrect_rratio 0.193798))
  (fp_poly (pts (xy -2.9125 -4.035) (xy -3.0925 -4.287) (xy -2.7325 -4.287) (xy -2.9125 -4.035))
    (stroke (width 0.12) (type solid)) (fill solid) (layer F.SilkS))
  (fp_text user ${REFERENCE} (at 0 0) (layer F.Fab)
    (effects (font (size 1 1) (thickness 0.15)))
  )
  (model ${KICAD7_3DMODEL_DIR}/Package_SO.3dshapes/TSSOP-24-1EP_4.4x7.8mm_P0.65mm_EP3.2x5mm.wrl
    (offset (xyz 0 0 0))
    (scale (xyz 1 1 1))
    (rotate (xyz 0 0 0))
  )
)
