(footprint TSSOP-24_4.4x5mm_P0.4mm (version 20221018) (generator kicad-footprint-generator)
  (layer F.Cu)
  (descr "TSSOP, 24 Pin (JEDEC MO-153 Var CA https://www.jedec.org/document_search?search_api_views_fulltext=MO-153), generated with kicad-footprint-generator ipc_gullwing_generator.py")
  (tags "TSSOP SO")
  (attr smd)
  (fp_text reference REF** (at 0 -3.45) (layer F.SilkS)
    (effects (font (size 1 1) (thickness 0.15)))
  )
  (fp_text value TSSOP-24_4.4x5mm_P0.4mm (at 0 3.45) (layer F.Fab)
    (effects (font (size 1 1) (thickness 0.15)))
  )
  (fp_line (start -3.85 -2.75) (end -3.85 2.75)
    (stroke (width 0.05) (type solid)) (layer F.CrtYd))
  (fp_line (start -3.85 2.75) (end 3.85 2.75)
    (stroke (width 0.05) (type solid)) (layer F.CrtYd))
  (fp_line (start 3.85 2.75) (end 3.85 -2.75)
    (stroke (width 0.05) (type solid)) (layer F.CrtYd))
  (fp_line (start 3.85 -2.75) (end -3.85 -2.75)
    (stroke (width 0.05) (type solid)) (layer F.CrtYd))
  (fp_line (start 0 2.61) (end 2.2 2.61)
    (stroke (width 0.12) (type solid)) (layer F.SilkS))
  (fp_line (start 0 2.61) (end -2.2 2.61)
    (stroke (width 0.12) (type solid)) (layer F.SilkS))
  (fp_line (start 0 -2.61) (end 2.2 -2.61)
    (stroke (width 0.12) (type solid)) (layer F.SilkS))
  (fp_line (start 0 -2.61) (end -2.2 -2.61)
    (stroke (width 0.12) (type solid)) (layer F.SilkS))
  (fp_line (start -1.2 -2.5) (end 2.2 -2.5)
    (stroke (width 0.1) (type solid)) (layer F.Fab))
  (fp_line (start 2.2 -2.5) (end 2.2 2.5)
    (stroke (width 0.1) (type solid)) (layer F.Fab))
  (fp_line (start 2.2 2.5) (end -2.2 2.5)
    (stroke (width 0.1) (type solid)) (layer F.Fab))
  (fp_line (start -2.2 2.5) (end -2.2 -1.5)
    (stroke (width 0.1) (type solid)) (layer F.Fab))
  (fp_line (start -2.2 -1.5) (end -1.2 -2.5)
    (stroke (width 0.1) (type solid)) (layer F.Fab))
  (pad 1 smd roundrect (at -2.8625 -2.2) (size 1.475 0.25) (layers F.Cu F.Mask F.Paste) (roundrect_rratio 0.25))
  (pad 2 smd roundrect (at -2.8625 -1.8) (size 1.475 0.25) (layers F.Cu F.Mask F.Paste) (roundrect_rratio 0.25))
  (pad 3 smd roundrect (at -2.8625 -1.4) (size 1.475 0.25) (layers F.Cu F.Mask F.Paste) (roundrect_rratio 0.25))
  (pad 4 smd roundrect (at -2.8625 -1) (size 1.475 0.25) (layers F.Cu F.Mask F.Paste) (roundrect_rratio 0.25))
  (pad 5 smd roundrect (at -2.8625 -0.6) (size 1.475 0.25) (layers F.Cu F.Mask F.Paste) (roundrect_rratio 0.25))
  (pad 6 smd roundrect (at -2.8625 -0.2) (size 1.475 0.25) (layers F.Cu F.Mask F.Paste) (roundrect_rratio 0.25))
  (pad 7 smd roundrect (at -2.8625 0.2) (size 1.475 0.25) (layers F.Cu F.Mask F.Paste) (roundrect_rratio 0.25))
  (pad 8 smd roundrect (at -2.8625 0.6) (size 1.475 0.25) (layers F.Cu F.Mask F.Paste) (roundrect_rratio 0.25))
  (pad 9 smd roundrect (at -2.8625 1) (size 1.475 0.25) (layers F.Cu F.Mask F.Paste) (roundrect_rratio 0.25))
  (pad 10 smd roundrect (at -2.8625 1.4) (size 1.475 0.25) (layers F.Cu F.Mask F.Paste) (roundrect_rratio 0.25))
  (pad 11 smd roundrect (at -2.8625 1.8) (size 1.475 0.25) (layers F.Cu F.Mask F.Paste) (roundrect_rratio 0.25))
  (pad 12 smd roundrect (at -2.8625 2.2) (size 1.475 0.25) (layers F.Cu F.Mask F.Paste) (roundrect_rratio 0.25))
  (pad 13 smd roundrect (at 2.8625 2.2) (size 1.475 0.25) (layers F.Cu F.Mask F.Paste) (roundrect_rratio 0.25))
  (pad 14 smd roundrect (at 2.8625 1.8) (size 1.475 0.25) (layers F.Cu F.Mask F.Paste) (roundrect_rratio 0.25))
  (pad 15 smd roundrect (at 2.8625 1.4) (size 1.475 0.25) (layers F.Cu F.Mask F.Paste) (roundrect_rratio 0.25))
  (pad 16 smd roundrect (at 2.8625 1) (size 1.475 0.25) (layers F.Cu F.Mask F.Paste) (roundrect_rratio 0.25))
  (pad 17 smd roundrect (at 2.8625 0.6) (size 1.475 0.25) (layers F.Cu F.Mask F.Paste) (roundrect_rratio 0.25))
  (pad 18 smd roundrect (at 2.8625 0.2) (size 1.475 0.25) (layers F.Cu F.Mask F.Paste) (roundrect_rratio 0.25))
  (pad 19 smd roundrect (at 2.8625 -0.2) (size 1.475 0.25) (layers F.Cu F.Mask F.Paste) (roundrect_rratio 0.25))
  (pad 20 smd roundrect (at 2.8625 -0.6) (size 1.475 0.25) (layers F.Cu F.Mask F.Paste) (roundrect_rratio 0.25))
  (pad 21 smd roundrect (at 2.8625 -1) (size 1.475 0.25) (layers F.Cu F.Mask F.Paste) (roundrect_rratio 0.25))
  (pad 22 smd roundrect (at 2.8625 -1.4) (size 1.475 0.25) (layers F.Cu F.Mask F.Paste) (roundrect_rratio 0.25))
  (pad 23 smd roundrect (at 2.8625 -1.8) (size 1.475 0.25) (layers F.Cu F.Mask F.Paste) (roundrect_rratio 0.25))
  (pad 24 smd roundrect (at 2.8625 -2.2) (size 1.475 0.25) (layers F.Cu F.Mask F.Paste) (roundrect_rratio 0.25))
  (fp_poly (pts (xy -2.9 -2.585) (xy -3.08 -2.837) (xy -2.72 -2.837) (xy -2.9 -2.585))
    (stroke (width 0.12) (type solid)) (fill solid) (layer F.SilkS))
  (fp_text user ${REFERENCE} (at 0 0) (layer F.Fab)
    (effects (font (size 1 1) (thickness 0.15)))
  )
  (model ${KICAD7_3DMODEL_DIR}/Package_SO.3dshapes/TSSOP-24_4.4x5mm_P0.4mm.wrl
    (offset (xyz 0 0 0))
    (scale (xyz 1 1 1))
    (rotate (xyz 0 0 0))
  )
)
