(footprint TSSOP-14_4.4x3.6mm_P0.4mm (version 20221018) (generator kicad-footprint-generator)
  (layer F.Cu)
  (descr "TSSOP, 14 Pin (JEDEC MO-194 Var AA https://www.jedec.org/document_search?search_api_views_fulltext=MO-194), generated with kicad-footprint-generator ipc_gullwing_generator.py")
  (tags "TSSOP SO")
  (attr smd)
  (fp_text reference REF** (at 0 -2.75) (layer F.SilkS)
    (effects (font (size 1 1) (thickness 0.15)))
  )
  (fp_text value TSSOP-14_4.4x3.6mm_P0.4mm (at 0 2.75) (layer F.Fab)
    (effects (font (size 1 1) (thickness 0.15)))
  )
  (fp_line (start -3.85 -2.05) (end -3.85 2.05)
    (stroke (width 0.05) (type solid)) (layer F.CrtYd))
  (fp_line (start -3.85 2.05) (end 3.85 2.05)
    (stroke (width 0.05) (type solid)) (layer F.CrtYd))
  (fp_line (start 3.85 2.05) (end 3.85 -2.05)
    (stroke (width 0.05) (type solid)) (layer F.CrtYd))
  (fp_line (start 3.85 -2.05) (end -3.85 -2.05)
    (stroke (width 0.05) (type solid)) (layer F.CrtYd))
  (fp_line (start 0 1.91) (end 2.31 1.91)
    (stroke (width 0.12) (type solid)) (layer F.SilkS))
  (fp_line (start 2.31 1.91) (end 2.31 1.585)
    (stroke (width 0.12) (type solid)) (layer F.SilkS))
  (fp_line (start 0 1.91) (end -2.31 1.91)
    (stroke (width 0.12) (type solid)) (layer F.SilkS))
  (fp_line (start -2.31 1.91) (end -2.31 1.585)
    (stroke (width 0.12) (type solid)) (layer F.SilkS))
  (fp_line (start 0 -1.91) (end 2.31 -1.91)
    (stroke (width 0.12) (type solid)) (layer F.SilkS))
  (fp_line (start 2.31 -1.91) (end 2.31 -1.585)
    (stroke (width 0.12) (type solid)) (layer F.SilkS))
  (fp_line (start 0 -1.91) (end -2.31 -1.91)
    (stroke (width 0.12) (type solid)) (layer F.SilkS))
  (fp_line (start -2.31 -1.91) (end -2.31 -1.585)
    (stroke (width 0.12) (type solid)) (layer F.SilkS))
  (fp_line (start -1.3 -1.8) (end 2.2 -1.8)
    (stroke (width 0.1) (type solid)) (layer F.Fab))
  (fp_line (start 2.2 -1.8) (end 2.2 1.8)
    (stroke (width 0.1) (type solid)) (layer F.Fab))
  (fp_line (start 2.2 1.8) (end -2.2 1.8)
    (stroke (width 0.1) (type solid)) (layer F.Fab))
  (fp_line (start -2.2 1.8) (end -2.2 -0.9)
    (stroke (width 0.1) (type solid)) (layer F.Fab))
  (fp_line (start -2.2 -0.9) (end -1.3 -1.8)
    (stroke (width 0.1) (type solid)) (layer F.Fab))
  (pad 1 smd roundrect (at -2.8625 -1.2) (size 1.475 0.25) (layers F.Cu F.Mask F.Paste) (roundrect_rratio 0.25))
  (pad 2 smd roundrect (at -2.8625 -0.8) (size 1.475 0.25) (layers F.Cu F.Mask F.Paste) (roundrect_rratio 0.25))
  (pad 3 smd roundrect (at -2.8625 -0.4) (size 1.475 0.25) (layers F.Cu F.Mask F.Paste) (roundrect_rratio 0.25))
  (pad 4 smd roundrect (at -2.8625 0) (size 1.475 0.25) (layers F.Cu F.Mask F.Paste) (roundrect_rratio 0.25))
  (pad 5 smd roundrect (at -2.8625 0.4) (size 1.475 0.25) (layers F.Cu F.Mask F.Paste) (roundrect_rratio 0.25))
  (pad 6 smd roundrect (at -2.8625 0.8) (size 1.475 0.25) (layers F.Cu F.Mask F.Paste) (roundrect_rratio 0.25))
  (pad 7 smd roundrect (at -2.8625 1.2) (size 1.475 0.25) (layers F.Cu F.Mask F.Paste) (roundrect_rratio 0.25))
  (pad 8 smd roundrect (at 2.8625 1.2) (size 1.475 0.25) (layers F.Cu F.Mask F.Paste) (roundrect_rratio 0.25))
  (pad 9 smd roundrect (at 2.8625 0.8) (size 1.475 0.25) (layers F.Cu F.Mask F.Paste) (roundrect_rratio 0.25))
  (pad 10 smd roundrect (at 2.8625 0.4) (size 1.475 0.25) (layers F.Cu F.Mask F.Paste) (roundrect_rratio 0.25))
  (pad 11 smd roundrect (at 2.8625 0) (size 1.475 0.25) (layers F.Cu F.Mask F.Paste) (roundrect_rratio 0.25))
  (pad 12 smd roundrect (at 2.8625 -0.4) (size 1.475 0.25) (layers F.Cu F.Mask F.Paste) (roundrect_rratio 0.25))
  (pad 13 smd roundrect (at 2.8625 -0.8) (size 1.475 0.25) (layers F.Cu F.Mask F.Paste) (roundrect_rratio 0.25))
  (pad 14 smd roundrect (at 2.8625 -1.2) (size 1.475 0.25) (layers F.Cu F.Mask F.Paste) (roundrect_rratio 0.25))
  (fp_poly (pts (xy -2.9 -1.585) (xy -3.08 -1.837) (xy -2.72 -1.837) (xy -2.9 -1.585))
    (stroke (width 0.12) (type solid)) (fill solid) (layer F.SilkS))
  (fp_text user ${REFERENCE} (at 0 0) (layer F.Fab)
    (effects (font (size 1 1) (thickness 0.15)))
  )
  (model ${KICAD7_3DMODEL_DIR}/Package_SO.3dshapes/TSSOP-14_4.4x3.6mm_P0.4mm.wrl
    (offset (xyz 0 0 0))
    (scale (xyz 1 1 1))
    (rotate (xyz 0 0 0))
  )
)
