(footprint TQFP-100-1EP_14x14mm_P0.5mm_EP5x5mm_ThermalVias (version 20221018) (generator kicad-footprint-generator)
  (layer F.Cu)
  (descr "TQFP, 100 Pin (https://www.analog.com/media/en/package-pcb-resources/package/pkg_pdf/tqfp_edsv/sv_100_4.pdf), generated with kicad-footprint-generator ipc_gullwing_generator.py")
  (tags "TQFP QFP")
  (attr smd)
  (fp_text reference REF** (at 0 -9.35) (layer F.SilkS)
    (effects (font (size 1 1) (thickness 0.15)))
  )
  (fp_text value TQFP-100-1EP_14x14mm_P0.5mm_EP5x5mm_ThermalVias (at 0 9.35) (layer F.Fab)
    (effects (font (size 1 1) (thickness 0.15)))
  )
  (fp_line (start 0 -8.65) (end -6.4 -8.65)
    (stroke (width 0.05) (type solid)) (layer F.CrtYd))
  (fp_line (start -6.4 -8.65) (end -6.4 -7.25)
    (stroke (width 0.05) (type solid)) (layer F.CrtYd))
  (fp_line (start -6.4 -7.25) (end -7.25 -7.25)
    (stroke (width 0.05) (type solid)) (layer F.CrtYd))
  (fp_line (start -7.25 -7.25) (end -7.25 -6.4)
    (stroke (width 0.05) (type solid)) (layer F.CrtYd))
  (fp_line (start -7.25 -6.4) (end -8.65 -6.4)
    (stroke (width 0.05) (type solid)) (layer F.CrtYd))
  (fp_line (start -8.65 -6.4) (end -8.65 0)
    (stroke (width 0.05) (type solid)) (layer F.CrtYd))
  (fp_line (start 0 -8.65) (end 6.4 -8.65)
    (stroke (width 0.05) (type solid)) (layer F.CrtYd))
  (fp_line (start 6.4 -8.65) (end 6.4 -7.25)
    (stroke (width 0.05) (type solid)) (layer F.CrtYd))
  (fp_line (start 6.4 -7.25) (end 7.25 -7.25)
    (stroke (width 0.05) (type solid)) (layer F.CrtYd))
  (fp_line (start 7.25 -7.25) (end 7.25 -6.4)
    (stroke (width 0.05) (type solid)) (layer F.CrtYd))
  (fp_line (start 7.25 -6.4) (end 8.65 -6.4)
    (stroke (width 0.05) (type solid)) (layer F.CrtYd))
  (fp_line (start 8.65 -6.4) (end 8.65 0)
    (stroke (width 0.05) (type solid)) (layer F.CrtYd))
  (fp_line (start 0 8.65) (end -6.4 8.65)
    (stroke (width 0.05) (type solid)) (layer F.CrtYd))
  (fp_line (start -6.4 8.65) (end -6.4 7.25)
    (stroke (width 0.05) (type solid)) (layer F.CrtYd))
  (fp_line (start -6.4 7.25) (end -7.25 7.25)
    (stroke (width 0.05) (type solid)) (layer F.CrtYd))
  (fp_line (start -7.25 7.25) (end -7.25 6.4)
    (stroke (width 0.05) (type solid)) (layer F.CrtYd))
  (fp_line (start -7.25 6.4) (end -8.65 6.4)
    (stroke (width 0.05) (type solid)) (layer F.CrtYd))
  (fp_line (start -8.65 6.4) (end -8.65 0)
    (stroke (width 0.05) (type solid)) (layer F.CrtYd))
  (fp_line (start 0 8.65) (end 6.4 8.65)
    (stroke (width 0.05) (type solid)) (layer F.CrtYd))
  (fp_line (start 6.4 8.65) (end 6.4 7.25)
    (stroke (width 0.05) (type solid)) (layer F.CrtYd))
  (fp_line (start 6.4 7.25) (end 7.25 7.25)
    (stroke (width 0.05) (type solid)) (layer F.CrtYd))
  (fp_line (start 7.25 7.25) (end 7.25 6.4)
    (stroke (width 0.05) (type solid)) (layer F.CrtYd))
  (fp_line (start 7.25 6.4) (end 8.65 6.4)
    (stroke (width 0.05) (type solid)) (layer F.CrtYd))
  (fp_line (start 8.65 6.4) (end 8.65 0)
    (stroke (width 0.05) (type solid)) (layer F.CrtYd))
  (fp_line (start 6.41 7.11) (end 7.11 7.11)
    (stroke (width 0.12) (type solid)) (layer F.SilkS))
  (fp_line (start 7.11 7.11) (end 7.11 6.41)
    (stroke (width 0.12) (type solid)) (layer F.SilkS))
  (fp_line (start -6.41 7.11) (end -7.11 7.11)
    (stroke (width 0.12) (type solid)) (layer F.SilkS))
  (fp_line (start -7.11 7.11) (end -7.11 6.41)
    (stroke (width 0.12) (type solid)) (layer F.SilkS))
  (fp_line (start 6.41 -7.11) (end 7.11 -7.11)
    (stroke (width 0.12) (type solid)) (layer F.SilkS))
  (fp_line (start 7.11 -7.11) (end 7.11 -6.41)
    (stroke (width 0.12) (type solid)) (layer F.SilkS))
  (fp_line (start -6.41 -7.11) (end -7.11 -7.11)
    (stroke (width 0.12) (type solid)) (layer F.SilkS))
  (fp_line (start -7.11 -7.11) (end -7.11 -6.41)
    (stroke (width 0.12) (type solid)) (layer F.SilkS))
  (fp_line (start -6 -7) (end 7 -7)
    (stroke (width 0.1) (type solid)) (layer F.Fab))
  (fp_line (start 7 -7) (end 7 7)
    (stroke (width 0.1) (type solid)) (layer F.Fab))
  (fp_line (start 7 7) (end -7 7)
    (stroke (width 0.1) (type solid)) (layer F.Fab))
  (fp_line (start -7 7) (end -7 -6)
    (stroke (width 0.1) (type solid)) (layer F.Fab))
  (fp_line (start -7 -6) (end -6 -7)
    (stroke (width 0.1) (type solid)) (layer F.Fab))
  (pad 1 smd roundrect (at -7.6625 -6) (size 1.475 0.3) (layers F.Cu F.Mask F.Paste) (roundrect_rratio 0.25))
  (pad 2 smd roundrect (at -7.6625 -5.5) (size 1.475 0.3) (layers F.Cu F.Mask F.Paste) (roundrect_rratio 0.25))
  (pad 3 smd roundrect (at -7.6625 -5) (size 1.475 0.3) (layers F.Cu F.Mask F.Paste) (roundrect_rratio 0.25))
  (pad 4 smd roundrect (at -7.6625 -4.5) (size 1.475 0.3) (layers F.Cu F.Mask F.Paste) (roundrect_rratio 0.25))
  (pad 5 smd roundrect (at -7.6625 -4) (size 1.475 0.3) (layers F.Cu F.Mask F.Paste) (roundrect_rratio 0.25))
  (pad 6 smd roundrect (at -7.6625 -3.5) (size 1.475 0.3) (layers F.Cu F.Mask F.Paste) (roundrect_rratio 0.25))
  (pad 7 smd roundrect (at -7.6625 -3) (size 1.475 0.3) (layers F.Cu F.Mask F.Paste) (roundrect_rratio 0.25))
  (pad 8 smd roundrect (at -7.6625 -2.5) (size 1.475 0.3) (layers F.Cu F.Mask F.Paste) (roundrect_rratio 0.25))
  (pad 9 smd roundrect (at -7.6625 -2) (size 1.475 0.3) (layers F.Cu F.Mask F.Paste) (roundrect_rratio 0.25))
  (pad 10 smd roundrect (at -7.6625 -1.5) (size 1.475 0.3) (layers F.Cu F.Mask F.Paste) (roundrect_rratio 0.25))
  (pad 11 smd roundrect (at -7.6625 -1) (size 1.475 0.3) (layers F.Cu F.Mask F.Paste) (roundrect_rratio 0.25))
  (pad 12 smd roundrect (at -7.6625 -0.5) (size 1.475 0.3) (layers F.Cu F.Mask F.Paste) (roundrect_rratio 0.25))
  (pad 13 smd roundrect (at -7.6625 0) (size 1.475 0.3) (layers F.Cu F.Mask F.Paste) (roundrect_rratio 0.25))
  (pad 14 smd roundrect (at -7.6625 0.5) (size 1.475 0.3) (layers F.Cu F.Mask F.Paste) (roundrect_rratio 0.25))
  (pad 15 smd roundrect (at -7.6625 1) (size 1.475 0.3) (layers F.Cu F.Mask F.Paste) (roundrect_rratio 0.25))
  (pad 16 smd roundrect (at -7.6625 1.5) (size 1.475 0.3) (layers F.Cu F.Mask F.Paste) (roundrect_rratio 0.25))
  (pad 17 smd roundrect (at -7.6625 2) (size 1.475 0.3) (layers F.Cu F.Mask F.Paste) (roundrect_rratio 0.25))
  (pad 18 smd roundrect (at -7.6625 2.5) (size 1.475 0.3) (layers F.Cu F.Mask F.Paste) (roundrect_rratio 0.25))
  (pad 19 smd roundrect (at -7.6625 3) (size 1.475 0.3) (layers F.Cu F.Mask F.Paste) (roundrect_rratio 0.25))
  (pad 20 smd roundrect (at -7.6625 3.5) (size 1.475 0.3) (layers F.Cu F.Mask F.Paste) (roundrect_rratio 0.25))
  (pad 21 smd roundrect (at -7.6625 4) (size 1.475 0.3) (layers F.Cu F.Mask F.Paste) (roundrect_rratio 0.25))
  (pad 22 smd roundrect (at -7.6625 4.5) (size 1.475 0.3) (layers F.Cu F.Mask F.Paste) (roundrect_rratio 0.25))
  (pad 23 smd roundrect (at -7.6625 5) (size 1.475 0.3) (layers F.Cu F.Mask F.Paste) (roundrect_rratio 0.25))
  (pad 24 smd roundrect (at -7.6625 5.5) (size 1.475 0.3) (layers F.Cu F.Mask F.Paste) (roundrect_rratio 0.25))
  (pad 25 smd roundrect (at -7.6625 6) (size 1.475 0.3) (layers F.Cu F.Mask F.Paste) (roundrect_rratio 0.25))
  (pad 26 smd roundrect (at -6 7.6625) (size 0.3 1.475) (layers F.Cu F.Mask F.Paste) (roundrect_rratio 0.25))
  (pad 27 smd roundrect (at -5.5 7.6625) (size 0.3 1.475) (layers F.Cu F.Mask F.Paste) (roundrect_rratio 0.25))
  (pad 28 smd roundrect (at -5 7.6625) (size 0.3 1.475) (layers F.Cu F.Mask F.Paste) (roundrect_rratio 0.25))
  (pad 29 smd roundrect (at -4.5 7.6625) (size 0.3 1.475) (layers F.Cu F.Mask F.Paste) (roundrect_rratio 0.25))
  (pad 30 smd roundrect (at -4 7.6625) (size 0.3 1.475) (layers F.Cu F.Mask F.Paste) (roundrect_rratio 0.25))
  (pad 31 smd roundrect (at -3.5 7.6625) (size 0.3 1.475) (layers F.Cu F.Mask F.Paste) (roundrect_rratio 0.25))
  (pad 32 smd roundrect (at -3 7.6625) (size 0.3 1.475) (layers F.Cu F.Mask F.Paste) (roundrect_rratio 0.25))
  (pad 33 smd roundrect (at -2.5 7.6625) (size 0.3 1.475) (layers F.Cu F.Mask F.Paste) (roundrect_rratio 0.25))
  (pad 34 smd roundrect (at -2 7.6625) (size 0.3 1.475) (layers F.Cu F.Mask F.Paste) (roundrect_rratio 0.25))
  (pad 35 smd roundrect (at -1.5 7.6625) (size 0.3 1.475) (layers F.Cu F.Mask F.Paste) (roundrect_rratio 0.25))
  (pad 36 smd roundrect (at -1 7.6625) (size 0.3 1.475) (layers F.Cu F.Mask F.Paste) (roundrect_rratio 0.25))
  (pad 37 smd roundrect (at -0.5 7.6625) (size 0.3 1.475) (layers F.Cu F.Mask F.Paste) (roundrect_rratio 0.25))
  (pad 38 smd roundrect (at 0 7.6625) (size 0.3 1.475) (layers F.Cu F.Mask F.Paste) (roundrect_rratio 0.25))
  (pad 39 smd roundrect (at 0.5 7.6625) (size 0.3 1.475) (layers F.Cu F.Mask F.Paste) (roundrect_rratio 0.25))
  (pad 40 smd roundrect (at 1 7.6625) (size 0.3 1.475) (layers F.Cu F.Mask F.Paste) (roundrect_rratio 0.25))
  (pad 41 smd roundrect (at 1.5 7.6625) (size 0.3 1.475) (layers F.Cu F.Mask F.Paste) (roundrect_rratio 0.25))
  (pad 42 smd roundrect (at 2 7.6625) (size 0.3 1.475) (layers F.Cu F.Mask F.Paste) (roundrect_rratio 0.25))
  (pad 43 smd roundrect (at 2.5 7.6625) (size 0.3 1.475) (layers F.Cu F.Mask F.Paste) (roundrect_rratio 0.25))
  (pad 44 smd roundrect (at 3 7.6625) (size 0.3 1.475) (layers F.Cu F.Mask F.Paste) (roundrect_rratio 0.25))
  (pad 45 smd roundrect (at 3.5 7.6625) (size 0.3 1.475) (layers F.Cu F.Mask F.Paste) (roundrect_rratio 0.25))
  (pad 46 smd roundrect (at 4 7.6625) (size 0.3 1.475) (layers F.Cu F.Mask F.Paste) (roundrect_rratio 0.25))
  (pad 47 smd roundrect (at 4.5 7.6625) (size 0.3 1.475) (layers F.Cu F.Mask F.Paste) (roundrect_rratio 0.25))
  (pad 48 smd roundrect (at 5 7.6625) (size 0.3 1.475) (layers F.Cu F.Mask F.Paste) (roundrect_rratio 0.25))
  (pad 49 smd roundrect (at 5.5 7.6625) (size 0.3 1.475) (layers F.Cu F.Mask F.Paste) (roundrect_rratio 0.25))
  (pad 50 smd roundrect (at 6 7.6625) (size 0.3 1.475) (layers F.Cu F.Mask F.Paste) (roundrect_rratio 0.25))
  (pad 51 smd roundrect (at 7.6625 6) (size 1.475 0.3) (layers F.Cu F.Mask F.Paste) (roundrect_rratio 0.25))
  (pad 52 smd roundrect (at 7.6625 5.5) (size 1.475 0.3) (layers F.Cu F.Mask F.Paste) (roundrect_rratio 0.25))
  (pad 53 smd roundrect (at 7.6625 5) (size 1.475 0.3) (layers F.Cu F.Mask F.Paste) (roundrect_rratio 0.25))
  (pad 54 smd roundrect (at 7.6625 4.5) (size 1.475 0.3) (layers F.Cu F.Mask F.Paste) (roundrect_rratio 0.25))
  (pad 55 smd roundrect (at 7.6625 4) (size 1.475 0.3) (layers F.Cu F.Mask F.Paste) (roundrect_rratio 0.25))
  (pad 56 smd roundrect (at 7.6625 3.5) (size 1.475 0.3) (layers F.Cu F.Mask F.Paste) (roundrect_rratio 0.25))
  (pad 57 smd roundrect (at 7.6625 3) (size 1.475 0.3) (layers F.Cu F.Mask F.Paste) (roundrect_rratio 0.25))
  (pad 58 smd roundrect (at 7.6625 2.5) (size 1.475 0.3) (layers F.Cu F.Mask F.Paste) (roundrect_rratio 0.25))
  (pad 59 smd roundrect (at 7.6625 2) (size 1.475 0.3) (layers F.Cu F.Mask F.Paste) (roundrect_rratio 0.25))
  (pad 60 smd roundrect (at 7.6625 1.5) (size 1.475 0.3) (layers F.Cu F.Mask F.Paste) (roundrect_rratio 0.25))
  (pad 61 smd roundrect (at 7.6625 1) (size 1.475 0.3) (layers F.Cu F.Mask F.Paste) (roundrect_rratio 0.25))
  (pad 62 smd roundrect (at 7.6625 0.5) (size 1.475 0.3) (layers F.Cu F.Mask F.Paste) (roundrect_rratio 0.25))
  (pad 63 smd roundrect (at 7.6625 0) (size 1.475 0.3) (layers F.Cu F.Mask F.Paste) (roundrect_rratio 0.25))
  (pad 64 smd roundrect (at 7.6625 -0.5) (size 1.475 0.3) (layers F.Cu F.Mask F.Paste) (roundrect_rratio 0.25))
  (pad 65 smd roundrect (at 7.6625 -1) (size 1.475 0.3) (layers F.Cu F.Mask F.Paste) (roundrect_rratio 0.25))
  (pad 66 smd roundrect (at 7.6625 -1.5) (size 1.475 0.3) (layers F.Cu F.Mask F.Paste) (roundrect_rratio 0.25))
  (pad 67 smd roundrect (at 7.6625 -2) (size 1.475 0.3) (layers F.Cu F.Mask F.Paste) (roundrect_rratio 0.25))
  (pad 68 smd roundrect (at 7.6625 -2.5) (size 1.475 0.3) (layers F.Cu F.Mask F.Paste) (roundrect_rratio 0.25))
  (pad 69 smd roundrect (at 7.6625 -3) (size 1.475 0.3) (layers F.Cu F.Mask F.Paste) (roundrect_rratio 0.25))
  (pad 70 smd roundrect (at 7.6625 -3.5) (size 1.475 0.3) (layers F.Cu F.Mask F.Paste) (roundrect_rratio 0.25))
  (pad 71 smd roundrect (at 7.6625 -4) (size 1.475 0.3) (layers F.Cu F.Mask F.Paste) (roundrect_rratio 0.25))
  (pad 72 smd roundrect (at 7.6625 -4.5) (size 1.475 0.3) (layers F.Cu F.Mask F.Paste) (roundrect_rratio 0.25))
  (pad 73 smd roundrect (at 7.6625 -5) (size 1.475 0.3) (layers F.Cu F.Mask F.Paste) (roundrect_rratio 0.25))
  (pad 74 smd roundrect (at 7.6625 -5.5) (size 1.475 0.3) (layers F.Cu F.Mask F.Paste) (roundrect_rratio 0.25))
  (pad 75 smd roundrect (at 7.6625 -6) (size 1.475 0.3) (layers F.Cu F.Mask F.Paste) (roundrect_rratio 0.25))
  (pad 76 smd roundrect (at 6 -7.6625) (size 0.3 1.475) (layers F.Cu F.Mask F.Paste) (roundrect_rratio 0.25))
  (pad 77 smd roundrect (at 5.5 -7.6625) (size 0.3 1.475) (layers F.Cu F.Mask F.Paste) (roundrect_rratio 0.25))
  (pad 78 smd roundrect (at 5 -7.6625) (size 0.3 1.475) (layers F.Cu F.Mask F.Paste) (roundrect_rratio 0.25))
  (pad 79 smd roundrect (at 4.5 -7.6625) (size 0.3 1.475) (layers F.Cu F.Mask F.Paste) (roundrect_rratio 0.25))
  (pad 80 smd roundrect (at 4 -7.6625) (size 0.3 1.475) (layers F.Cu F.Mask F.Paste) (roundrect_rratio 0.25))
  (pad 81 smd roundrect (at 3.5 -7.6625) (size 0.3 1.475) (layers F.Cu F.Mask F.Paste) (roundrect_rratio 0.25))
  (pad 82 smd roundrect (at 3 -7.6625) (size 0.3 1.475) (layers F.Cu F.Mask F.Paste) (roundrect_rratio 0.25))
  (pad 83 smd roundrect (at 2.5 -7.6625) (size 0.3 1.475) (layers F.Cu F.Mask F.Paste) (roundrect_rratio 0.25))
  (pad 84 smd roundrect (at 2 -7.6625) (size 0.3 1.475) (layers F.Cu F.Mask F.Paste) (roundrect_rratio 0.25))
  (pad 85 smd roundrect (at 1.5 -7.6625) (size 0.3 1.475) (layers F.Cu F.Mask F.Paste) (roundrect_rratio 0.25))
  (pad 86 smd roundrect (at 1 -7.6625) (size 0.3 1.475) (layers F.Cu F.Mask F.Paste) (roundrect_rratio 0.25))
  (pad 87 smd roundrect (at 0.5 -7.6625) (size 0.3 1.475) (layers F.Cu F.Mask F.Paste) (roundrect_rratio 0.25))
  (pad 88 smd roundrect (at 0 -7.6625) (size 0.3 1.475) (layers F.Cu F.Mask F.Paste) (roundrect_rratio 0.25))
  (pad 89 smd roundrect (at -0.5 -7.6625) (size 0.3 1.475) (layers F.Cu F.Mask F.Paste) (roundrect_rratio 0.25))
  (pad 90 smd roundrect (at -1 -7.6625) (size 0.3 1.475) (layers F.Cu F.Mask F.Paste) (roundrect_rratio 0.25))
  (pad 91 smd roundrect (at -1.5 -7.6625) (size 0.3 1.475) (layers F.Cu F.Mask F.Paste) (roundrect_rratio 0.25))
  (pad 92 smd roundrect (at -2 -7.6625) (size 0.3 1.475) (layers F.Cu F.Mask F.Paste) (roundrect_rratio 0.25))
  (pad 93 smd roundrect (at -2.5 -7.6625) (size 0.3 1.475) (layers F.Cu F.Mask F.Paste) (roundrect_rratio 0.25))
  (pad 94 smd roundrect (at -3 -7.6625) (size 0.3 1.475) (layers F.Cu F.Mask F.Paste) (roundrect_rratio 0.25))
  (pad 95 smd roundrect (at -3.5 -7.6625) (size 0.3 1.475) (layers F.Cu F.Mask F.Paste) (roundrect_rratio 0.25))
  (pad 96 smd roundrect (at -4 -7.6625) (size 0.3 1.475) (layers F.Cu F.Mask F.Paste) (roundrect_rratio 0.25))
  (pad 97 smd roundrect (at -4.5 -7.6625) (size 0.3 1.475) (layers F.Cu F.Mask F.Paste) (roundrect_rratio 0.25))
  (pad 98 smd roundrect (at -5 -7.6625) (size 0.3 1.475) (layers F.Cu F.Mask F.Paste) (roundrect_rratio 0.25))
  (pad 99 smd roundrect (at -5.5 -7.6625) (size 0.3 1.475) (layers F.Cu F.Mask F.Paste) (roundrect_rratio 0.25))
  (pad 100 smd roundrect (at -6 -7.6625) (size 0.3 1.475) (layers F.Cu F.Mask F.Paste) (roundrect_rratio 0.25))
  (pad 101 smd rect (at 0 0) (size 5 5) (property pad_prop_heatsink) (layers F.Cu F.Mask)
    (zone_connect 2))
  (pad 101 thru_hole circle (at -2.25 -2.25) (size 0.5 0.5) (drill 0.2) (property pad_prop_heatsink) (layers *.Cu))
  (pad 101 thru_hole circle (at -1.125 -2.25) (size 0.5 0.5) (drill 0.2) (property pad_prop_heatsink) (layers *.Cu))
  (pad 101 thru_hole circle (at 0 -2.25) (size 0.5 0.5) (drill 0.2) (property pad_prop_heatsink) (layers *.Cu))
  (pad 101 thru_hole circle (at 1.125 -2.25) (size 0.5 0.5) (drill 0.2) (property pad_prop_heatsink) (layers *.Cu))
  (pad 101 thru_hole circle (at 2.25 -2.25) (size 0.5 0.5) (drill 0.2) (property pad_prop_heatsink) (layers *.Cu))
  (pad 101 thru_hole circle (at -2.25 -1.125) (size 0.5 0.5) (drill 0.2) (property pad_prop_heatsink) (layers *.Cu))
  (pad 101 thru_hole circle (at -1.125 -1.125) (size 0.5 0.5) (drill 0.2) (property pad_prop_heatsink) (layers *.Cu))
  (pad 101 thru_hole circle (at 0 -1.125) (size 0.5 0.5) (drill 0.2) (property pad_prop_heatsink) (layers *.Cu))
  (pad 101 thru_hole circle (at 1.125 -1.125) (size 0.5 0.5) (drill 0.2) (property pad_prop_heatsink) (layers *.Cu))
  (pad 101 thru_hole circle (at 2.25 -1.125) (size 0.5 0.5) (drill 0.2) (property pad_prop_heatsink) (layers *.Cu))
  (pad 101 thru_hole circle (at -2.25 0) (size 0.5 0.5) (drill 0.2) (property pad_prop_heatsink) (layers *.Cu))
  (pad 101 thru_hole circle (at -1.125 0) (size 0.5 0.5) (drill 0.2) (property pad_prop_heatsink) (layers *.Cu))
  (pad 101 thru_hole circle (at 0 0) (size 0.5 0.5) (drill 0.2) (property pad_prop_heatsink) (layers *.Cu))
  (pad 101 thru_hole circle (at 1.125 0) (size 0.5 0.5) (drill 0.2) (property pad_prop_heatsink) (layers *.Cu))
  (pad 101 thru_hole circle (at 2.25 0) (size 0.5 0.5) (drill 0.2) (property pad_prop_heatsink) (layers *.Cu))
  (pad 101 thru_hole circle (at -2.25 1.125) (size 0.5 0.5) (drill 0.2) (property pad_prop_heatsink) (layers *.Cu))
  (pad 101 thru_hole circle (at -1.125 1.125) (size 0.5 0.5) (drill 0.2) (property pad_prop_heatsink) (layers *.Cu))
  (pad 101 thru_hole circle (at 0 1.125) (size 0.5 0.5) (drill 0.2) (property pad_prop_heatsink) (layers *.Cu))
  (pad 101 thru_hole circle (at 1.125 1.125) (size 0.5 0.5) (drill 0.2) (property pad_prop_heatsink) (layers *.Cu))
  (pad 101 thru_hole circle (at 2.25 1.125) (size 0.5 0.5) (drill 0.2) (property pad_prop_heatsink) (layers *.Cu))
  (pad 101 thru_hole circle (at -2.25 2.25) (size 0.5 0.5) (drill 0.2) (property pad_prop_heatsink) (layers *.Cu))
  (pad 101 thru_hole circle (at -1.125 2.25) (size 0.5 0.5) (drill 0.2) (property pad_prop_heatsink) (layers *.Cu))
  (pad 101 thru_hole circle (at 0 2.25) (size 0.5 0.5) (drill 0.2) (property pad_prop_heatsink) (layers *.Cu))
  (pad 101 thru_hole circle (at 1.125 2.25) (size 0.5 0.5) (drill 0.2) (property pad_prop_heatsink) (layers *.Cu))
  (pad 101 thru_hole circle (at 2.25 2.25) (size 0.5 0.5) (drill 0.2) (property pad_prop_heatsink) (layers *.Cu))
  (pad 101 smd rect (at 0 0) (size 5 5) (property pad_prop_heatsink) (layers B.Cu)
    (zone_connect 2))
  (pad "" smd custom (at -1.6875 -1.6875) (size 0.890668 0.890668) (layers F.Paste)
    (options (clearance outline) (anchor circle))
    (primitives
      (gr_poly (pts
         (xy -0.386777 -0.289756) (xy -0.289756 -0.386777) (xy 0.289756 -0.386777) (xy 0.386777 -0.289756)
         (xy 0.386777 0.289756) (xy 0.289756 0.386777) (xy -0.289756 0.386777) (xy -0.386777 0.289756)) (width 0.234229))
    ))
  (pad "" smd custom (at -1.6875 -0.5625) (size 0.890668 0.890668) (layers F.Paste)
    (options (clearance outline) (anchor circle))
    (primitives
      (gr_poly (pts
         (xy -0.386777 -0.289756) (xy -0.289756 -0.386777) (xy 0.289756 -0.386777) (xy 0.386777 -0.289756)
         (xy 0.386777 0.289756) (xy 0.289756 0.386777) (xy -0.289756 0.386777) (xy -0.386777 0.289756)) (width 0.234229))
    ))
  (pad "" smd custom (at -1.6875 0.5625) (size 0.890668 0.890668) (layers F.Paste)
    (options (clearance outline) (anchor circle))
    (primitives
      (gr_poly (pts
         (xy -0.386777 -0.289756) (xy -0.289756 -0.386777) (xy 0.289756 -0.386777) (xy 0.386777 -0.289756)
         (xy 0.386777 0.289756) (xy 0.289756 0.386777) (xy -0.289756 0.386777) (xy -0.386777 0.289756)) (width 0.234229))
    ))
  (pad "" smd custom (at -1.6875 1.6875) (size 0.890668 0.890668) (layers F.Paste)
    (options (clearance outline) (anchor circle))
    (primitives
      (gr_poly (pts
         (xy -0.386777 -0.289756) (xy -0.289756 -0.386777) (xy 0.289756 -0.386777) (xy 0.386777 -0.289756)
         (xy 0.386777 0.289756) (xy 0.289756 0.386777) (xy -0.289756 0.386777) (xy -0.386777 0.289756)) (width 0.234229))
    ))
  (pad "" smd custom (at -0.5625 -1.6875) (size 0.890668 0.890668) (layers F.Paste)
    (options (clearance outline) (anchor circle))
    (primitives
      (gr_poly (pts
         (xy -0.386777 -0.289756) (xy -0.289756 -0.386777) (xy 0.289756 -0.386777) (xy 0.386777 -0.289756)
         (xy 0.386777 0.289756) (xy 0.289756 0.386777) (xy -0.289756 0.386777) (xy -0.386777 0.289756)) (width 0.234229))
    ))
  (pad "" smd custom (at -0.5625 -0.5625) (size 0.890668 0.890668) (layers F.Paste)
    (options (clearance outline) (anchor circle))
    (primitives
      (gr_poly (pts
         (xy -0.386777 -0.289756) (xy -0.289756 -0.386777) (xy 0.289756 -0.386777) (xy 0.386777 -0.289756)
         (xy 0.386777 0.289756) (xy 0.289756 0.386777) (xy -0.289756 0.386777) (xy -0.386777 0.289756)) (width 0.234229))
    ))
  (pad "" smd custom (at -0.5625 0.5625) (size 0.890668 0.890668) (layers F.Paste)
    (options (clearance outline) (anchor circle))
    (primitives
      (gr_poly (pts
         (xy -0.386777 -0.289756) (xy -0.289756 -0.386777) (xy 0.289756 -0.386777) (xy 0.386777 -0.289756)
         (xy 0.386777 0.289756) (xy 0.289756 0.386777) (xy -0.289756 0.386777) (xy -0.386777 0.289756)) (width 0.234229))
    ))
  (pad "" smd custom (at -0.5625 1.6875) (size 0.890668 0.890668) (layers F.Paste)
    (options (clearance outline) (anchor circle))
    (primitives
      (gr_poly (pts
         (xy -0.386777 -0.289756) (xy -0.289756 -0.386777) (xy 0.289756 -0.386777) (xy 0.386777 -0.289756)
         (xy 0.386777 0.289756) (xy 0.289756 0.386777) (xy -0.289756 0.386777) (xy -0.386777 0.289756)) (width 0.234229))
    ))
  (pad "" smd custom (at 0.5625 -1.6875) (size 0.890668 0.890668) (layers F.Paste)
    (options (clearance outline) (anchor circle))
    (primitives
      (gr_poly (pts
         (xy -0.386777 -0.289756) (xy -0.289756 -0.386777) (xy 0.289756 -0.386777) (xy 0.386777 -0.289756)
         (xy 0.386777 0.289756) (xy 0.289756 0.386777) (xy -0.289756 0.386777) (xy -0.386777 0.289756)) (width 0.234229))
    ))
  (pad "" smd custom (at 0.5625 -0.5625) (size 0.890668 0.890668) (layers F.Paste)
    (options (clearance outline) (anchor circle))
    (primitives
      (gr_poly (pts
         (xy -0.386777 -0.289756) (xy -0.289756 -0.386777) (xy 0.289756 -0.386777) (xy 0.386777 -0.289756)
         (xy 0.386777 0.289756) (xy 0.289756 0.386777) (xy -0.289756 0.386777) (xy -0.386777 0.289756)) (width 0.234229))
    ))
  (pad "" smd custom (at 0.5625 0.5625) (size 0.890668 0.890668) (layers F.Paste)
    (options (clearance outline) (anchor circle))
    (primitives
      (gr_poly (pts
         (xy -0.386777 -0.289756) (xy -0.289756 -0.386777) (xy 0.289756 -0.386777) (xy 0.386777 -0.289756)
         (xy 0.386777 0.289756) (xy 0.289756 0.386777) (xy -0.289756 0.386777) (xy -0.386777 0.289756)) (width 0.234229))
    ))
  (pad "" smd custom (at 0.5625 1.6875) (size 0.890668 0.890668) (layers F.Paste)
    (options (clearance outline) (anchor circle))
    (primitives
      (gr_poly (pts
         (xy -0.386777 -0.289756) (xy -0.289756 -0.386777) (xy 0.289756 -0.386777) (xy 0.386777 -0.289756)
         (xy 0.386777 0.289756) (xy 0.289756 0.386777) (xy -0.289756 0.386777) (xy -0.386777 0.289756)) (width 0.234229))
    ))
  (pad "" smd custom (at 1.6875 -1.6875) (size 0.890668 0.890668) (layers F.Paste)
    (options (clearance outline) (anchor circle))
    (primitives
      (gr_poly (pts
         (xy -0.386777 -0.289756) (xy -0.289756 -0.386777) (xy 0.289756 -0.386777) (xy 0.386777 -0.289756)
         (xy 0.386777 0.289756) (xy 0.289756 0.386777) (xy -0.289756 0.386777) (xy -0.386777 0.289756)) (width 0.234229))
    ))
  (pad "" smd custom (at 1.6875 -0.5625) (size 0.890668 0.890668) (layers F.Paste)
    (options (clearance outline) (anchor circle))
    (primitives
      (gr_poly (pts
         (xy -0.386777 -0.289756) (xy -0.289756 -0.386777) (xy 0.289756 -0.386777) (xy 0.386777 -0.289756)
         (xy 0.386777 0.289756) (xy 0.289756 0.386777) (xy -0.289756 0.386777) (xy -0.386777 0.289756)) (width 0.234229))
    ))
  (pad "" smd custom (at 1.6875 0.5625) (size 0.890668 0.890668) (layers F.Paste)
    (options (clearance outline) (anchor circle))
    (primitives
      (gr_poly (pts
         (xy -0.386777 -0.289756) (xy -0.289756 -0.386777) (xy 0.289756 -0.386777) (xy 0.386777 -0.289756)
         (xy 0.386777 0.289756) (xy 0.289756 0.386777) (xy -0.289756 0.386777) (xy -0.386777 0.289756)) (width 0.234229))
    ))
  (pad "" smd custom (at 1.6875 1.6875) (size 0.890668 0.890668) (layers F.Paste)
    (options (clearance outline) (anchor circle))
    (primitives
      (gr_poly (pts
         (xy -0.386777 -0.289756) (xy -0.289756 -0.386777) (xy 0.289756 -0.386777) (xy 0.386777 -0.289756)
         (xy 0.386777 0.289756) (xy 0.289756 0.386777) (xy -0.289756 0.386777) (xy -0.386777 0.289756)) (width 0.234229))
    ))
  (fp_poly (pts (xy -7.7 -6.41) (xy -7.934 -6.7376) (xy -7.466 -6.7376) (xy -7.7 -6.41))
    (stroke (width 0.12) (type solid)) (fill solid) (layer F.SilkS))
  (fp_text user ${REFERENCE} (at 0 0) (layer F.Fab)
    (effects (font (size 1 1) (thickness 0.15)))
  )
  (model ${KICAD7_3DMODEL_DIR}/Package_QFP.3dshapes/TQFP-100-1EP_14x14mm_P0.5mm_EP5x5mm.wrl
    (offset (xyz 0 0 0))
    (scale (xyz 1 1 1))
    (rotate (xyz 0 0 0))
  )
)
