(footprint VQFP-128_14x14mm_P0.4mm (version 20221018) (generator kicad-footprint-generator)
  (layer F.Cu)
  (descr "VQFP, 128 Pin (http://www.microsemi.com/index.php?option=com_docman&task=doc_download&gid=131095), generated with kicad-footprint-generator ipc_gullwing_generator.py")
  (tags "VQFP QFP")
  (attr smd)
  (fp_text reference REF** (at 0 -9.35) (layer F.SilkS)
    (effects (font (size 1 1) (thickness 0.15)))
  )
  (fp_text value VQFP-128_14x14mm_P0.4mm (at 0 9.35) (layer F.Fab)
    (effects (font (size 1 1) (thickness 0.15)))
  )
  (fp_line (start 0 -8.65) (end -6.58 -8.65)
    (stroke (width 0.05) (type solid)) (layer F.CrtYd))
  (fp_line (start -6.58 -8.65) (end -6.58 -7.25)
    (stroke (width 0.05) (type solid)) (layer F.CrtYd))
  (fp_line (start -6.58 -7.25) (end -7.25 -7.25)
    (stroke (width 0.05) (type solid)) (layer F.CrtYd))
  (fp_line (start -7.25 -7.25) (end -7.25 -6.58)
    (stroke (width 0.05) (type solid)) (layer F.CrtYd))
  (fp_line (start -7.25 -6.58) (end -8.65 -6.58)
    (stroke (width 0.05) (type solid)) (layer F.CrtYd))
  (fp_line (start -8.65 -6.58) (end -8.65 0)
    (stroke (width 0.05) (type solid)) (layer F.CrtYd))
  (fp_line (start 0 -8.65) (end 6.58 -8.65)
    (stroke (width 0.05) (type solid)) (layer F.CrtYd))
  (fp_line (start 6.58 -8.65) (end 6.58 -7.25)
    (stroke (width 0.05) (type solid)) (layer F.CrtYd))
  (fp_line (start 6.58 -7.25) (end 7.25 -7.25)
    (stroke (width 0.05) (type solid)) (layer F.CrtYd))
  (fp_line (start 7.25 -7.25) (end 7.25 -6.58)
    (stroke (width 0.05) (type solid)) (layer F.CrtYd))
  (fp_line (start 7.25 -6.58) (end 8.65 -6.58)
    (stroke (width 0.05) (type solid)) (layer F.CrtYd))
  (fp_line (start 8.65 -6.58) (end 8.65 0)
    (stroke (width 0.05) (type solid)) (layer F.CrtYd))
  (fp_line (start 0 8.65) (end -6.58 8.65)
    (stroke (width 0.05) (type solid)) (layer F.CrtYd))
  (fp_line (start -6.58 8.65) (end -6.58 7.25)
    (stroke (width 0.05) (type solid)) (layer F.CrtYd))
  (fp_line (start -6.58 7.25) (end -7.25 7.25)
    (stroke (width 0.05) (type solid)) (layer F.CrtYd))
  (fp_line (start -7.25 7.25) (end -7.25 6.58)
    (stroke (width 0.05) (type solid)) (layer F.CrtYd))
  (fp_line (start -7.25 6.58) (end -8.65 6.58)
    (stroke (width 0.05) (type solid)) (layer F.CrtYd))
  (fp_line (start -8.65 6.58) (end -8.65 0)
    (stroke (width 0.05) (type solid)) (layer F.CrtYd))
  (fp_line (start 0 8.65) (end 6.58 8.65)
    (stroke (width 0.05) (type solid)) (layer F.CrtYd))
  (fp_line (start 6.58 8.65) (end 6.58 7.25)
    (stroke (width 0.05) (type solid)) (layer F.CrtYd))
  (fp_line (start 6.58 7.25) (end 7.25 7.25)
    (stroke (width 0.05) (type solid)) (layer F.CrtYd))
  (fp_line (start 7.25 7.25) (end 7.25 6.58)
    (stroke (width 0.05) (type solid)) (layer F.CrtYd))
  (fp_line (start 7.25 6.58) (end 8.65 6.58)
    (stroke (width 0.05) (type solid)) (layer F.CrtYd))
  (fp_line (start 8.65 6.58) (end 8.65 0)
    (stroke (width 0.05) (type solid)) (layer F.CrtYd))
  (fp_line (start 6.585 7.11) (end 7.11 7.11)
    (stroke (width 0.12) (type solid)) (layer F.SilkS))
  (fp_line (start 7.11 7.11) (end 7.11 6.585)
    (stroke (width 0.12) (type solid)) (layer F.SilkS))
  (fp_line (start -6.585 7.11) (end -7.11 7.11)
    (stroke (width 0.12) (type solid)) (layer F.SilkS))
  (fp_line (start -7.11 7.11) (end -7.11 6.585)
    (stroke (width 0.12) (type solid)) (layer F.SilkS))
  (fp_line (start 6.585 -7.11) (end 7.11 -7.11)
    (stroke (width 0.12) (type solid)) (layer F.SilkS))
  (fp_line (start 7.11 -7.11) (end 7.11 -6.585)
    (stroke (width 0.12) (type solid)) (layer F.SilkS))
  (fp_line (start -6.585 -7.11) (end -7.11 -7.11)
    (stroke (width 0.12) (type solid)) (layer F.SilkS))
  (fp_line (start -7.11 -7.11) (end -7.11 -6.585)
    (stroke (width 0.12) (type solid)) (layer F.SilkS))
  (fp_line (start -6 -7) (end 7 -7)
    (stroke (width 0.1) (type solid)) (layer F.Fab))
  (fp_line (start 7 -7) (end 7 7)
    (stroke (width 0.1) (type solid)) (layer F.Fab))
  (fp_line (start 7 7) (end -7 7)
    (stroke (width 0.1) (type solid)) (layer F.Fab))
  (fp_line (start -7 7) (end -7 -6)
    (stroke (width 0.1) (type solid)) (layer F.Fab))
  (fp_line (start -7 -6) (end -6 -7)
    (stroke (width 0.1) (type solid)) (layer F.Fab))
  (pad 1 smd roundrect (at -7.6625 -6.2) (size 1.475 0.25) (layers F.Cu F.Mask F.Paste) (roundrect_rratio 0.25))
  (pad 2 smd roundrect (at -7.6625 -5.8) (size 1.475 0.25) (layers F.Cu F.Mask F.Paste) (roundrect_rratio 0.25))
  (pad 3 smd roundrect (at -7.6625 -5.4) (size 1.475 0.25) (layers F.Cu F.Mask F.Paste) (roundrect_rratio 0.25))
  (pad 4 smd roundrect (at -7.6625 -5) (size 1.475 0.25) (layers F.Cu F.Mask F.Paste) (roundrect_rratio 0.25))
  (pad 5 smd roundrect (at -7.6625 -4.6) (size 1.475 0.25) (layers F.Cu F.Mask F.Paste) (roundrect_rratio 0.25))
  (pad 6 smd roundrect (at -7.6625 -4.2) (size 1.475 0.25) (layers F.Cu F.Mask F.Paste) (roundrect_rratio 0.25))
  (pad 7 smd roundrect (at -7.6625 -3.8) (size 1.475 0.25) (layers F.Cu F.Mask F.Paste) (roundrect_rratio 0.25))
  (pad 8 smd roundrect (at -7.6625 -3.4) (size 1.475 0.25) (layers F.Cu F.Mask F.Paste) (roundrect_rratio 0.25))
  (pad 9 smd roundrect (at -7.6625 -3) (size 1.475 0.25) (layers F.Cu F.Mask F.Paste) (roundrect_rratio 0.25))
  (pad 10 smd roundrect (at -7.6625 -2.6) (size 1.475 0.25) (layers F.Cu F.Mask F.Paste) (roundrect_rratio 0.25))
  (pad 11 smd roundrect (at -7.6625 -2.2) (size 1.475 0.25) (layers F.Cu F.Mask F.Paste) (roundrect_rratio 0.25))
  (pad 12 smd roundrect (at -7.6625 -1.8) (size 1.475 0.25) (layers F.Cu F.Mask F.Paste) (roundrect_rratio 0.25))
  (pad 13 smd roundrect (at -7.6625 -1.4) (size 1.475 0.25) (layers F.Cu F.Mask F.Paste) (roundrect_rratio 0.25))
  (pad 14 smd roundrect (at -7.6625 -1) (size 1.475 0.25) (layers F.Cu F.Mask F.Paste) (roundrect_rratio 0.25))
  (pad 15 smd roundrect (at -7.6625 -0.6) (size 1.475 0.25) (layers F.Cu F.Mask F.Paste) (roundrect_rratio 0.25))
  (pad 16 smd roundrect (at -7.6625 -0.2) (size 1.475 0.25) (layers F.Cu F.Mask F.Paste) (roundrect_rratio 0.25))
  (pad 17 smd roundrect (at -7.6625 0.2) (size 1.475 0.25) (layers F.Cu F.Mask F.Paste) (roundrect_rratio 0.25))
  (pad 18 smd roundrect (at -7.6625 0.6) (size 1.475 0.25) (layers F.Cu F.Mask F.Paste) (roundrect_rratio 0.25))
  (pad 19 smd roundrect (at -7.6625 1) (size 1.475 0.25) (layers F.Cu F.Mask F.Paste) (roundrect_rratio 0.25))
  (pad 20 smd roundrect (at -7.6625 1.4) (size 1.475 0.25) (layers F.Cu F.Mask F.Paste) (roundrect_rratio 0.25))
  (pad 21 smd roundrect (at -7.6625 1.8) (size 1.475 0.25) (layers F.Cu F.Mask F.Paste) (roundrect_rratio 0.25))
  (pad 22 smd roundrect (at -7.6625 2.2) (size 1.475 0.25) (layers F.Cu F.Mask F.Paste) (roundrect_rratio 0.25))
  (pad 23 smd roundrect (at -7.6625 2.6) (size 1.475 0.25) (layers F.Cu F.Mask F.Paste) (roundrect_rratio 0.25))
  (pad 24 smd roundrect (at -7.6625 3) (size 1.475 0.25) (layers F.Cu F.Mask F.Paste) (roundrect_rratio 0.25))
  (pad 25 smd roundrect (at -7.6625 3.4) (size 1.475 0.25) (layers F.Cu F.Mask F.Paste) (roundrect_rratio 0.25))
  (pad 26 smd roundrect (at -7.6625 3.8) (size 1.475 0.25) (layers F.Cu F.Mask F.Paste) (roundrect_rratio 0.25))
  (pad 27 smd roundrect (at -7.6625 4.2) (size 1.475 0.25) (layers F.Cu F.Mask F.Paste) (roundrect_rratio 0.25))
  (pad 28 smd roundrect (at -7.6625 4.6) (size 1.475 0.25) (layers F.Cu F.Mask F.Paste) (roundrect_rratio 0.25))
  (pad 29 smd roundrect (at -7.6625 5) (size 1.475 0.25) (layers F.Cu F.Mask F.Paste) (roundrect_rratio 0.25))
  (pad 30 smd roundrect (at -7.6625 5.4) (size 1.475 0.25) (layers F.Cu F.Mask F.Paste) (roundrect_rratio 0.25))
  (pad 31 smd roundrect (at -7.6625 5.8) (size 1.475 0.25) (layers F.Cu F.Mask F.Paste) (roundrect_rratio 0.25))
  (pad 32 smd roundrect (at -7.6625 6.2) (size 1.475 0.25) (layers F.Cu F.Mask F.Paste) (roundrect_rratio 0.25))
  (pad 33 smd roundrect (at -6.2 7.6625) (size 0.25 1.475) (layers F.Cu F.Mask F.Paste) (roundrect_rratio 0.25))
  (pad 34 smd roundrect (at -5.8 7.6625) (size 0.25 1.475) (layers F.Cu F.Mask F.Paste) (roundrect_rratio 0.25))
  (pad 35 smd roundrect (at -5.4 7.6625) (size 0.25 1.475) (layers F.Cu F.Mask F.Paste) (roundrect_rratio 0.25))
  (pad 36 smd roundrect (at -5 7.6625) (size 0.25 1.475) (layers F.Cu F.Mask F.Paste) (roundrect_rratio 0.25))
  (pad 37 smd roundrect (at -4.6 7.6625) (size 0.25 1.475) (layers F.Cu F.Mask F.Paste) (roundrect_rratio 0.25))
  (pad 38 smd roundrect (at -4.2 7.6625) (size 0.25 1.475) (layers F.Cu F.Mask F.Paste) (roundrect_rratio 0.25))
  (pad 39 smd roundrect (at -3.8 7.6625) (size 0.25 1.475) (layers F.Cu F.Mask F.Paste) (roundrect_rratio 0.25))
  (pad 40 smd roundrect (at -3.4 7.6625) (size 0.25 1.475) (layers F.Cu F.Mask F.Paste) (roundrect_rratio 0.25))
  (pad 41 smd roundrect (at -3 7.6625) (size 0.25 1.475) (layers F.Cu F.Mask F.Paste) (roundrect_rratio 0.25))
  (pad 42 smd roundrect (at -2.6 7.6625) (size 0.25 1.475) (layers F.Cu F.Mask F.Paste) (roundrect_rratio 0.25))
  (pad 43 smd roundrect (at -2.2 7.6625) (size 0.25 1.475) (layers F.Cu F.Mask F.Paste) (roundrect_rratio 0.25))
  (pad 44 smd roundrect (at -1.8 7.6625) (size 0.25 1.475) (layers F.Cu F.Mask F.Paste) (roundrect_rratio 0.25))
  (pad 45 smd roundrect (at -1.4 7.6625) (size 0.25 1.475) (layers F.Cu F.Mask F.Paste) (roundrect_rratio 0.25))
  (pad 46 smd roundrect (at -1 7.6625) (size 0.25 1.475) (layers F.Cu F.Mask F.Paste) (roundrect_rratio 0.25))
  (pad 47 smd roundrect (at -0.6 7.6625) (size 0.25 1.475) (layers F.Cu F.Mask F.Paste) (roundrect_rratio 0.25))
  (pad 48 smd roundrect (at -0.2 7.6625) (size 0.25 1.475) (layers F.Cu F.Mask F.Paste) (roundrect_rratio 0.25))
  (pad 49 smd roundrect (at 0.2 7.6625) (size 0.25 1.475) (layers F.Cu F.Mask F.Paste) (roundrect_rratio 0.25))
  (pad 50 smd roundrect (at 0.6 7.6625) (size 0.25 1.475) (layers F.Cu F.Mask F.Paste) (roundrect_rratio 0.25))
  (pad 51 smd roundrect (at 1 7.6625) (size 0.25 1.475) (layers F.Cu F.Mask F.Paste) (roundrect_rratio 0.25))
  (pad 52 smd roundrect (at 1.4 7.6625) (size 0.25 1.475) (layers F.Cu F.Mask F.Paste) (roundrect_rratio 0.25))
  (pad 53 smd roundrect (at 1.8 7.6625) (size 0.25 1.475) (layers F.Cu F.Mask F.Paste) (roundrect_rratio 0.25))
  (pad 54 smd roundrect (at 2.2 7.6625) (size 0.25 1.475) (layers F.Cu F.Mask F.Paste) (roundrect_rratio 0.25))
  (pad 55 smd roundrect (at 2.6 7.6625) (size 0.25 1.475) (layers F.Cu F.Mask F.Paste) (roundrect_rratio 0.25))
  (pad 56 smd roundrect (at 3 7.6625) (size 0.25 1.475) (layers F.Cu F.Mask F.Paste) (roundrect_rratio 0.25))
  (pad 57 smd roundrect (at 3.4 7.6625) (size 0.25 1.475) (layers F.Cu F.Mask F.Paste) (roundrect_rratio 0.25))
  (pad 58 smd roundrect (at 3.8 7.6625) (size 0.25 1.475) (layers F.Cu F.Mask F.Paste) (roundrect_rratio 0.25))
  (pad 59 smd roundrect (at 4.2 7.6625) (size 0.25 1.475) (layers F.Cu F.Mask F.Paste) (roundrect_rratio 0.25))
  (pad 60 smd roundrect (at 4.6 7.6625) (size 0.25 1.475) (layers F.Cu F.Mask F.Paste) (roundrect_rratio 0.25))
  (pad 61 smd roundrect (at 5 7.6625) (size 0.25 1.475) (layers F.Cu F.Mask F.Paste) (roundrect_rratio 0.25))
  (pad 62 smd roundrect (at 5.4 7.6625) (size 0.25 1.475) (layers F.Cu F.Mask F.Paste) (roundrect_rratio 0.25))
  (pad 63 smd roundrect (at 5.8 7.6625) (size 0.25 1.475) (layers F.Cu F.Mask F.Paste) (roundrect_rratio 0.25))
  (pad 64 smd roundrect (at 6.2 7.6625) (size 0.25 1.475) (layers F.Cu F.Mask F.Paste) (roundrect_rratio 0.25))
  (pad 65 smd roundrect (at 7.6625 6.2) (size 1.475 0.25) (layers F.Cu F.Mask F.Paste) (roundrect_rratio 0.25))
  (pad 66 smd roundrect (at 7.6625 5.8) (size 1.475 0.25) (layers F.Cu F.Mask F.Paste) (roundrect_rratio 0.25))
  (pad 67 smd roundrect (at 7.6625 5.4) (size 1.475 0.25) (layers F.Cu F.Mask F.Paste) (roundrect_rratio 0.25))
  (pad 68 smd roundrect (at 7.6625 5) (size 1.475 0.25) (layers F.Cu F.Mask F.Paste) (roundrect_rratio 0.25))
  (pad 69 smd roundrect (at 7.6625 4.6) (size 1.475 0.25) (layers F.Cu F.Mask F.Paste) (roundrect_rratio 0.25))
  (pad 70 smd roundrect (at 7.6625 4.2) (size 1.475 0.25) (layers F.Cu F.Mask F.Paste) (roundrect_rratio 0.25))
  (pad 71 smd roundrect (at 7.6625 3.8) (size 1.475 0.25) (layers F.Cu F.Mask F.Paste) (roundrect_rratio 0.25))
  (pad 72 smd roundrect (at 7.6625 3.4) (size 1.475 0.25) (layers F.Cu F.Mask F.Paste) (roundrect_rratio 0.25))
  (pad 73 smd roundrect (at 7.6625 3) (size 1.475 0.25) (layers F.Cu F.Mask F.Paste) (roundrect_rratio 0.25))
  (pad 74 smd roundrect (at 7.6625 2.6) (size 1.475 0.25) (layers F.Cu F.Mask F.Paste) (roundrect_rratio 0.25))
  (pad 75 smd roundrect (at 7.6625 2.2) (size 1.475 0.25) (layers F.Cu F.Mask F.Paste) (roundrect_rratio 0.25))
  (pad 76 smd roundrect (at 7.6625 1.8) (size 1.475 0.25) (layers F.Cu F.Mask F.Paste) (roundrect_rratio 0.25))
  (pad 77 smd roundrect (at 7.6625 1.4) (size 1.475 0.25) (layers F.Cu F.Mask F.Paste) (roundrect_rratio 0.25))
  (pad 78 smd roundrect (at 7.6625 1) (size 1.475 0.25) (layers F.Cu F.Mask F.Paste) (roundrect_rratio 0.25))
  (pad 79 smd roundrect (at 7.6625 0.6) (size 1.475 0.25) (layers F.Cu F.Mask F.Paste) (roundrect_rratio 0.25))
  (pad 80 smd roundrect (at 7.6625 0.2) (size 1.475 0.25) (layers F.Cu F.Mask F.Paste) (roundrect_rratio 0.25))
  (pad 81 smd roundrect (at 7.6625 -0.2) (size 1.475 0.25) (layers F.Cu F.Mask F.Paste) (roundrect_rratio 0.25))
  (pad 82 smd roundrect (at 7.6625 -0.6) (size 1.475 0.25) (layers F.Cu F.Mask F.Paste) (roundrect_rratio 0.25))
  (pad 83 smd roundrect (at 7.6625 -1) (size 1.475 0.25) (layers F.Cu F.Mask F.Paste) (roundrect_rratio 0.25))
  (pad 84 smd roundrect (at 7.6625 -1.4) (size 1.475 0.25) (layers F.Cu F.Mask F.Paste) (roundrect_rratio 0.25))
  (pad 85 smd roundrect (at 7.6625 -1.8) (size 1.475 0.25) (layers F.Cu F.Mask F.Paste) (roundrect_rratio 0.25))
  (pad 86 smd roundrect (at 7.6625 -2.2) (size 1.475 0.25) (layers F.Cu F.Mask F.Paste) (roundrect_rratio 0.25))
  (pad 87 smd roundrect (at 7.6625 -2.6) (size 1.475 0.25) (layers F.Cu F.Mask F.Paste) (roundrect_rratio 0.25))
  (pad 88 smd roundrect (at 7.6625 -3) (size 1.475 0.25) (layers F.Cu F.Mask F.Paste) (roundrect_rratio 0.25))
  (pad 89 smd roundrect (at 7.6625 -3.4) (size 1.475 0.25) (layers F.Cu F.Mask F.Paste) (roundrect_rratio 0.25))
  (pad 90 smd roundrect (at 7.6625 -3.8) (size 1.475 0.25) (layers F.Cu F.Mask F.Paste) (roundrect_rratio 0.25))
  (pad 91 smd roundrect (at 7.6625 -4.2) (size 1.475 0.25) (layers F.Cu F.Mask F.Paste) (roundrect_rratio 0.25))
  (pad 92 smd roundrect (at 7.6625 -4.6) (size 1.475 0.25) (layers F.Cu F.Mask F.Paste) (roundrect_rratio 0.25))
  (pad 93 smd roundrect (at 7.6625 -5) (size 1.475 0.25) (layers F.Cu F.Mask F.Paste) (roundrect_rratio 0.25))
  (pad 94 smd roundrect (at 7.6625 -5.4) (size 1.475 0.25) (layers F.Cu F.Mask F.Paste) (roundrect_rratio 0.25))
  (pad 95 smd roundrect (at 7.6625 -5.8) (size 1.475 0.25) (layers F.Cu F.Mask F.Paste) (roundrect_rratio 0.25))
  (pad 96 smd roundrect (at 7.6625 -6.2) (size 1.475 0.25) (layers F.Cu F.Mask F.Paste) (roundrect_rratio 0.25))
  (pad 97 smd roundrect (at 6.2 -7.6625) (size 0.25 1.475) (layers F.Cu F.Mask F.Paste) (roundrect_rratio 0.25))
  (pad 98 smd roundrect (at 5.8 -7.6625) (size 0.25 1.475) (layers F.Cu F.Mask F.Paste) (roundrect_rratio 0.25))
  (pad 99 smd roundrect (at 5.4 -7.6625) (size 0.25 1.475) (layers F.Cu F.Mask F.Paste) (roundrect_rratio 0.25))
  (pad 100 smd roundrect (at 5 -7.6625) (size 0.25 1.475) (layers F.Cu F.Mask F.Paste) (roundrect_rratio 0.25))
  (pad 101 smd roundrect (at 4.6 -7.6625) (size 0.25 1.475) (layers F.Cu F.Mask F.Paste) (roundrect_rratio 0.25))
  (pad 102 smd roundrect (at 4.2 -7.6625) (size 0.25 1.475) (layers F.Cu F.Mask F.Paste) (roundrect_rratio 0.25))
  (pad 103 smd roundrect (at 3.8 -7.6625) (size 0.25 1.475) (layers F.Cu F.Mask F.Paste) (roundrect_rratio 0.25))
  (pad 104 smd roundrect (at 3.4 -7.6625) (size 0.25 1.475) (layers F.Cu F.Mask F.Paste) (roundrect_rratio 0.25))
  (pad 105 smd roundrect (at 3 -7.6625) (size 0.25 1.475) (layers F.Cu F.Mask F.Paste) (roundrect_rratio 0.25))
  (pad 106 smd roundrect (at 2.6 -7.6625) (size 0.25 1.475) (layers F.Cu F.Mask F.Paste) (roundrect_rratio 0.25))
  (pad 107 smd roundrect (at 2.2 -7.6625) (size 0.25 1.475) (layers F.Cu F.Mask F.Paste) (roundrect_rratio 0.25))
  (pad 108 smd roundrect (at 1.8 -7.6625) (size 0.25 1.475) (layers F.Cu F.Mask F.Paste) (roundrect_rratio 0.25))
  (pad 109 smd roundrect (at 1.4 -7.6625) (size 0.25 1.475) (layers F.Cu F.Mask F.Paste) (roundrect_rratio 0.25))
  (pad 110 smd roundrect (at 1 -7.6625) (size 0.25 1.475) (layers F.Cu F.Mask F.Paste) (roundrect_rratio 0.25))
  (pad 111 smd roundrect (at 0.6 -7.6625) (size 0.25 1.475) (layers F.Cu F.Mask F.Paste) (roundrect_rratio 0.25))
  (pad 112 smd roundrect (at 0.2 -7.6625) (size 0.25 1.475) (layers F.Cu F.Mask F.Paste) (roundrect_rratio 0.25))
  (pad 113 smd roundrect (at -0.2 -7.6625) (size 0.25 1.475) (layers F.Cu F.Mask F.Paste) (roundrect_rratio 0.25))
  (pad 114 smd roundrect (at -0.6 -7.6625) (size 0.25 1.475) (layers F.Cu F.Mask F.Paste) (roundrect_rratio 0.25))
  (pad 115 smd roundrect (at -1 -7.6625) (size 0.25 1.475) (layers F.Cu F.Mask F.Paste) (roundrect_rratio 0.25))
  (pad 116 smd roundrect (at -1.4 -7.6625) (size 0.25 1.475) (layers F.Cu F.Mask F.Paste) (roundrect_rratio 0.25))
  (pad 117 smd roundrect (at -1.8 -7.6625) (size 0.25 1.475) (layers F.Cu F.Mask F.Paste) (roundrect_rratio 0.25))
  (pad 118 smd roundrect (at -2.2 -7.6625) (size 0.25 1.475) (layers F.Cu F.Mask F.Paste) (roundrect_rratio 0.25))
  (pad 119 smd roundrect (at -2.6 -7.6625) (size 0.25 1.475) (layers F.Cu F.Mask F.Paste) (roundrect_rratio 0.25))
  (pad 120 smd roundrect (at -3 -7.6625) (size 0.25 1.475) (layers F.Cu F.Mask F.Paste) (roundrect_rratio 0.25))
  (pad 121 smd roundrect (at -3.4 -7.6625) (size 0.25 1.475) (layers F.Cu F.Mask F.Paste) (roundrect_rratio 0.25))
  (pad 122 smd roundrect (at -3.8 -7.6625) (size 0.25 1.475) (layers F.Cu F.Mask F.Paste) (roundrect_rratio 0.25))
  (pad 123 smd roundrect (at -4.2 -7.6625) (size 0.25 1.475) (layers F.Cu F.Mask F.Paste) (roundrect_rratio 0.25))
  (pad 124 smd roundrect (at -4.6 -7.6625) (size 0.25 1.475) (layers F.Cu F.Mask F.Paste) (roundrect_rratio 0.25))
  (pad 125 smd roundrect (at -5 -7.6625) (size 0.25 1.475) (layers F.Cu F.Mask F.Paste) (roundrect_rratio 0.25))
  (pad 126 smd roundrect (at -5.4 -7.6625) (size 0.25 1.475) (layers F.Cu F.Mask F.Paste) (roundrect_rratio 0.25))
  (pad 127 smd roundrect (at -5.8 -7.6625) (size 0.25 1.475) (layers F.Cu F.Mask F.Paste) (roundrect_rratio 0.25))
  (pad 128 smd roundrect (at -6.2 -7.6625) (size 0.25 1.475) (layers F.Cu F.Mask F.Paste) (roundrect_rratio 0.25))
  (fp_poly (pts (xy -7.7 -6.585) (xy -7.934 -6.9126) (xy -7.466 -6.9126) (xy -7.7 -6.585))
    (stroke (width 0.12) (type solid)) (fill solid) (layer F.SilkS))
  (fp_text user ${REFERENCE} (at 0 0) (layer F.Fab)
    (effects (font (size 1 1) (thickness 0.15)))
  )
  (model ${KICAD7_3DMODEL_DIR}/Package_QFP.3dshapes/VQFP-128_14x14mm_P0.4mm.wrl
    (offset (xyz 0 0 0))
    (scale (xyz 1 1 1))
    (rotate (xyz 0 0 0))
  )
)
