(footprint "ST_HLGA-10_2.5x2.5mm_P0.6mm_LayoutBorder3x2y" (version 20221018) (generator pcbnew)
  (layer "F.Cu")
  (descr "ST  HLGA, 10 Pin (https://www.st.com/resource/en/datasheet/lps25hb.pdf#page=46), generated with kicad-footprint-generator ipc_noLead_generator.py")
  (tags "ST HLGA NoLead")
  (attr smd)
  (fp_text reference "REF**" (at 0 -2.2) (layer "F.SilkS")
      (effects (font (size 1 1) (thickness 0.15)))
    (tstamp 623acf76-566a-434b-9032-59fdb3df0be2)
  )
  (fp_text value "ST_HLGA-10_2.5x2.5mm_P0.6mm_LayoutBorder3x2y" (at 0 2.2) (layer "F.Fab")
      (effects (font (size 1 1) (thickness 0.15)))
    (tstamp 169a880f-ac7f-41af-a9ef-6203875f91f6)
  )
  (fp_text user "${REFERENCE}" (at 0 0) (layer "F.Fab")
      (effects (font (size 0.62 0.62) (thickness 0.09)))
    (tstamp 3bf8872b-4b33-493c-9d21-837738329eaa)
  )
  (fp_line (start -1.36 -0.76) (end -1.36 -1.12)
    (stroke (width 0.12) (type solid)) (layer "F.SilkS") (tstamp a59d4f6d-9323-4dd9-ab89-f4c743bfe42d))
  (fp_line (start -1.36 1.36) (end -1.36 0.76)
    (stroke (width 0.12) (type solid)) (layer "F.SilkS") (tstamp 37d43944-4ea5-4ae6-adc7-17693cecd4a4))
  (fp_line (start -1.06 1.36) (end -1.36 1.36)
    (stroke (width 0.12) (type solid)) (layer "F.SilkS") (tstamp c76c67ef-be25-4e46-995d-2820f389a9d6))
  (fp_line (start 1.06 -1.36) (end 1.36 -1.36)
    (stroke (width 0.12) (type solid)) (layer "F.SilkS") (tstamp 281f205c-a401-441a-bd8a-1164968cc118))
  (fp_line (start 1.06 1.36) (end 1.36 1.36)
    (stroke (width 0.12) (type solid)) (layer "F.SilkS") (tstamp 272a2a13-5583-44b4-99ca-7a15c5262023))
  (fp_line (start 1.36 -1.36) (end 1.36 -0.76)
    (stroke (width 0.12) (type solid)) (layer "F.SilkS") (tstamp 5b2c4e2a-acb6-48e1-8534-6979952fca47))
  (fp_line (start 1.36 1.36) (end 1.36 0.76)
    (stroke (width 0.12) (type solid)) (layer "F.SilkS") (tstamp d00828ad-48a3-4f6c-87cc-5fceabc14e93))
  (fp_poly
    (pts
      (xy -1.36 -1.36)
      (xy -1.54 -1.612)
      (xy -1.18 -1.612)
      (xy -1.36 -1.36)
    )

    (stroke (width 0.12) (type solid)) (fill solid) (layer "F.SilkS") (tstamp d86515f0-0fa7-4535-a7c6-d1e6b341dbba))
  (fp_line (start -1.5 -1.5) (end -1.5 1.5)
    (stroke (width 0.05) (type solid)) (layer "F.CrtYd") (tstamp 256350c2-0cb9-439b-9d96-9539027d537a))
  (fp_line (start -1.5 1.5) (end 1.5 1.5)
    (stroke (width 0.05) (type solid)) (layer "F.CrtYd") (tstamp 5da1d778-8b66-4832-9537-e1548fc2076f))
  (fp_line (start 1.5 -1.5) (end -1.5 -1.5)
    (stroke (width 0.05) (type solid)) (layer "F.CrtYd") (tstamp f32672ef-fa42-41cb-9ea7-c249ee375447))
  (fp_line (start 1.5 1.5) (end 1.5 -1.5)
    (stroke (width 0.05) (type solid)) (layer "F.CrtYd") (tstamp 286a9c39-dda5-4bc7-9b95-dd1732f724b7))
  (fp_line (start -1.25 -0.625) (end -0.625 -1.25)
    (stroke (width 0.1) (type solid)) (layer "F.Fab") (tstamp 0d0aaa8e-68ca-46df-b4d3-b3757126f45e))
  (fp_line (start -1.25 1.25) (end -1.25 -0.625)
    (stroke (width 0.1) (type solid)) (layer "F.Fab") (tstamp 65c5d709-395a-4c27-9195-65832af3edb9))
  (fp_line (start -0.625 -1.25) (end 1.25 -1.25)
    (stroke (width 0.1) (type solid)) (layer "F.Fab") (tstamp dd499996-cc06-40c3-9cf2-dddfcabc310b))
  (fp_line (start 1.25 -1.25) (end 1.25 1.25)
    (stroke (width 0.1) (type solid)) (layer "F.Fab") (tstamp 5655a8e8-6055-473b-8cf0-4b7432cf8887))
  (fp_line (start 1.25 1.25) (end -1.25 1.25)
    (stroke (width 0.1) (type solid)) (layer "F.Fab") (tstamp 53d41ca8-8f9f-48a8-89d5-7ca4d8181882))
  (pad "1" smd roundrect (at -0.925 -0.3) (size 0.55 0.4) (layers "F.Cu" "F.Paste" "F.Mask") (roundrect_rratio 0.25) (tstamp d916200d-8a4d-4868-b455-8efeb4f262c8))
  (pad "2" smd roundrect (at -0.925 0.3) (size 0.55 0.4) (layers "F.Cu" "F.Paste" "F.Mask") (roundrect_rratio 0.25) (tstamp 01bcb90f-be18-4741-87a3-ae2de1d4e53d))
  (pad "3" smd roundrect (at -0.6 0.925) (size 0.4 0.55) (layers "F.Cu" "F.Paste" "F.Mask") (roundrect_rratio 0.25) (tstamp e9ff04cf-14d1-43a4-9623-e56b5e673eb4))
  (pad "4" smd roundrect (at 0 0.925) (size 0.4 0.55) (layers "F.Cu" "F.Paste" "F.Mask") (roundrect_rratio 0.25) (tstamp 7ecc7f43-7240-4f06-be78-0d1541e4464d))
  (pad "5" smd roundrect (at 0.6 0.925) (size 0.4 0.55) (layers "F.Cu" "F.Paste" "F.Mask") (roundrect_rratio 0.25) (tstamp 5fd9fae2-a85a-4d5c-8159-c281ac196cf4))
  (pad "6" smd roundrect (at 0.925 0.3) (size 0.55 0.4) (layers "F.Cu" "F.Paste" "F.Mask") (roundrect_rratio 0.25) (tstamp d722ac7c-97f5-42ec-a079-3e17e24708cc))
  (pad "7" smd roundrect (at 0.925 -0.3) (size 0.55 0.4) (layers "F.Cu" "F.Paste" "F.Mask") (roundrect_rratio 0.25) (tstamp 97cb9650-a6d9-4f66-a595-99773e3dcebd))
  (pad "8" smd roundrect (at 0.6 -0.925) (size 0.4 0.55) (layers "F.Cu" "F.Paste" "F.Mask") (roundrect_rratio 0.25) (tstamp 59060d4c-d5a6-425a-b326-7105722b4d25))
  (pad "9" smd roundrect (at 0 -0.925) (size 0.4 0.55) (layers "F.Cu" "F.Paste" "F.Mask") (roundrect_rratio 0.25) (tstamp e30cccaa-9601-4883-b014-9caa46d5aa59))
  (pad "10" smd roundrect (at -0.6 -0.925) (size 0.4 0.55) (layers "F.Cu" "F.Paste" "F.Mask") (roundrect_rratio 0.25) (tstamp 8dfb7828-33b1-46d0-b4f8-01bff3e213c4))
  (model "${KICAD7_3DMODEL_DIR}/Package_LGA.3dshapes/ST_HLGA-10_2.5x2.5mm_P0.6mm_LayoutBorder3x2y.wrl"
    (offset (xyz 0 0 0))
    (scale (xyz 1 1 1))
    (rotate (xyz 0 0 0))
  )
)
