(footprint "VLGA-4_2x2.5mm_P1.65mm" (version 20221018) (generator pcbnew)
  (layer "F.Cu")
  (descr "VLGA, 4 Pin (https://ww1.microchip.com/downloads/en/DeviceDoc/DSC60XX-Ultra-Small-Ultra-Low-Power-MEMS-Oscillator-DS20005625C.pdf#page=15), generated with kicad-footprint-generator ipc_noLead_generator.py")
  (tags "VLGA NoLead")
  (attr smd)
  (fp_text reference "REF**" (at 0 -2.2) (layer "F.SilkS")
      (effects (font (size 1 1) (thickness 0.15)))
    (tstamp cb309a3b-7ae2-4605-a91c-430e2256990d)
  )
  (fp_text value "VLGA-4_2x2.5mm_P1.65mm" (at 0 2.2) (layer "F.Fab")
      (effects (font (size 1 1) (thickness 0.15)))
    (tstamp b6438628-48ae-4ac9-b5d5-7526b73876a7)
  )
  (fp_text user "${REFERENCE}" (at 0 0 90) (layer "F.Fab")
      (effects (font (size 0.62 0.62) (thickness 0.09)))
    (tstamp f1802575-7238-4fb3-ac69-0c8de4cc98da)
  )
  (fp_line (start -1 1.46) (end 1 1.46)
    (stroke (width 0.12) (type solid)) (layer "F.SilkS") (tstamp 2e6fef01-dd99-47f5-91d0-6c58b57c6885))
  (fp_line (start -0.89 -1.46) (end 1 -1.46)
    (stroke (width 0.12) (type solid)) (layer "F.SilkS") (tstamp c39dd646-65dd-4dcb-96ab-e19b6d23eb58))
  (fp_poly
    (pts
      (xy -1.13 -1.33)
      (xy -1.49 -1.33)
      (xy -1.13 -1.69)
      (xy -1.13 -1.33)
    )

    (stroke (width 0.12) (type solid)) (fill solid) (layer "F.SilkS") (tstamp f2bd559c-5162-4606-b74c-ea30dc6cbb93))
  (fp_line (start -1.25 -1.5) (end -1.25 1.5)
    (stroke (width 0.05) (type solid)) (layer "F.CrtYd") (tstamp cb326d6f-59d4-44f0-942f-a9240beec7a0))
  (fp_line (start -1.25 1.5) (end 1.25 1.5)
    (stroke (width 0.05) (type solid)) (layer "F.CrtYd") (tstamp 80deee1e-8b37-4e34-a15e-0d7875edaa1e))
  (fp_line (start 1.25 -1.5) (end -1.25 -1.5)
    (stroke (width 0.05) (type solid)) (layer "F.CrtYd") (tstamp 8cbe4b9b-720a-4b3d-9b37-990ee34b19b1))
  (fp_line (start 1.25 1.5) (end 1.25 -1.5)
    (stroke (width 0.05) (type solid)) (layer "F.CrtYd") (tstamp 54615cfd-e3fb-4395-805a-50b76a3729a3))
  (fp_line (start -1 -0.75) (end -0.5 -1.25)
    (stroke (width 0.1) (type solid)) (layer "F.Fab") (tstamp bab80d8a-8d75-4b30-ac32-a1228ab0c461))
  (fp_line (start -1 1.25) (end -1 -0.75)
    (stroke (width 0.1) (type solid)) (layer "F.Fab") (tstamp 25e981aa-1187-492f-8f8e-85822cc0ad55))
  (fp_line (start -0.5 -1.25) (end 1 -1.25)
    (stroke (width 0.1) (type solid)) (layer "F.Fab") (tstamp 84609b35-e33d-4474-8981-675ed309598e))
  (fp_line (start 1 -1.25) (end 1 1.25)
    (stroke (width 0.1) (type solid)) (layer "F.Fab") (tstamp b28aa22d-3cdb-468d-a877-4942328d12d1))
  (fp_line (start 1 1.25) (end -1 1.25)
    (stroke (width 0.1) (type solid)) (layer "F.Fab") (tstamp 409a1fbd-f084-4d42-a7a5-ecb5f91c6302))
  (pad "1" smd roundrect (at -0.625 -0.825) (size 0.75 0.75) (layers "F.Cu" "F.Paste" "F.Mask") (roundrect_rratio 0.25) (tstamp 600a8b88-8726-45b1-b64e-5d233d3ae384))
  (pad "2" smd roundrect (at -0.625 0.825) (size 0.75 0.75) (layers "F.Cu" "F.Paste" "F.Mask") (roundrect_rratio 0.25) (tstamp 2bda64d6-725b-40f2-bef0-2574a7cd50ac))
  (pad "3" smd roundrect (at 0.625 0.825) (size 0.75 0.75) (layers "F.Cu" "F.Paste" "F.Mask") (roundrect_rratio 0.25) (tstamp 2617d0bc-5fc3-4e8c-8c40-1f1112d0178b))
  (pad "4" smd roundrect (at 0.625 -0.825) (size 0.75 0.75) (layers "F.Cu" "F.Paste" "F.Mask") (roundrect_rratio 0.25) (tstamp 51864f59-ece6-4ac2-aace-a7e63588ed68))
  (model "${KICAD7_3DMODEL_DIR}/Package_LGA.3dshapes/VLGA-4_2x2.5mm_P1.65mm.wrl"
    (offset (xyz 0 0 0))
    (scale (xyz 1 1 1))
    (rotate (xyz 0 0 0))
  )
)
