(footprint Nexperia_HUSON-12_USON-12-1EP_1.35x2.5mm_P0.4mm_EP0.4x2mm (version 20221018) (generator kicad-footprint-generator)
  (layer F.Cu)
  (descr "Nexperia HUSON-12 USON, 12 Pin (https://assets.nexperia.com/documents/data-sheet/IP4251_52_53_54-TTL.pdf), generated with kicad-footprint-generator ipc_noLead_generator.py")
  (tags "Nexperia USON NoLead")
  (attr smd)
  (fp_text reference REF** (at 0 -2.2) (layer F.SilkS)
    (effects (font (size 1 1) (thickness 0.15)))
  )
  (fp_text value Nexperia_HUSON-12_USON-12-1EP_1.35x2.5mm_P0.4mm_EP0.4x2mm (at 0 2.2) (layer F.Fab)
    (effects (font (size 1 1) (thickness 0.15)))
  )
  (fp_line (start -0.675 -1.36) (end 0.675 -1.36)
    (stroke (width 0.12) (type solid)) (layer F.SilkS))
  (fp_line (start -0.675 1.36) (end 0.675 1.36)
    (stroke (width 0.12) (type solid)) (layer F.SilkS))
  (fp_line (start -0.3375 -1.25) (end 0.675 -1.25)
    (stroke (width 0.1) (type solid)) (layer F.Fab))
  (fp_line (start 0.675 -1.25) (end 0.675 1.25)
    (stroke (width 0.1) (type solid)) (layer F.Fab))
  (fp_line (start 0.675 1.25) (end -0.675 1.25)
    (stroke (width 0.1) (type solid)) (layer F.Fab))
  (fp_line (start -0.675 1.25) (end -0.675 -0.9125)
    (stroke (width 0.1) (type solid)) (layer F.Fab))
  (fp_line (start -0.675 -0.9125) (end -0.3375 -1.25)
    (stroke (width 0.1) (type solid)) (layer F.Fab))
  (fp_line (start -1.3 -1.5) (end -1.3 1.5)
    (stroke (width 0.05) (type solid)) (layer F.CrtYd))
  (fp_line (start -1.3 1.5) (end 1.3 1.5)
    (stroke (width 0.05) (type solid)) (layer F.CrtYd))
  (fp_line (start 1.3 1.5) (end 1.3 -1.5)
    (stroke (width 0.05) (type solid)) (layer F.CrtYd))
  (fp_line (start 1.3 -1.5) (end -1.3 -1.5)
    (stroke (width 0.05) (type solid)) (layer F.CrtYd))
  (pad 1 smd roundrect (at -0.725 -1) (size 0.65 0.2) (layers F.Cu F.Mask F.Paste) (roundrect_rratio 0.25))
  (pad 2 smd roundrect (at -0.725 -0.6) (size 0.65 0.2) (layers F.Cu F.Mask F.Paste) (roundrect_rratio 0.25))
  (pad 3 smd roundrect (at -0.725 -0.2) (size 0.65 0.2) (layers F.Cu F.Mask F.Paste) (roundrect_rratio 0.25))
  (pad 4 smd roundrect (at -0.725 0.2) (size 0.65 0.2) (layers F.Cu F.Mask F.Paste) (roundrect_rratio 0.25))
  (pad 5 smd roundrect (at -0.725 0.6) (size 0.65 0.2) (layers F.Cu F.Mask F.Paste) (roundrect_rratio 0.25))
  (pad 6 smd roundrect (at -0.725 1) (size 0.65 0.2) (layers F.Cu F.Mask F.Paste) (roundrect_rratio 0.25))
  (pad 7 smd roundrect (at 0.725 1) (size 0.65 0.2) (layers F.Cu F.Mask F.Paste) (roundrect_rratio 0.25))
  (pad 8 smd roundrect (at 0.725 0.6) (size 0.65 0.2) (layers F.Cu F.Mask F.Paste) (roundrect_rratio 0.25))
  (pad 9 smd roundrect (at 0.725 0.2) (size 0.65 0.2) (layers F.Cu F.Mask F.Paste) (roundrect_rratio 0.25))
  (pad 10 smd roundrect (at 0.725 -0.2) (size 0.65 0.2) (layers F.Cu F.Mask F.Paste) (roundrect_rratio 0.25))
  (pad 11 smd roundrect (at 0.725 -0.6) (size 0.65 0.2) (layers F.Cu F.Mask F.Paste) (roundrect_rratio 0.25))
  (pad 12 smd roundrect (at 0.725 -1) (size 0.65 0.2) (layers F.Cu F.Mask F.Paste) (roundrect_rratio 0.25))
  (pad 13 smd rect (at 0 0) (size 0.4 2) (property pad_prop_heatsink) (layers F.Cu F.Mask)
    (zone_connect 2))
  (pad "" smd roundrect (at 0 0) (size 0.32 1.61) (layers F.Paste) (roundrect_rratio 0.25))
  (fp_poly (pts (xy -1.22 -1.27) (xy -1.58 -1.27) (xy -1.22 -1.63) (xy -1.22 -1.27))
    (stroke (width 0.12) (type solid)) (fill solid) (layer F.SilkS))
  (fp_text user ${REFERENCE} (at 0 0 90) (layer F.Fab)
    (effects (font (size 0.62 0.62) (thickness 0.09)))
  )
  (model ${KICAD7_3DMODEL_DIR}/Package_SON.3dshapes/Nexperia_HUSON-12_USON-12-1EP_1.35x2.5mm_P0.4mm_EP0.4x2mm.wrl
    (offset (xyz 0 0 0))
    (scale (xyz 1 1 1))
    (rotate (xyz 0 0 0))
  )
)
