(footprint DFN-6-1EP_1.2x1.2mm_P0.4mm_EP0.3x0.94mm_PullBack (version 20221018) (generator kicad-footprint-generator)
  (layer F.Cu)
  (descr "DFN, 6 Pin (http://www.onsemi.com/pub/Collateral/NCP133-D.PDF), generated with kicad-footprint-generator ipc_noLead_generator.py")
  (tags "DFN NoLead")
  (attr smd)
  (fp_text reference REF** (at 0 -1.55) (layer F.SilkS)
    (effects (font (size 1 1) (thickness 0.15)))
  )
  (fp_text value DFN-6-1EP_1.2x1.2mm_P0.4mm_EP0.3x0.94mm_PullBack (at 0 1.55) (layer F.Fab)
    (effects (font (size 1 1) (thickness 0.15)))
  )
  (fp_line (start -0.53 -0.81) (end 0.6 -0.81)
    (stroke (width 0.12) (type solid)) (layer F.SilkS))
  (fp_line (start -0.6 0.81) (end 0.6 0.81)
    (stroke (width 0.12) (type solid)) (layer F.SilkS))
  (fp_line (start -0.3 -0.6) (end 0.6 -0.6)
    (stroke (width 0.1) (type solid)) (layer F.Fab))
  (fp_line (start 0.6 -0.6) (end 0.6 0.6)
    (stroke (width 0.1) (type solid)) (layer F.Fab))
  (fp_line (start 0.6 0.6) (end -0.6 0.6)
    (stroke (width 0.1) (type solid)) (layer F.Fab))
  (fp_line (start -0.6 0.6) (end -0.6 -0.3)
    (stroke (width 0.1) (type solid)) (layer F.Fab))
  (fp_line (start -0.6 -0.3) (end -0.3 -0.6)
    (stroke (width 0.1) (type solid)) (layer F.Fab))
  (fp_line (start -0.86 -0.85) (end -0.86 0.85)
    (stroke (width 0.05) (type solid)) (layer F.CrtYd))
  (fp_line (start -0.86 0.85) (end 0.86 0.85)
    (stroke (width 0.05) (type solid)) (layer F.CrtYd))
  (fp_line (start 0.86 0.85) (end 0.86 -0.85)
    (stroke (width 0.05) (type solid)) (layer F.CrtYd))
  (fp_line (start 0.86 -0.85) (end -0.86 -0.85)
    (stroke (width 0.05) (type solid)) (layer F.CrtYd))
  (pad 1 smd roundrect (at -0.475 -0.4) (size 0.25 0.3) (layers F.Cu F.Mask F.Paste) (roundrect_rratio 0.25))
  (pad 2 smd roundrect (at -0.475 0) (size 0.25 0.3) (layers F.Cu F.Mask F.Paste) (roundrect_rratio 0.25))
  (pad 3 smd roundrect (at -0.475 0.4) (size 0.25 0.3) (layers F.Cu F.Mask F.Paste) (roundrect_rratio 0.25))
  (pad 4 smd roundrect (at 0.475 0.4) (size 0.25 0.3) (layers F.Cu F.Mask F.Paste) (roundrect_rratio 0.25))
  (pad 5 smd roundrect (at 0.475 0) (size 0.25 0.3) (layers F.Cu F.Mask F.Paste) (roundrect_rratio 0.25))
  (pad 6 smd roundrect (at 0.475 -0.4) (size 0.25 0.3) (layers F.Cu F.Mask F.Paste) (roundrect_rratio 0.25))
  (pad 7 smd rect (at 0 0) (size 0.3 0.94) (property pad_prop_heatsink) (layers F.Cu F.Mask)
    (zone_connect 2))
  (pad "" smd roundrect (at 0 -0.235) (size 0.24 0.38) (layers F.Paste) (roundrect_rratio 0.25))
  (pad "" smd roundrect (at 0 0.235) (size 0.24 0.38) (layers F.Paste) (roundrect_rratio 0.25))
  (fp_poly (pts (xy -0.77 -0.72) (xy -1.13 -0.72) (xy -0.77 -1.08) (xy -0.77 -0.72))
    (stroke (width 0.12) (type solid)) (fill solid) (layer F.SilkS))
  (fp_text user ${REFERENCE} (at 0 0) (layer F.Fab)
    (effects (font (size 0.3 0.3) (thickness 0.04)))
  )
  (model ${KICAD7_3DMODEL_DIR}/Package_DFN_QFN.3dshapes/DFN-6-1EP_1.2x1.2mm_P0.4mm_EP0.3x0.94mm_PullBack.wrl
    (offset (xyz 0 0 0))
    (scale (xyz 1 1 1))
    (rotate (xyz 0 0 0))
  )
)
