(footprint DFN-14_1.35x3.5mm_P0.5mm (version 20221018) (generator kicad-footprint-generator)
  (layer F.Cu)
  (descr "DFN, 14 Pin (https://m.littelfuse.com/~/media/electronics/datasheets/tvs_diode_arrays/littelfuse_tvs_diode_array_sp3012_datasheet.pdf.pdf#page=7), generated with kicad-footprint-generator ipc_noLead_generator.py")
  (tags "DFN NoLead")
  (attr smd)
  (fp_text reference REF** (at 0 -2.7) (layer F.SilkS)
    (effects (font (size 1 1) (thickness 0.15)))
  )
  (fp_text value DFN-14_1.35x3.5mm_P0.5mm (at 0 2.7) (layer F.Fab)
    (effects (font (size 1 1) (thickness 0.15)))
  )
  (fp_line (start -0.675 -1.86) (end 0.675 -1.86)
    (stroke (width 0.12) (type solid)) (layer F.SilkS))
  (fp_line (start -0.675 1.86) (end 0.675 1.86)
    (stroke (width 0.12) (type solid)) (layer F.SilkS))
  (fp_line (start -0.3375 -1.75) (end 0.675 -1.75)
    (stroke (width 0.1) (type solid)) (layer F.Fab))
  (fp_line (start 0.675 -1.75) (end 0.675 1.75)
    (stroke (width 0.1) (type solid)) (layer F.Fab))
  (fp_line (start 0.675 1.75) (end -0.675 1.75)
    (stroke (width 0.1) (type solid)) (layer F.Fab))
  (fp_line (start -0.675 1.75) (end -0.675 -1.4125)
    (stroke (width 0.1) (type solid)) (layer F.Fab))
  (fp_line (start -0.675 -1.4125) (end -0.3375 -1.75)
    (stroke (width 0.1) (type solid)) (layer F.Fab))
  (fp_line (start -1.3 -2) (end -1.3 2)
    (stroke (width 0.05) (type solid)) (layer F.CrtYd))
  (fp_line (start -1.3 2) (end 1.3 2)
    (stroke (width 0.05) (type solid)) (layer F.CrtYd))
  (fp_line (start 1.3 2) (end 1.3 -2)
    (stroke (width 0.05) (type solid)) (layer F.CrtYd))
  (fp_line (start 1.3 -2) (end -1.3 -2)
    (stroke (width 0.05) (type solid)) (layer F.CrtYd))
  (pad 1 smd roundrect (at -0.675 -1.5) (size 0.75 0.2) (layers F.Cu F.Mask F.Paste) (roundrect_rratio 0.25))
  (pad 2 smd roundrect (at -0.675 -1) (size 0.75 0.2) (layers F.Cu F.Mask F.Paste) (roundrect_rratio 0.25))
  (pad 3 smd roundrect (at -0.675 -0.5) (size 0.75 0.2) (layers F.Cu F.Mask F.Paste) (roundrect_rratio 0.25))
  (pad 4 smd roundrect (at -0.675 0) (size 0.75 0.2) (layers F.Cu F.Mask F.Paste) (roundrect_rratio 0.25))
  (pad 5 smd roundrect (at -0.675 0.5) (size 0.75 0.2) (layers F.Cu F.Mask F.Paste) (roundrect_rratio 0.25))
  (pad 6 smd roundrect (at -0.675 1) (size 0.75 0.2) (layers F.Cu F.Mask F.Paste) (roundrect_rratio 0.25))
  (pad 7 smd roundrect (at -0.675 1.5) (size 0.75 0.2) (layers F.Cu F.Mask F.Paste) (roundrect_rratio 0.25))
  (pad 8 smd roundrect (at 0.675 1.5) (size 0.75 0.2) (layers F.Cu F.Mask F.Paste) (roundrect_rratio 0.25))
  (pad 9 smd roundrect (at 0.675 1) (size 0.75 0.2) (layers F.Cu F.Mask F.Paste) (roundrect_rratio 0.25))
  (pad 10 smd roundrect (at 0.675 0.5) (size 0.75 0.2) (layers F.Cu F.Mask F.Paste) (roundrect_rratio 0.25))
  (pad 11 smd roundrect (at 0.675 0) (size 0.75 0.2) (layers F.Cu F.Mask F.Paste) (roundrect_rratio 0.25))
  (pad 12 smd roundrect (at 0.675 -0.5) (size 0.75 0.2) (layers F.Cu F.Mask F.Paste) (roundrect_rratio 0.25))
  (pad 13 smd roundrect (at 0.675 -1) (size 0.75 0.2) (layers F.Cu F.Mask F.Paste) (roundrect_rratio 0.25))
  (pad 14 smd roundrect (at 0.675 -1.5) (size 0.75 0.2) (layers F.Cu F.Mask F.Paste) (roundrect_rratio 0.25))
  (fp_poly (pts (xy -1.22 -1.77) (xy -1.58 -1.77) (xy -1.22 -2.13) (xy -1.22 -1.77))
    (stroke (width 0.12) (type solid)) (fill solid) (layer F.SilkS))
  (fp_text user ${REFERENCE} (at 0 0 90) (layer F.Fab)
    (effects (font (size 0.88 0.88) (thickness 0.13)))
  )
  (model ${KICAD7_3DMODEL_DIR}/Package_DFN_QFN.3dshapes/DFN-14_1.35x3.5mm_P0.5mm.wrl
    (offset (xyz 0 0 0))
    (scale (xyz 1 1 1))
    (rotate (xyz 0 0 0))
  )
)
