(footprint DFN-6-1EP_2x1.8mm_P0.5mm_EP1.2x1.6mm (version 20221018) (generator kicad-footprint-generator)
  (layer F.Cu)
  (descr "DFN, 6 Pin (https://www.diodes.com/assets/Package-Files/U-DFN2018-6.pdf), generated with kicad-footprint-generator ipc_noLead_generator.py")
  (tags "DFN NoLead")
  (attr smd)
  (fp_text reference REF** (at 0 -1.85) (layer F.SilkS)
    (effects (font (size 1 1) (thickness 0.15)))
  )
  (fp_text value DFN-6-1EP_2x1.8mm_P0.5mm_EP1.2x1.6mm (at 0 1.85) (layer F.Fab)
    (effects (font (size 1 1) (thickness 0.15)))
  )
  (fp_line (start -1 -1.01) (end 1 -1.01)
    (stroke (width 0.12) (type solid)) (layer F.SilkS))
  (fp_line (start -1 1.01) (end 1 1.01)
    (stroke (width 0.12) (type solid)) (layer F.SilkS))
  (fp_line (start -0.55 -0.9) (end 1 -0.9)
    (stroke (width 0.1) (type solid)) (layer F.Fab))
  (fp_line (start 1 -0.9) (end 1 0.9)
    (stroke (width 0.1) (type solid)) (layer F.Fab))
  (fp_line (start 1 0.9) (end -1 0.9)
    (stroke (width 0.1) (type solid)) (layer F.Fab))
  (fp_line (start -1 0.9) (end -1 -0.45)
    (stroke (width 0.1) (type solid)) (layer F.Fab))
  (fp_line (start -1 -0.45) (end -0.55 -0.9)
    (stroke (width 0.1) (type solid)) (layer F.Fab))
  (fp_line (start -1.6 -1.15) (end -1.6 1.15)
    (stroke (width 0.05) (type solid)) (layer F.CrtYd))
  (fp_line (start -1.6 1.15) (end 1.6 1.15)
    (stroke (width 0.05) (type solid)) (layer F.CrtYd))
  (fp_line (start 1.6 1.15) (end 1.6 -1.15)
    (stroke (width 0.05) (type solid)) (layer F.CrtYd))
  (fp_line (start 1.6 -1.15) (end -1.6 -1.15)
    (stroke (width 0.05) (type solid)) (layer F.CrtYd))
  (pad 1 smd roundrect (at -1.075 -0.5) (size 0.55 0.2) (layers F.Cu F.Mask F.Paste) (roundrect_rratio 0.25))
  (pad 2 smd roundrect (at -1.075 0) (size 0.55 0.2) (layers F.Cu F.Mask F.Paste) (roundrect_rratio 0.25))
  (pad 3 smd roundrect (at -1.075 0.5) (size 0.55 0.2) (layers F.Cu F.Mask F.Paste) (roundrect_rratio 0.25))
  (pad 4 smd roundrect (at 1.075 0.5) (size 0.55 0.2) (layers F.Cu F.Mask F.Paste) (roundrect_rratio 0.25))
  (pad 5 smd roundrect (at 1.075 0) (size 0.55 0.2) (layers F.Cu F.Mask F.Paste) (roundrect_rratio 0.25))
  (pad 6 smd roundrect (at 1.075 -0.5) (size 0.55 0.2) (layers F.Cu F.Mask F.Paste) (roundrect_rratio 0.25))
  (pad 7 smd rect (at 0 0) (size 1.2 1.6) (property pad_prop_heatsink) (layers F.Cu F.Mask)
    (zone_connect 2))
  (pad "" smd roundrect (at -0.3 -0.4) (size 0.48 0.64) (layers F.Paste) (roundrect_rratio 0.25))
  (pad "" smd roundrect (at -0.3 0.4) (size 0.48 0.64) (layers F.Paste) (roundrect_rratio 0.25))
  (pad "" smd roundrect (at 0.3 -0.4) (size 0.48 0.64) (layers F.Paste) (roundrect_rratio 0.25))
  (pad "" smd roundrect (at 0.3 0.4) (size 0.48 0.64) (layers F.Paste) (roundrect_rratio 0.25))
  (fp_poly (pts (xy -1.52 -0.77) (xy -1.88 -0.77) (xy -1.52 -1.13) (xy -1.52 -0.77))
    (stroke (width 0.12) (type solid)) (fill solid) (layer F.SilkS))
  (fp_text user ${REFERENCE} (at 0 0) (layer F.Fab)
    (effects (font (size 0.5 0.5) (thickness 0.08)))
  )
  (model ${KICAD7_3DMODEL_DIR}/Package_DFN_QFN.3dshapes/DFN-6-1EP_2x1.8mm_P0.5mm_EP1.2x1.6mm.wrl
    (offset (xyz 0 0 0))
    (scale (xyz 1 1 1))
    (rotate (xyz 0 0 0))
  )
)
