(footprint DFN-8-1EP_2x2mm_P0.5mm_EP0.9x1.5mm (version 20221018) (generator kicad-footprint-generator)
  (layer F.Cu)
  (descr "DFN, 8 Pin (http://ww1.microchip.com/downloads/en/DeviceDoc/Atmel-8127-AVR-8-bit-Microcontroller-ATtiny4-ATtiny5-ATtiny9-ATtiny10_Datasheet.pdf), generated with kicad-footprint-generator ipc_noLead_generator.py")
  (tags "DFN NoLead")
  (attr smd)
  (fp_text reference REF** (at 0 -1.95) (layer F.SilkS)
    (effects (font (size 1 1) (thickness 0.15)))
  )
  (fp_text value DFN-8-1EP_2x2mm_P0.5mm_EP0.9x1.5mm (at 0 1.95) (layer F.Fab)
    (effects (font (size 1 1) (thickness 0.15)))
  )
  (fp_line (start -1 -1.135) (end 1 -1.135)
    (stroke (width 0.12) (type solid)) (layer F.SilkS))
  (fp_line (start -1 1.135) (end 1 1.135)
    (stroke (width 0.12) (type solid)) (layer F.SilkS))
  (fp_line (start -0.5 -1) (end 1 -1)
    (stroke (width 0.1) (type solid)) (layer F.Fab))
  (fp_line (start 1 -1) (end 1 1)
    (stroke (width 0.1) (type solid)) (layer F.Fab))
  (fp_line (start 1 1) (end -1 1)
    (stroke (width 0.1) (type solid)) (layer F.Fab))
  (fp_line (start -1 1) (end -1 -0.5)
    (stroke (width 0.1) (type solid)) (layer F.Fab))
  (fp_line (start -1 -0.5) (end -0.5 -1)
    (stroke (width 0.1) (type solid)) (layer F.Fab))
  (fp_line (start -1.6 -1.25) (end -1.6 1.25)
    (stroke (width 0.05) (type solid)) (layer F.CrtYd))
  (fp_line (start -1.6 1.25) (end 1.6 1.25)
    (stroke (width 0.05) (type solid)) (layer F.CrtYd))
  (fp_line (start 1.6 1.25) (end 1.6 -1.25)
    (stroke (width 0.05) (type solid)) (layer F.CrtYd))
  (fp_line (start 1.6 -1.25) (end -1.6 -1.25)
    (stroke (width 0.05) (type solid)) (layer F.CrtYd))
  (pad 1 smd roundrect (at -1 -0.75) (size 0.7 0.25) (layers F.Cu F.Mask F.Paste) (roundrect_rratio 0.25))
  (pad 2 smd roundrect (at -1 -0.25) (size 0.7 0.25) (layers F.Cu F.Mask F.Paste) (roundrect_rratio 0.25))
  (pad 3 smd roundrect (at -1 0.25) (size 0.7 0.25) (layers F.Cu F.Mask F.Paste) (roundrect_rratio 0.25))
  (pad 4 smd roundrect (at -1 0.75) (size 0.7 0.25) (layers F.Cu F.Mask F.Paste) (roundrect_rratio 0.25))
  (pad 5 smd roundrect (at 1 0.75) (size 0.7 0.25) (layers F.Cu F.Mask F.Paste) (roundrect_rratio 0.25))
  (pad 6 smd roundrect (at 1 0.25) (size 0.7 0.25) (layers F.Cu F.Mask F.Paste) (roundrect_rratio 0.25))
  (pad 7 smd roundrect (at 1 -0.25) (size 0.7 0.25) (layers F.Cu F.Mask F.Paste) (roundrect_rratio 0.25))
  (pad 8 smd roundrect (at 1 -0.75) (size 0.7 0.25) (layers F.Cu F.Mask F.Paste) (roundrect_rratio 0.25))
  (pad 9 smd rect (at 0 0) (size 0.9 1.5) (property pad_prop_heatsink) (layers F.Cu F.Mask)
    (zone_connect 2))
  (pad "" smd roundrect (at -0.225 -0.375) (size 0.36 0.6) (layers F.Paste) (roundrect_rratio 0.25))
  (pad "" smd roundrect (at -0.225 0.375) (size 0.36 0.6) (layers F.Paste) (roundrect_rratio 0.25))
  (pad "" smd roundrect (at 0.225 -0.375) (size 0.36 0.6) (layers F.Paste) (roundrect_rratio 0.25))
  (pad "" smd roundrect (at 0.225 0.375) (size 0.36 0.6) (layers F.Paste) (roundrect_rratio 0.25))
  (fp_poly (pts (xy -1.52 -1.05) (xy -1.88 -1.05) (xy -1.52 -1.41) (xy -1.52 -1.05))
    (stroke (width 0.12) (type solid)) (fill solid) (layer F.SilkS))
  (fp_text user ${REFERENCE} (at 0 0) (layer F.Fab)
    (effects (font (size 0.5 0.5) (thickness 0.08)))
  )
  (model ${KICAD7_3DMODEL_DIR}/Package_DFN_QFN.3dshapes/DFN-8-1EP_2x2mm_P0.5mm_EP0.9x1.5mm.wrl
    (offset (xyz 0 0 0))
    (scale (xyz 1 1 1))
    (rotate (xyz 0 0 0))
  )
)
