(footprint Maxim_TDFN-6-1EP_3x3mm_P0.95mm_EP1.5x2.3mm (version 20221018) (generator kicad-footprint-generator)
  (layer F.Cu)
  (descr "Maxim  TDFN, 6 Pin (https://www.analog.com/media/en/technical-documentation/data-sheets/MAX4460-MAX4462.pdf#page=19, https://www.analog.com/media/en/package-pcb-resources/package/pkg_pdf/tdfn-ep/21-0137.pdf), generated with kicad-footprint-generator ipc_noLead_generator.py")
  (tags "Maxim TDFN NoLead")
  (attr smd)
  (fp_text reference REF** (at 0 -2.45) (layer F.SilkS)
    (effects (font (size 1 1) (thickness 0.15)))
  )
  (fp_text value Maxim_TDFN-6-1EP_3x3mm_P0.95mm_EP1.5x2.3mm (at 0 2.45) (layer F.Fab)
    (effects (font (size 1 1) (thickness 0.15)))
  )
  (fp_line (start -1.5 -1.61) (end 1.5 -1.61)
    (stroke (width 0.12) (type solid)) (layer F.SilkS))
  (fp_line (start -1.5 1.61) (end 1.5 1.61)
    (stroke (width 0.12) (type solid)) (layer F.SilkS))
  (fp_line (start -0.75 -1.5) (end 1.5 -1.5)
    (stroke (width 0.1) (type solid)) (layer F.Fab))
  (fp_line (start 1.5 -1.5) (end 1.5 1.5)
    (stroke (width 0.1) (type solid)) (layer F.Fab))
  (fp_line (start 1.5 1.5) (end -1.5 1.5)
    (stroke (width 0.1) (type solid)) (layer F.Fab))
  (fp_line (start -1.5 1.5) (end -1.5 -0.75)
    (stroke (width 0.1) (type solid)) (layer F.Fab))
  (fp_line (start -1.5 -0.75) (end -0.75 -1.5)
    (stroke (width 0.1) (type solid)) (layer F.Fab))
  (fp_line (start -2.13 -1.75) (end -2.13 1.75)
    (stroke (width 0.05) (type solid)) (layer F.CrtYd))
  (fp_line (start -2.13 1.75) (end 2.13 1.75)
    (stroke (width 0.05) (type solid)) (layer F.CrtYd))
  (fp_line (start 2.13 1.75) (end 2.13 -1.75)
    (stroke (width 0.05) (type solid)) (layer F.CrtYd))
  (fp_line (start 2.13 -1.75) (end -2.13 -1.75)
    (stroke (width 0.05) (type solid)) (layer F.CrtYd))
  (pad 1 smd roundrect (at -1.4875 -0.95) (size 0.775 0.4) (layers F.Cu F.Mask F.Paste) (roundrect_rratio 0.25))
  (pad 2 smd roundrect (at -1.4875 0) (size 0.775 0.4) (layers F.Cu F.Mask F.Paste) (roundrect_rratio 0.25))
  (pad 3 smd roundrect (at -1.4875 0.95) (size 0.775 0.4) (layers F.Cu F.Mask F.Paste) (roundrect_rratio 0.25))
  (pad 4 smd roundrect (at 1.4875 0.95) (size 0.775 0.4) (layers F.Cu F.Mask F.Paste) (roundrect_rratio 0.25))
  (pad 5 smd roundrect (at 1.4875 0) (size 0.775 0.4) (layers F.Cu F.Mask F.Paste) (roundrect_rratio 0.25))
  (pad 6 smd roundrect (at 1.4875 -0.95) (size 0.775 0.4) (layers F.Cu F.Mask F.Paste) (roundrect_rratio 0.25))
  (pad 7 smd rect (at 0 0) (size 1.5 2.3) (property pad_prop_heatsink) (layers F.Cu F.Mask)
    (zone_connect 2))
  (pad "" smd roundrect (at -0.375 -0.575) (size 0.6 0.93) (layers F.Paste) (roundrect_rratio 0.25))
  (pad "" smd roundrect (at -0.375 0.575) (size 0.6 0.93) (layers F.Paste) (roundrect_rratio 0.25))
  (pad "" smd roundrect (at 0.375 -0.575) (size 0.6 0.93) (layers F.Paste) (roundrect_rratio 0.25))
  (pad "" smd roundrect (at 0.375 0.575) (size 0.6 0.93) (layers F.Paste) (roundrect_rratio 0.25))
  (fp_poly (pts (xy -2.03 -1.31) (xy -2.505 -1.31) (xy -2.03 -1.785) (xy -2.03 -1.31))
    (stroke (width 0.12) (type solid)) (fill solid) (layer F.SilkS))
  (fp_text user ${REFERENCE} (at 0 0) (layer F.Fab)
    (effects (font (size 0.75 0.75) (thickness 0.11)))
  )
  (model ${KICAD7_3DMODEL_DIR}/Package_DFN_QFN.3dshapes/Maxim_TDFN-6-1EP_3x3mm_P0.95mm_EP1.5x2.3mm.wrl
    (offset (xyz 0 0 0))
    (scale (xyz 1 1 1))
    (rotate (xyz 0 0 0))
  )
)
