(footprint MLF-6-1EP_1.6x1.6mm_P0.5mm_EP0.5x1.26mm (version 20221018) (generator kicad-footprint-generator)
  (layer F.Cu)
  (descr "MLF, 6 Pin (http://ww1.microchip.com/downloads/en/DeviceDoc/mic5353.pdf), generated with kicad-footprint-generator ipc_noLead_generator.py")
  (tags "MLF NoLead")
  (attr smd)
  (fp_text reference REF** (at 0 -1.75) (layer F.SilkS)
    (effects (font (size 1 1) (thickness 0.15)))
  )
  (fp_text value MLF-6-1EP_1.6x1.6mm_P0.5mm_EP0.5x1.26mm (at 0 1.75) (layer F.Fab)
    (effects (font (size 1 1) (thickness 0.15)))
  )
  (fp_line (start -0.8 -0.91) (end 0.8 -0.91)
    (stroke (width 0.12) (type solid)) (layer F.SilkS))
  (fp_line (start -0.8 0.91) (end 0.8 0.91)
    (stroke (width 0.12) (type solid)) (layer F.SilkS))
  (fp_line (start -0.4 -0.8) (end 0.8 -0.8)
    (stroke (width 0.1) (type solid)) (layer F.Fab))
  (fp_line (start 0.8 -0.8) (end 0.8 0.8)
    (stroke (width 0.1) (type solid)) (layer F.Fab))
  (fp_line (start 0.8 0.8) (end -0.8 0.8)
    (stroke (width 0.1) (type solid)) (layer F.Fab))
  (fp_line (start -0.8 0.8) (end -0.8 -0.4)
    (stroke (width 0.1) (type solid)) (layer F.Fab))
  (fp_line (start -0.8 -0.4) (end -0.4 -0.8)
    (stroke (width 0.1) (type solid)) (layer F.Fab))
  (fp_line (start -1.4 -1.05) (end -1.4 1.05)
    (stroke (width 0.05) (type solid)) (layer F.CrtYd))
  (fp_line (start -1.4 1.05) (end 1.4 1.05)
    (stroke (width 0.05) (type solid)) (layer F.CrtYd))
  (fp_line (start 1.4 1.05) (end 1.4 -1.05)
    (stroke (width 0.05) (type solid)) (layer F.CrtYd))
  (fp_line (start 1.4 -1.05) (end -1.4 -1.05)
    (stroke (width 0.05) (type solid)) (layer F.CrtYd))
  (pad 1 smd roundrect (at -0.8 -0.5) (size 0.7 0.25) (layers F.Cu F.Mask F.Paste) (roundrect_rratio 0.25))
  (pad 2 smd roundrect (at -0.8 0) (size 0.7 0.25) (layers F.Cu F.Mask F.Paste) (roundrect_rratio 0.25))
  (pad 3 smd roundrect (at -0.8 0.5) (size 0.7 0.25) (layers F.Cu F.Mask F.Paste) (roundrect_rratio 0.25))
  (pad 4 smd roundrect (at 0.8 0.5) (size 0.7 0.25) (layers F.Cu F.Mask F.Paste) (roundrect_rratio 0.25))
  (pad 5 smd roundrect (at 0.8 0) (size 0.7 0.25) (layers F.Cu F.Mask F.Paste) (roundrect_rratio 0.25))
  (pad 6 smd roundrect (at 0.8 -0.5) (size 0.7 0.25) (layers F.Cu F.Mask F.Paste) (roundrect_rratio 0.25))
  (pad 7 smd rect (at 0 0) (size 0.5 1.26) (property pad_prop_heatsink) (layers F.Cu F.Mask)
    (zone_connect 2))
  (pad "" smd roundrect (at 0 -0.315) (size 0.4 0.51) (layers F.Paste) (roundrect_rratio 0.25))
  (pad "" smd roundrect (at 0 0.315) (size 0.4 0.51) (layers F.Paste) (roundrect_rratio 0.25))
  (fp_poly (pts (xy -1.32 -0.8) (xy -1.68 -0.8) (xy -1.32 -1.16) (xy -1.32 -0.8))
    (stroke (width 0.12) (type solid)) (fill solid) (layer F.SilkS))
  (fp_text user ${REFERENCE} (at 0 0) (layer F.Fab)
    (effects (font (size 0.4 0.4) (thickness 0.06)))
  )
  (model ${KICAD7_3DMODEL_DIR}/Package_DFN_QFN.3dshapes/MLF-6-1EP_1.6x1.6mm_P0.5mm_EP0.5x1.26mm.wrl
    (offset (xyz 0 0 0))
    (scale (xyz 1 1 1))
    (rotate (xyz 0 0 0))
  )
)
