(footprint QFN-68-1EP_8x8mm_P0.4mm_EP5.2x5.2mm (version 20221018) (generator kicad-footprint-generator)
  (layer F.Cu)
  (descr "QFN, 68 Pin (https://cdn.microsemi.com/documents/1bf6886f-5919-4508-a50b-b1dbf3fdf0f4/download/#page=98), generated with kicad-footprint-generator ipc_noLead_generator.py")
  (tags "QFN NoLead")
  (attr smd)
  (fp_text reference REF** (at 0 -5.31) (layer F.SilkS)
    (effects (font (size 1 1) (thickness 0.15)))
  )
  (fp_text value QFN-68-1EP_8x8mm_P0.4mm_EP5.2x5.2mm (at 0 5.31) (layer F.Fab)
    (effects (font (size 1 1) (thickness 0.15)))
  )
  (fp_line (start -3.56 -4.11) (end -3.81 -4.11)
    (stroke (width 0.12) (type solid)) (layer F.SilkS))
  (fp_line (start -4.11 -3.56) (end -4.11 -3.87)
    (stroke (width 0.12) (type solid)) (layer F.SilkS))
  (fp_line (start 3.56 -4.11) (end 4.11 -4.11)
    (stroke (width 0.12) (type solid)) (layer F.SilkS))
  (fp_line (start 4.11 -4.11) (end 4.11 -3.56)
    (stroke (width 0.12) (type solid)) (layer F.SilkS))
  (fp_line (start -3.56 4.11) (end -4.11 4.11)
    (stroke (width 0.12) (type solid)) (layer F.SilkS))
  (fp_line (start -4.11 4.11) (end -4.11 3.56)
    (stroke (width 0.12) (type solid)) (layer F.SilkS))
  (fp_line (start 3.56 4.11) (end 4.11 4.11)
    (stroke (width 0.12) (type solid)) (layer F.SilkS))
  (fp_line (start 4.11 4.11) (end 4.11 3.56)
    (stroke (width 0.12) (type solid)) (layer F.SilkS))
  (fp_line (start -3 -4) (end 4 -4)
    (stroke (width 0.1) (type solid)) (layer F.Fab))
  (fp_line (start 4 -4) (end 4 4)
    (stroke (width 0.1) (type solid)) (layer F.Fab))
  (fp_line (start 4 4) (end -4 4)
    (stroke (width 0.1) (type solid)) (layer F.Fab))
  (fp_line (start -4 4) (end -4 -3)
    (stroke (width 0.1) (type solid)) (layer F.Fab))
  (fp_line (start -4 -3) (end -3 -4)
    (stroke (width 0.1) (type solid)) (layer F.Fab))
  (fp_line (start -4.61 -4.61) (end -4.61 4.61)
    (stroke (width 0.05) (type solid)) (layer F.CrtYd))
  (fp_line (start -4.61 4.61) (end 4.61 4.61)
    (stroke (width 0.05) (type solid)) (layer F.CrtYd))
  (fp_line (start 4.61 4.61) (end 4.61 -4.61)
    (stroke (width 0.05) (type solid)) (layer F.CrtYd))
  (fp_line (start 4.61 -4.61) (end -4.61 -4.61)
    (stroke (width 0.05) (type solid)) (layer F.CrtYd))
  (pad 1 smd roundrect (at -3.9375 -3.2) (size 0.825 0.2) (layers F.Cu F.Mask F.Paste) (roundrect_rratio 0.25))
  (pad 2 smd roundrect (at -3.9375 -2.8) (size 0.825 0.2) (layers F.Cu F.Mask F.Paste) (roundrect_rratio 0.25))
  (pad 3 smd roundrect (at -3.9375 -2.4) (size 0.825 0.2) (layers F.Cu F.Mask F.Paste) (roundrect_rratio 0.25))
  (pad 4 smd roundrect (at -3.9375 -2) (size 0.825 0.2) (layers F.Cu F.Mask F.Paste) (roundrect_rratio 0.25))
  (pad 5 smd roundrect (at -3.9375 -1.6) (size 0.825 0.2) (layers F.Cu F.Mask F.Paste) (roundrect_rratio 0.25))
  (pad 6 smd roundrect (at -3.9375 -1.2) (size 0.825 0.2) (layers F.Cu F.Mask F.Paste) (roundrect_rratio 0.25))
  (pad 7 smd roundrect (at -3.9375 -0.8) (size 0.825 0.2) (layers F.Cu F.Mask F.Paste) (roundrect_rratio 0.25))
  (pad 8 smd roundrect (at -3.9375 -0.4) (size 0.825 0.2) (layers F.Cu F.Mask F.Paste) (roundrect_rratio 0.25))
  (pad 9 smd roundrect (at -3.9375 0) (size 0.825 0.2) (layers F.Cu F.Mask F.Paste) (roundrect_rratio 0.25))
  (pad 10 smd roundrect (at -3.9375 0.4) (size 0.825 0.2) (layers F.Cu F.Mask F.Paste) (roundrect_rratio 0.25))
  (pad 11 smd roundrect (at -3.9375 0.8) (size 0.825 0.2) (layers F.Cu F.Mask F.Paste) (roundrect_rratio 0.25))
  (pad 12 smd roundrect (at -3.9375 1.2) (size 0.825 0.2) (layers F.Cu F.Mask F.Paste) (roundrect_rratio 0.25))
  (pad 13 smd roundrect (at -3.9375 1.6) (size 0.825 0.2) (layers F.Cu F.Mask F.Paste) (roundrect_rratio 0.25))
  (pad 14 smd roundrect (at -3.9375 2) (size 0.825 0.2) (layers F.Cu F.Mask F.Paste) (roundrect_rratio 0.25))
  (pad 15 smd roundrect (at -3.9375 2.4) (size 0.825 0.2) (layers F.Cu F.Mask F.Paste) (roundrect_rratio 0.25))
  (pad 16 smd roundrect (at -3.9375 2.8) (size 0.825 0.2) (layers F.Cu F.Mask F.Paste) (roundrect_rratio 0.25))
  (pad 17 smd roundrect (at -3.9375 3.2) (size 0.825 0.2) (layers F.Cu F.Mask F.Paste) (roundrect_rratio 0.25))
  (pad 18 smd roundrect (at -3.2 3.9375) (size 0.2 0.825) (layers F.Cu F.Mask F.Paste) (roundrect_rratio 0.25))
  (pad 19 smd roundrect (at -2.8 3.9375) (size 0.2 0.825) (layers F.Cu F.Mask F.Paste) (roundrect_rratio 0.25))
  (pad 20 smd roundrect (at -2.4 3.9375) (size 0.2 0.825) (layers F.Cu F.Mask F.Paste) (roundrect_rratio 0.25))
  (pad 21 smd roundrect (at -2 3.9375) (size 0.2 0.825) (layers F.Cu F.Mask F.Paste) (roundrect_rratio 0.25))
  (pad 22 smd roundrect (at -1.6 3.9375) (size 0.2 0.825) (layers F.Cu F.Mask F.Paste) (roundrect_rratio 0.25))
  (pad 23 smd roundrect (at -1.2 3.9375) (size 0.2 0.825) (layers F.Cu F.Mask F.Paste) (roundrect_rratio 0.25))
  (pad 24 smd roundrect (at -0.8 3.9375) (size 0.2 0.825) (layers F.Cu F.Mask F.Paste) (roundrect_rratio 0.25))
  (pad 25 smd roundrect (at -0.4 3.9375) (size 0.2 0.825) (layers F.Cu F.Mask F.Paste) (roundrect_rratio 0.25))
  (pad 26 smd roundrect (at 0 3.9375) (size 0.2 0.825) (layers F.Cu F.Mask F.Paste) (roundrect_rratio 0.25))
  (pad 27 smd roundrect (at 0.4 3.9375) (size 0.2 0.825) (layers F.Cu F.Mask F.Paste) (roundrect_rratio 0.25))
  (pad 28 smd roundrect (at 0.8 3.9375) (size 0.2 0.825) (layers F.Cu F.Mask F.Paste) (roundrect_rratio 0.25))
  (pad 29 smd roundrect (at 1.2 3.9375) (size 0.2 0.825) (layers F.Cu F.Mask F.Paste) (roundrect_rratio 0.25))
  (pad 30 smd roundrect (at 1.6 3.9375) (size 0.2 0.825) (layers F.Cu F.Mask F.Paste) (roundrect_rratio 0.25))
  (pad 31 smd roundrect (at 2 3.9375) (size 0.2 0.825) (layers F.Cu F.Mask F.Paste) (roundrect_rratio 0.25))
  (pad 32 smd roundrect (at 2.4 3.9375) (size 0.2 0.825) (layers F.Cu F.Mask F.Paste) (roundrect_rratio 0.25))
  (pad 33 smd roundrect (at 2.8 3.9375) (size 0.2 0.825) (layers F.Cu F.Mask F.Paste) (roundrect_rratio 0.25))
  (pad 34 smd roundrect (at 3.2 3.9375) (size 0.2 0.825) (layers F.Cu F.Mask F.Paste) (roundrect_rratio 0.25))
  (pad 35 smd roundrect (at 3.9375 3.2) (size 0.825 0.2) (layers F.Cu F.Mask F.Paste) (roundrect_rratio 0.25))
  (pad 36 smd roundrect (at 3.9375 2.8) (size 0.825 0.2) (layers F.Cu F.Mask F.Paste) (roundrect_rratio 0.25))
  (pad 37 smd roundrect (at 3.9375 2.4) (size 0.825 0.2) (layers F.Cu F.Mask F.Paste) (roundrect_rratio 0.25))
  (pad 38 smd roundrect (at 3.9375 2) (size 0.825 0.2) (layers F.Cu F.Mask F.Paste) (roundrect_rratio 0.25))
  (pad 39 smd roundrect (at 3.9375 1.6) (size 0.825 0.2) (layers F.Cu F.Mask F.Paste) (roundrect_rratio 0.25))
  (pad 40 smd roundrect (at 3.9375 1.2) (size 0.825 0.2) (layers F.Cu F.Mask F.Paste) (roundrect_rratio 0.25))
  (pad 41 smd roundrect (at 3.9375 0.8) (size 0.825 0.2) (layers F.Cu F.Mask F.Paste) (roundrect_rratio 0.25))
  (pad 42 smd roundrect (at 3.9375 0.4) (size 0.825 0.2) (layers F.Cu F.Mask F.Paste) (roundrect_rratio 0.25))
  (pad 43 smd roundrect (at 3.9375 0) (size 0.825 0.2) (layers F.Cu F.Mask F.Paste) (roundrect_rratio 0.25))
  (pad 44 smd roundrect (at 3.9375 -0.4) (size 0.825 0.2) (layers F.Cu F.Mask F.Paste) (roundrect_rratio 0.25))
  (pad 45 smd roundrect (at 3.9375 -0.8) (size 0.825 0.2) (layers F.Cu F.Mask F.Paste) (roundrect_rratio 0.25))
  (pad 46 smd roundrect (at 3.9375 -1.2) (size 0.825 0.2) (layers F.Cu F.Mask F.Paste) (roundrect_rratio 0.25))
  (pad 47 smd roundrect (at 3.9375 -1.6) (size 0.825 0.2) (layers F.Cu F.Mask F.Paste) (roundrect_rratio 0.25))
  (pad 48 smd roundrect (at 3.9375 -2) (size 0.825 0.2) (layers F.Cu F.Mask F.Paste) (roundrect_rratio 0.25))
  (pad 49 smd roundrect (at 3.9375 -2.4) (size 0.825 0.2) (layers F.Cu F.Mask F.Paste) (roundrect_rratio 0.25))
  (pad 50 smd roundrect (at 3.9375 -2.8) (size 0.825 0.2) (layers F.Cu F.Mask F.Paste) (roundrect_rratio 0.25))
  (pad 51 smd roundrect (at 3.9375 -3.2) (size 0.825 0.2) (layers F.Cu F.Mask F.Paste) (roundrect_rratio 0.25))
  (pad 52 smd roundrect (at 3.2 -3.9375) (size 0.2 0.825) (layers F.Cu F.Mask F.Paste) (roundrect_rratio 0.25))
  (pad 53 smd roundrect (at 2.8 -3.9375) (size 0.2 0.825) (layers F.Cu F.Mask F.Paste) (roundrect_rratio 0.25))
  (pad 54 smd roundrect (at 2.4 -3.9375) (size 0.2 0.825) (layers F.Cu F.Mask F.Paste) (roundrect_rratio 0.25))
  (pad 55 smd roundrect (at 2 -3.9375) (size 0.2 0.825) (layers F.Cu F.Mask F.Paste) (roundrect_rratio 0.25))
  (pad 56 smd roundrect (at 1.6 -3.9375) (size 0.2 0.825) (layers F.Cu F.Mask F.Paste) (roundrect_rratio 0.25))
  (pad 57 smd roundrect (at 1.2 -3.9375) (size 0.2 0.825) (layers F.Cu F.Mask F.Paste) (roundrect_rratio 0.25))
  (pad 58 smd roundrect (at 0.8 -3.9375) (size 0.2 0.825) (layers F.Cu F.Mask F.Paste) (roundrect_rratio 0.25))
  (pad 59 smd roundrect (at 0.4 -3.9375) (size 0.2 0.825) (layers F.Cu F.Mask F.Paste) (roundrect_rratio 0.25))
  (pad 60 smd roundrect (at 0 -3.9375) (size 0.2 0.825) (layers F.Cu F.Mask F.Paste) (roundrect_rratio 0.25))
  (pad 61 smd roundrect (at -0.4 -3.9375) (size 0.2 0.825) (layers F.Cu F.Mask F.Paste) (roundrect_rratio 0.25))
  (pad 62 smd roundrect (at -0.8 -3.9375) (size 0.2 0.825) (layers F.Cu F.Mask F.Paste) (roundrect_rratio 0.25))
  (pad 63 smd roundrect (at -1.2 -3.9375) (size 0.2 0.825) (layers F.Cu F.Mask F.Paste) (roundrect_rratio 0.25))
  (pad 64 smd roundrect (at -1.6 -3.9375) (size 0.2 0.825) (layers F.Cu F.Mask F.Paste) (roundrect_rratio 0.25))
  (pad 65 smd roundrect (at -2 -3.9375) (size 0.2 0.825) (layers F.Cu F.Mask F.Paste) (roundrect_rratio 0.25))
  (pad 66 smd roundrect (at -2.4 -3.9375) (size 0.2 0.825) (layers F.Cu F.Mask F.Paste) (roundrect_rratio 0.25))
  (pad 67 smd roundrect (at -2.8 -3.9375) (size 0.2 0.825) (layers F.Cu F.Mask F.Paste) (roundrect_rratio 0.25))
  (pad 68 smd roundrect (at -3.2 -3.9375) (size 0.2 0.825) (layers F.Cu F.Mask F.Paste) (roundrect_rratio 0.25))
  (pad 69 smd rect (at 0 0) (size 5.2 5.2) (property pad_prop_heatsink) (layers F.Cu F.Mask)
    (zone_connect 2))
  (pad "" smd roundrect (at -1.95 -1.95) (size 1.05 1.05) (layers F.Paste) (roundrect_rratio 0.238095))
  (pad "" smd roundrect (at -1.95 -0.65) (size 1.05 1.05) (layers F.Paste) (roundrect_rratio 0.238095))
  (pad "" smd roundrect (at -1.95 0.65) (size 1.05 1.05) (layers F.Paste) (roundrect_rratio 0.238095))
  (pad "" smd roundrect (at -1.95 1.95) (size 1.05 1.05) (layers F.Paste) (roundrect_rratio 0.238095))
  (pad "" smd roundrect (at -0.65 -1.95) (size 1.05 1.05) (layers F.Paste) (roundrect_rratio 0.238095))
  (pad "" smd roundrect (at -0.65 -0.65) (size 1.05 1.05) (layers F.Paste) (roundrect_rratio 0.238095))
  (pad "" smd roundrect (at -0.65 0.65) (size 1.05 1.05) (layers F.Paste) (roundrect_rratio 0.238095))
  (pad "" smd roundrect (at -0.65 1.95) (size 1.05 1.05) (layers F.Paste) (roundrect_rratio 0.238095))
  (pad "" smd roundrect (at 0.65 -1.95) (size 1.05 1.05) (layers F.Paste) (roundrect_rratio 0.238095))
  (pad "" smd roundrect (at 0.65 -0.65) (size 1.05 1.05) (layers F.Paste) (roundrect_rratio 0.238095))
  (pad "" smd roundrect (at 0.65 0.65) (size 1.05 1.05) (layers F.Paste) (roundrect_rratio 0.238095))
  (pad "" smd roundrect (at 0.65 1.95) (size 1.05 1.05) (layers F.Paste) (roundrect_rratio 0.238095))
  (pad "" smd roundrect (at 1.95 -1.95) (size 1.05 1.05) (layers F.Paste) (roundrect_rratio 0.238095))
  (pad "" smd roundrect (at 1.95 -0.65) (size 1.05 1.05) (layers F.Paste) (roundrect_rratio 0.238095))
  (pad "" smd roundrect (at 1.95 0.65) (size 1.05 1.05) (layers F.Paste) (roundrect_rratio 0.238095))
  (pad "" smd roundrect (at 1.95 1.95) (size 1.05 1.05) (layers F.Paste) (roundrect_rratio 0.238095))
  (fp_poly (pts (xy -4.11 -4.11) (xy -4.29 -4.362) (xy -3.93 -4.362) (xy -4.11 -4.11))
    (stroke (width 0.12) (type solid)) (fill solid) (layer F.SilkS))
  (fp_text user ${REFERENCE} (at 0 0) (layer F.Fab)
    (effects (font (size 1 1) (thickness 0.15)))
  )
  (model ${KICAD7_3DMODEL_DIR}/Package_DFN_QFN.3dshapes/QFN-68-1EP_8x8mm_P0.4mm_EP5.2x5.2mm.wrl
    (offset (xyz 0 0 0))
    (scale (xyz 1 1 1))
    (rotate (xyz 0 0 0))
  )
)
