(footprint QFN-42-1EP_5x6mm_P0.4mm_EP3.7x4.7mm_ThermalVias (version 20221018) (generator kicad-footprint-generator)
  (layer F.Cu)
  (descr "QFN, 42 Pin (https://www.analog.com/media/en/package-pcb-resources/package/pkg_pdf/ltc-legacy-qfn/05081875_0_UHE42.pdf), generated with kicad-footprint-generator ipc_noLead_generator.py")
  (tags "QFN NoLead")
  (attr smd)
  (fp_text reference REF** (at 0 -4.33) (layer F.SilkS)
    (effects (font (size 1 1) (thickness 0.15)))
  )
  (fp_text value QFN-42-1EP_5x6mm_P0.4mm_EP3.7x4.7mm_ThermalVias (at 0 4.33) (layer F.Fab)
    (effects (font (size 1 1) (thickness 0.15)))
  )
  (fp_line (start -1.985 -3.11) (end -2.31 -3.11)
    (stroke (width 0.12) (type solid)) (layer F.SilkS))
  (fp_line (start -2.61 -2.585) (end -2.61 -2.87)
    (stroke (width 0.12) (type solid)) (layer F.SilkS))
  (fp_line (start 1.985 -3.11) (end 2.61 -3.11)
    (stroke (width 0.12) (type solid)) (layer F.SilkS))
  (fp_line (start 2.61 -3.11) (end 2.61 -2.585)
    (stroke (width 0.12) (type solid)) (layer F.SilkS))
  (fp_line (start -1.985 3.11) (end -2.61 3.11)
    (stroke (width 0.12) (type solid)) (layer F.SilkS))
  (fp_line (start -2.61 3.11) (end -2.61 2.585)
    (stroke (width 0.12) (type solid)) (layer F.SilkS))
  (fp_line (start 1.985 3.11) (end 2.61 3.11)
    (stroke (width 0.12) (type solid)) (layer F.SilkS))
  (fp_line (start 2.61 3.11) (end 2.61 2.585)
    (stroke (width 0.12) (type solid)) (layer F.SilkS))
  (fp_line (start -1.5 -3) (end 2.5 -3)
    (stroke (width 0.1) (type solid)) (layer F.Fab))
  (fp_line (start 2.5 -3) (end 2.5 3)
    (stroke (width 0.1) (type solid)) (layer F.Fab))
  (fp_line (start 2.5 3) (end -2.5 3)
    (stroke (width 0.1) (type solid)) (layer F.Fab))
  (fp_line (start -2.5 3) (end -2.5 -2)
    (stroke (width 0.1) (type solid)) (layer F.Fab))
  (fp_line (start -2.5 -2) (end -1.5 -3)
    (stroke (width 0.1) (type solid)) (layer F.Fab))
  (fp_line (start -3.13 -3.63) (end -3.13 3.63)
    (stroke (width 0.05) (type solid)) (layer F.CrtYd))
  (fp_line (start -3.13 3.63) (end 3.13 3.63)
    (stroke (width 0.05) (type solid)) (layer F.CrtYd))
  (fp_line (start 3.13 3.63) (end 3.13 -3.63)
    (stroke (width 0.05) (type solid)) (layer F.CrtYd))
  (fp_line (start 3.13 -3.63) (end -3.13 -3.63)
    (stroke (width 0.05) (type solid)) (layer F.CrtYd))
  (pad 1 smd roundrect (at -2.4625 -2.2) (size 0.825 0.25) (layers F.Cu F.Mask F.Paste) (roundrect_rratio 0.25))
  (pad 2 smd roundrect (at -2.4625 -1.8) (size 0.825 0.25) (layers F.Cu F.Mask F.Paste) (roundrect_rratio 0.25))
  (pad 3 smd roundrect (at -2.4625 -1.4) (size 0.825 0.25) (layers F.Cu F.Mask F.Paste) (roundrect_rratio 0.25))
  (pad 4 smd roundrect (at -2.4625 -1) (size 0.825 0.25) (layers F.Cu F.Mask F.Paste) (roundrect_rratio 0.25))
  (pad 5 smd roundrect (at -2.4625 -0.6) (size 0.825 0.25) (layers F.Cu F.Mask F.Paste) (roundrect_rratio 0.25))
  (pad 6 smd roundrect (at -2.4625 -0.2) (size 0.825 0.25) (layers F.Cu F.Mask F.Paste) (roundrect_rratio 0.25))
  (pad 7 smd roundrect (at -2.4625 0.2) (size 0.825 0.25) (layers F.Cu F.Mask F.Paste) (roundrect_rratio 0.25))
  (pad 8 smd roundrect (at -2.4625 0.6) (size 0.825 0.25) (layers F.Cu F.Mask F.Paste) (roundrect_rratio 0.25))
  (pad 9 smd roundrect (at -2.4625 1) (size 0.825 0.25) (layers F.Cu F.Mask F.Paste) (roundrect_rratio 0.25))
  (pad 10 smd roundrect (at -2.4625 1.4) (size 0.825 0.25) (layers F.Cu F.Mask F.Paste) (roundrect_rratio 0.25))
  (pad 11 smd roundrect (at -2.4625 1.8) (size 0.825 0.25) (layers F.Cu F.Mask F.Paste) (roundrect_rratio 0.25))
  (pad 12 smd roundrect (at -2.4625 2.2) (size 0.825 0.25) (layers F.Cu F.Mask F.Paste) (roundrect_rratio 0.25))
  (pad 13 smd roundrect (at -1.6 2.9625) (size 0.25 0.825) (layers F.Cu F.Mask F.Paste) (roundrect_rratio 0.25))
  (pad 14 smd roundrect (at -1.2 2.9625) (size 0.25 0.825) (layers F.Cu F.Mask F.Paste) (roundrect_rratio 0.25))
  (pad 15 smd roundrect (at -0.8 2.9625) (size 0.25 0.825) (layers F.Cu F.Mask F.Paste) (roundrect_rratio 0.25))
  (pad 16 smd roundrect (at -0.4 2.9625) (size 0.25 0.825) (layers F.Cu F.Mask F.Paste) (roundrect_rratio 0.25))
  (pad 17 smd roundrect (at 0 2.9625) (size 0.25 0.825) (layers F.Cu F.Mask F.Paste) (roundrect_rratio 0.25))
  (pad 18 smd roundrect (at 0.4 2.9625) (size 0.25 0.825) (layers F.Cu F.Mask F.Paste) (roundrect_rratio 0.25))
  (pad 19 smd roundrect (at 0.8 2.9625) (size 0.25 0.825) (layers F.Cu F.Mask F.Paste) (roundrect_rratio 0.25))
  (pad 20 smd roundrect (at 1.2 2.9625) (size 0.25 0.825) (layers F.Cu F.Mask F.Paste) (roundrect_rratio 0.25))
  (pad 21 smd roundrect (at 1.6 2.9625) (size 0.25 0.825) (layers F.Cu F.Mask F.Paste) (roundrect_rratio 0.25))
  (pad 22 smd roundrect (at 2.4625 2.2) (size 0.825 0.25) (layers F.Cu F.Mask F.Paste) (roundrect_rratio 0.25))
  (pad 23 smd roundrect (at 2.4625 1.8) (size 0.825 0.25) (layers F.Cu F.Mask F.Paste) (roundrect_rratio 0.25))
  (pad 24 smd roundrect (at 2.4625 1.4) (size 0.825 0.25) (layers F.Cu F.Mask F.Paste) (roundrect_rratio 0.25))
  (pad 25 smd roundrect (at 2.4625 1) (size 0.825 0.25) (layers F.Cu F.Mask F.Paste) (roundrect_rratio 0.25))
  (pad 26 smd roundrect (at 2.4625 0.6) (size 0.825 0.25) (layers F.Cu F.Mask F.Paste) (roundrect_rratio 0.25))
  (pad 27 smd roundrect (at 2.4625 0.2) (size 0.825 0.25) (layers F.Cu F.Mask F.Paste) (roundrect_rratio 0.25))
  (pad 28 smd roundrect (at 2.4625 -0.2) (size 0.825 0.25) (layers F.Cu F.Mask F.Paste) (roundrect_rratio 0.25))
  (pad 29 smd roundrect (at 2.4625 -0.6) (size 0.825 0.25) (layers F.Cu F.Mask F.Paste) (roundrect_rratio 0.25))
  (pad 30 smd roundrect (at 2.4625 -1) (size 0.825 0.25) (layers F.Cu F.Mask F.Paste) (roundrect_rratio 0.25))
  (pad 31 smd roundrect (at 2.4625 -1.4) (size 0.825 0.25) (layers F.Cu F.Mask F.Paste) (roundrect_rratio 0.25))
  (pad 32 smd roundrect (at 2.4625 -1.8) (size 0.825 0.25) (layers F.Cu F.Mask F.Paste) (roundrect_rratio 0.25))
  (pad 33 smd roundrect (at 2.4625 -2.2) (size 0.825 0.25) (layers F.Cu F.Mask F.Paste) (roundrect_rratio 0.25))
  (pad 34 smd roundrect (at 1.6 -2.9625) (size 0.25 0.825) (layers F.Cu F.Mask F.Paste) (roundrect_rratio 0.25))
  (pad 35 smd roundrect (at 1.2 -2.9625) (size 0.25 0.825) (layers F.Cu F.Mask F.Paste) (roundrect_rratio 0.25))
  (pad 36 smd roundrect (at 0.8 -2.9625) (size 0.25 0.825) (layers F.Cu F.Mask F.Paste) (roundrect_rratio 0.25))
  (pad 37 smd roundrect (at 0.4 -2.9625) (size 0.25 0.825) (layers F.Cu F.Mask F.Paste) (roundrect_rratio 0.25))
  (pad 38 smd roundrect (at 0 -2.9625) (size 0.25 0.825) (layers F.Cu F.Mask F.Paste) (roundrect_rratio 0.25))
  (pad 39 smd roundrect (at -0.4 -2.9625) (size 0.25 0.825) (layers F.Cu F.Mask F.Paste) (roundrect_rratio 0.25))
  (pad 40 smd roundrect (at -0.8 -2.9625) (size 0.25 0.825) (layers F.Cu F.Mask F.Paste) (roundrect_rratio 0.25))
  (pad 41 smd roundrect (at -1.2 -2.9625) (size 0.25 0.825) (layers F.Cu F.Mask F.Paste) (roundrect_rratio 0.25))
  (pad 42 smd roundrect (at -1.6 -2.9625) (size 0.25 0.825) (layers F.Cu F.Mask F.Paste) (roundrect_rratio 0.25))
  (pad 43 smd rect (at 0 0) (size 3.7 4.7) (property pad_prop_heatsink) (layers F.Cu F.Mask)
    (zone_connect 2))
  (pad 43 thru_hole circle (at -1.6 -2.1) (size 0.5 0.5) (drill 0.2) (property pad_prop_heatsink) (layers *.Cu))
  (pad 43 thru_hole circle (at -0.533333 -2.1) (size 0.5 0.5) (drill 0.2) (property pad_prop_heatsink) (layers *.Cu))
  (pad 43 thru_hole circle (at 0.533333 -2.1) (size 0.5 0.5) (drill 0.2) (property pad_prop_heatsink) (layers *.Cu))
  (pad 43 thru_hole circle (at 1.6 -2.1) (size 0.5 0.5) (drill 0.2) (property pad_prop_heatsink) (layers *.Cu))
  (pad 43 thru_hole circle (at -1.6 -1.05) (size 0.5 0.5) (drill 0.2) (property pad_prop_heatsink) (layers *.Cu))
  (pad 43 thru_hole circle (at -0.533333 -1.05) (size 0.5 0.5) (drill 0.2) (property pad_prop_heatsink) (layers *.Cu))
  (pad 43 thru_hole circle (at 0.533333 -1.05) (size 0.5 0.5) (drill 0.2) (property pad_prop_heatsink) (layers *.Cu))
  (pad 43 thru_hole circle (at 1.6 -1.05) (size 0.5 0.5) (drill 0.2) (property pad_prop_heatsink) (layers *.Cu))
  (pad 43 thru_hole circle (at -1.6 0) (size 0.5 0.5) (drill 0.2) (property pad_prop_heatsink) (layers *.Cu))
  (pad 43 thru_hole circle (at -0.533333 0) (size 0.5 0.5) (drill 0.2) (property pad_prop_heatsink) (layers *.Cu))
  (pad 43 thru_hole circle (at 0.533333 0) (size 0.5 0.5) (drill 0.2) (property pad_prop_heatsink) (layers *.Cu))
  (pad 43 thru_hole circle (at 1.6 0) (size 0.5 0.5) (drill 0.2) (property pad_prop_heatsink) (layers *.Cu))
  (pad 43 thru_hole circle (at -1.6 1.05) (size 0.5 0.5) (drill 0.2) (property pad_prop_heatsink) (layers *.Cu))
  (pad 43 thru_hole circle (at -0.533333 1.05) (size 0.5 0.5) (drill 0.2) (property pad_prop_heatsink) (layers *.Cu))
  (pad 43 thru_hole circle (at 0.533333 1.05) (size 0.5 0.5) (drill 0.2) (property pad_prop_heatsink) (layers *.Cu))
  (pad 43 thru_hole circle (at 1.6 1.05) (size 0.5 0.5) (drill 0.2) (property pad_prop_heatsink) (layers *.Cu))
  (pad 43 thru_hole circle (at -1.6 2.1) (size 0.5 0.5) (drill 0.2) (property pad_prop_heatsink) (layers *.Cu))
  (pad 43 thru_hole circle (at -0.533333 2.1) (size 0.5 0.5) (drill 0.2) (property pad_prop_heatsink) (layers *.Cu))
  (pad 43 thru_hole circle (at 0.533333 2.1) (size 0.5 0.5) (drill 0.2) (property pad_prop_heatsink) (layers *.Cu))
  (pad 43 thru_hole circle (at 1.6 2.1) (size 0.5 0.5) (drill 0.2) (property pad_prop_heatsink) (layers *.Cu))
  (pad 43 smd rect (at 0 0) (size 3.7 4.7) (property pad_prop_heatsink) (layers B.Cu)
    (zone_connect 2))
  (pad "" smd custom (at -1.066667 -1.575) (size 0.798957 0.798957) (layers F.Paste)
    (options (clearance outline) (anchor circle))
    (primitives
      (gr_poly (pts
         (xy -0.366473 -0.251764) (xy -0.274357 -0.343881) (xy 0.274357 -0.343881) (xy 0.366473 -0.251764)
         (xy 0.366473 0.251764) (xy 0.274357 0.343881) (xy -0.274357 0.343881) (xy -0.366473 0.251764)) (width 0.222389))
    ))
  (pad "" smd custom (at -1.066667 -0.525) (size 0.798957 0.798957) (layers F.Paste)
    (options (clearance outline) (anchor circle))
    (primitives
      (gr_poly (pts
         (xy -0.366473 -0.251764) (xy -0.274357 -0.343881) (xy 0.274357 -0.343881) (xy 0.366473 -0.251764)
         (xy 0.366473 0.251764) (xy 0.274357 0.343881) (xy -0.274357 0.343881) (xy -0.366473 0.251764)) (width 0.222389))
    ))
  (pad "" smd custom (at -1.066667 0.525) (size 0.798957 0.798957) (layers F.Paste)
    (options (clearance outline) (anchor circle))
    (primitives
      (gr_poly (pts
         (xy -0.366473 -0.251764) (xy -0.274357 -0.343881) (xy 0.274357 -0.343881) (xy 0.366473 -0.251764)
         (xy 0.366473 0.251764) (xy 0.274357 0.343881) (xy -0.274357 0.343881) (xy -0.366473 0.251764)) (width 0.222389))
    ))
  (pad "" smd custom (at -1.066667 1.575) (size 0.798957 0.798957) (layers F.Paste)
    (options (clearance outline) (anchor circle))
    (primitives
      (gr_poly (pts
         (xy -0.366473 -0.251764) (xy -0.274357 -0.343881) (xy 0.274357 -0.343881) (xy 0.366473 -0.251764)
         (xy 0.366473 0.251764) (xy 0.274357 0.343881) (xy -0.274357 0.343881) (xy -0.366473 0.251764)) (width 0.222389))
    ))
  (pad "" smd custom (at 0 -1.575) (size 0.798957 0.798957) (layers F.Paste)
    (options (clearance outline) (anchor circle))
    (primitives
      (gr_poly (pts
         (xy -0.366473 -0.251764) (xy -0.274357 -0.343881) (xy 0.274357 -0.343881) (xy 0.366473 -0.251764)
         (xy 0.366473 0.251764) (xy 0.274357 0.343881) (xy -0.274357 0.343881) (xy -0.366473 0.251764)) (width 0.222389))
    ))
  (pad "" smd custom (at 0 -0.525) (size 0.798957 0.798957) (layers F.Paste)
    (options (clearance outline) (anchor circle))
    (primitives
      (gr_poly (pts
         (xy -0.366473 -0.251764) (xy -0.274357 -0.343881) (xy 0.274357 -0.343881) (xy 0.366473 -0.251764)
         (xy 0.366473 0.251764) (xy 0.274357 0.343881) (xy -0.274357 0.343881) (xy -0.366473 0.251764)) (width 0.222389))
    ))
  (pad "" smd custom (at 0 0.525) (size 0.798957 0.798957) (layers F.Paste)
    (options (clearance outline) (anchor circle))
    (primitives
      (gr_poly (pts
         (xy -0.366473 -0.251764) (xy -0.274357 -0.343881) (xy 0.274357 -0.343881) (xy 0.366473 -0.251764)
         (xy 0.366473 0.251764) (xy 0.274357 0.343881) (xy -0.274357 0.343881) (xy -0.366473 0.251764)) (width 0.222389))
    ))
  (pad "" smd custom (at 0 1.575) (size 0.798957 0.798957) (layers F.Paste)
    (options (clearance outline) (anchor circle))
    (primitives
      (gr_poly (pts
         (xy -0.366473 -0.251764) (xy -0.274357 -0.343881) (xy 0.274357 -0.343881) (xy 0.366473 -0.251764)
         (xy 0.366473 0.251764) (xy 0.274357 0.343881) (xy -0.274357 0.343881) (xy -0.366473 0.251764)) (width 0.222389))
    ))
  (pad "" smd custom (at 1.066667 -1.575) (size 0.798957 0.798957) (layers F.Paste)
    (options (clearance outline) (anchor circle))
    (primitives
      (gr_poly (pts
         (xy -0.366473 -0.251764) (xy -0.274357 -0.343881) (xy 0.274357 -0.343881) (xy 0.366473 -0.251764)
         (xy 0.366473 0.251764) (xy 0.274357 0.343881) (xy -0.274357 0.343881) (xy -0.366473 0.251764)) (width 0.222389))
    ))
  (pad "" smd custom (at 1.066667 -0.525) (size 0.798957 0.798957) (layers F.Paste)
    (options (clearance outline) (anchor circle))
    (primitives
      (gr_poly (pts
         (xy -0.366473 -0.251764) (xy -0.274357 -0.343881) (xy 0.274357 -0.343881) (xy 0.366473 -0.251764)
         (xy 0.366473 0.251764) (xy 0.274357 0.343881) (xy -0.274357 0.343881) (xy -0.366473 0.251764)) (width 0.222389))
    ))
  (pad "" smd custom (at 1.066667 0.525) (size 0.798957 0.798957) (layers F.Paste)
    (options (clearance outline) (anchor circle))
    (primitives
      (gr_poly (pts
         (xy -0.366473 -0.251764) (xy -0.274357 -0.343881) (xy 0.274357 -0.343881) (xy 0.366473 -0.251764)
         (xy 0.366473 0.251764) (xy 0.274357 0.343881) (xy -0.274357 0.343881) (xy -0.366473 0.251764)) (width 0.222389))
    ))
  (pad "" smd custom (at 1.066667 1.575) (size 0.798957 0.798957) (layers F.Paste)
    (options (clearance outline) (anchor circle))
    (primitives
      (gr_poly (pts
         (xy -0.366473 -0.251764) (xy -0.274357 -0.343881) (xy 0.274357 -0.343881) (xy 0.366473 -0.251764)
         (xy 0.366473 0.251764) (xy 0.274357 0.343881) (xy -0.274357 0.343881) (xy -0.366473 0.251764)) (width 0.222389))
    ))
  (fp_poly (pts (xy -2.61 -3.11) (xy -2.79 -3.362) (xy -2.43 -3.362) (xy -2.61 -3.11))
    (stroke (width 0.12) (type solid)) (fill solid) (layer F.SilkS))
  (fp_text user ${REFERENCE} (at 0 0) (layer F.Fab)
    (effects (font (size 1 1) (thickness 0.15)))
  )
  (model ${KICAD7_3DMODEL_DIR}/Package_DFN_QFN.3dshapes/QFN-42-1EP_5x6mm_P0.4mm_EP3.7x4.7mm.wrl
    (offset (xyz 0 0 0))
    (scale (xyz 1 1 1))
    (rotate (xyz 0 0 0))
  )
)
