(footprint QFN-24-1EP_5x5mm_P0.65mm_EP3.25x3.25mm_ThermalVias (version 20221018) (generator kicad-footprint-generator)
  (layer F.Cu)
  (descr "QFN, 24 Pin (https://semtech.my.salesforce.com/sfc/p/#E0000000JelG/a/44000000MDkO/lWPNMeJClEs8Zvyu7AlDlKSyZqhYdVpQzFLVfUp.EXs), generated with kicad-footprint-generator ipc_noLead_generator.py")
  (tags "QFN NoLead")
  (attr smd)
  (fp_text reference REF** (at 0 -3.83) (layer F.SilkS)
    (effects (font (size 1 1) (thickness 0.15)))
  )
  (fp_text value QFN-24-1EP_5x5mm_P0.65mm_EP3.25x3.25mm_ThermalVias (at 0 3.83) (layer F.Fab)
    (effects (font (size 1 1) (thickness 0.15)))
  )
  (fp_line (start -2.035 -2.61) (end -2.31 -2.61)
    (stroke (width 0.12) (type solid)) (layer F.SilkS))
  (fp_line (start -2.61 -2.035) (end -2.61 -2.37)
    (stroke (width 0.12) (type solid)) (layer F.SilkS))
  (fp_line (start 2.035 -2.61) (end 2.61 -2.61)
    (stroke (width 0.12) (type solid)) (layer F.SilkS))
  (fp_line (start 2.61 -2.61) (end 2.61 -2.035)
    (stroke (width 0.12) (type solid)) (layer F.SilkS))
  (fp_line (start -2.035 2.61) (end -2.61 2.61)
    (stroke (width 0.12) (type solid)) (layer F.SilkS))
  (fp_line (start -2.61 2.61) (end -2.61 2.035)
    (stroke (width 0.12) (type solid)) (layer F.SilkS))
  (fp_line (start 2.035 2.61) (end 2.61 2.61)
    (stroke (width 0.12) (type solid)) (layer F.SilkS))
  (fp_line (start 2.61 2.61) (end 2.61 2.035)
    (stroke (width 0.12) (type solid)) (layer F.SilkS))
  (fp_line (start -1.5 -2.5) (end 2.5 -2.5)
    (stroke (width 0.1) (type solid)) (layer F.Fab))
  (fp_line (start 2.5 -2.5) (end 2.5 2.5)
    (stroke (width 0.1) (type solid)) (layer F.Fab))
  (fp_line (start 2.5 2.5) (end -2.5 2.5)
    (stroke (width 0.1) (type solid)) (layer F.Fab))
  (fp_line (start -2.5 2.5) (end -2.5 -1.5)
    (stroke (width 0.1) (type solid)) (layer F.Fab))
  (fp_line (start -2.5 -1.5) (end -1.5 -2.5)
    (stroke (width 0.1) (type solid)) (layer F.Fab))
  (fp_line (start -3.13 -3.13) (end -3.13 3.13)
    (stroke (width 0.05) (type solid)) (layer F.CrtYd))
  (fp_line (start -3.13 3.13) (end 3.13 3.13)
    (stroke (width 0.05) (type solid)) (layer F.CrtYd))
  (fp_line (start 3.13 3.13) (end 3.13 -3.13)
    (stroke (width 0.05) (type solid)) (layer F.CrtYd))
  (fp_line (start 3.13 -3.13) (end -3.13 -3.13)
    (stroke (width 0.05) (type solid)) (layer F.CrtYd))
  (pad 1 smd custom (at -2.45 -1.625) (size 0.193934 0.193934) (layers F.Cu F.Mask F.Paste)
    (options (clearance outline) (anchor circle))
    (primitives
      (gr_poly (pts
         (xy -0.35 -0.075) (xy 0.243934 -0.075) (xy 0.35 0.031066) (xy 0.35 0.075)
         (xy -0.35 0.075)) (width 0.15))
    ))
  (pad 2 smd roundrect (at -2.45 -0.975) (size 0.85 0.3) (layers F.Cu F.Mask F.Paste) (roundrect_rratio 0.25))
  (pad 3 smd roundrect (at -2.45 -0.325) (size 0.85 0.3) (layers F.Cu F.Mask F.Paste) (roundrect_rratio 0.25))
  (pad 4 smd roundrect (at -2.45 0.325) (size 0.85 0.3) (layers F.Cu F.Mask F.Paste) (roundrect_rratio 0.25))
  (pad 5 smd roundrect (at -2.45 0.975) (size 0.85 0.3) (layers F.Cu F.Mask F.Paste) (roundrect_rratio 0.25))
  (pad 6 smd custom (at -2.45 1.625) (size 0.193934 0.193934) (layers F.Cu F.Mask F.Paste)
    (options (clearance outline) (anchor circle))
    (primitives
      (gr_poly (pts
         (xy -0.35 -0.075) (xy 0.35 -0.075) (xy 0.35 -0.031066) (xy 0.243934 0.075)
         (xy -0.35 0.075)) (width 0.15))
    ))
  (pad 7 smd custom (at -1.625 2.45) (size 0.193934 0.193934) (layers F.Cu F.Mask F.Paste)
    (options (clearance outline) (anchor circle))
    (primitives
      (gr_poly (pts
         (xy -0.075 -0.243934) (xy 0.031066 -0.35) (xy 0.075 -0.35) (xy 0.075 0.35)
         (xy -0.075 0.35)) (width 0.15))
    ))
  (pad 8 smd roundrect (at -0.975 2.45) (size 0.3 0.85) (layers F.Cu F.Mask F.Paste) (roundrect_rratio 0.25))
  (pad 9 smd roundrect (at -0.325 2.45) (size 0.3 0.85) (layers F.Cu F.Mask F.Paste) (roundrect_rratio 0.25))
  (pad 10 smd roundrect (at 0.325 2.45) (size 0.3 0.85) (layers F.Cu F.Mask F.Paste) (roundrect_rratio 0.25))
  (pad 11 smd roundrect (at 0.975 2.45) (size 0.3 0.85) (layers F.Cu F.Mask F.Paste) (roundrect_rratio 0.25))
  (pad 12 smd custom (at 1.625 2.45) (size 0.193934 0.193934) (layers F.Cu F.Mask F.Paste)
    (options (clearance outline) (anchor circle))
    (primitives
      (gr_poly (pts
         (xy -0.075 -0.35) (xy -0.031066 -0.35) (xy 0.075 -0.243934) (xy 0.075 0.35)
         (xy -0.075 0.35)) (width 0.15))
    ))
  (pad 13 smd custom (at 2.45 1.625) (size 0.193934 0.193934) (layers F.Cu F.Mask F.Paste)
    (options (clearance outline) (anchor circle))
    (primitives
      (gr_poly (pts
         (xy -0.35 -0.075) (xy 0.35 -0.075) (xy 0.35 0.075) (xy -0.243934 0.075)
         (xy -0.35 -0.031066)) (width 0.15))
    ))
  (pad 14 smd roundrect (at 2.45 0.975) (size 0.85 0.3) (layers F.Cu F.Mask F.Paste) (roundrect_rratio 0.25))
  (pad 15 smd roundrect (at 2.45 0.325) (size 0.85 0.3) (layers F.Cu F.Mask F.Paste) (roundrect_rratio 0.25))
  (pad 16 smd roundrect (at 2.45 -0.325) (size 0.85 0.3) (layers F.Cu F.Mask F.Paste) (roundrect_rratio 0.25))
  (pad 17 smd roundrect (at 2.45 -0.975) (size 0.85 0.3) (layers F.Cu F.Mask F.Paste) (roundrect_rratio 0.25))
  (pad 18 smd custom (at 2.45 -1.625) (size 0.193934 0.193934) (layers F.Cu F.Mask F.Paste)
    (options (clearance outline) (anchor circle))
    (primitives
      (gr_poly (pts
         (xy -0.35 0.031066) (xy -0.243934 -0.075) (xy 0.35 -0.075) (xy 0.35 0.075)
         (xy -0.35 0.075)) (width 0.15))
    ))
  (pad 19 smd custom (at 1.625 -2.45) (size 0.193934 0.193934) (layers F.Cu F.Mask F.Paste)
    (options (clearance outline) (anchor circle))
    (primitives
      (gr_poly (pts
         (xy -0.075 -0.35) (xy 0.075 -0.35) (xy 0.075 0.243934) (xy -0.031066 0.35)
         (xy -0.075 0.35)) (width 0.15))
    ))
  (pad 20 smd roundrect (at 0.975 -2.45) (size 0.3 0.85) (layers F.Cu F.Mask F.Paste) (roundrect_rratio 0.25))
  (pad 21 smd roundrect (at 0.325 -2.45) (size 0.3 0.85) (layers F.Cu F.Mask F.Paste) (roundrect_rratio 0.25))
  (pad 22 smd roundrect (at -0.325 -2.45) (size 0.3 0.85) (layers F.Cu F.Mask F.Paste) (roundrect_rratio 0.25))
  (pad 23 smd roundrect (at -0.975 -2.45) (size 0.3 0.85) (layers F.Cu F.Mask F.Paste) (roundrect_rratio 0.25))
  (pad 24 smd custom (at -1.625 -2.45) (size 0.193934 0.193934) (layers F.Cu F.Mask F.Paste)
    (options (clearance outline) (anchor circle))
    (primitives
      (gr_poly (pts
         (xy -0.075 -0.35) (xy 0.075 -0.35) (xy 0.075 0.35) (xy 0.031066 0.35)
         (xy -0.075 0.243934)) (width 0.15))
    ))
  (pad 25 smd rect (at 0 0) (size 3.25 3.25) (property pad_prop_heatsink) (layers F.Cu F.Mask)
    (zone_connect 2))
  (pad 25 thru_hole circle (at -1.1 -1.1) (size 0.5 0.5) (drill 0.2) (property pad_prop_heatsink) (layers *.Cu))
  (pad 25 thru_hole circle (at 0 -1.1) (size 0.5 0.5) (drill 0.2) (property pad_prop_heatsink) (layers *.Cu))
  (pad 25 thru_hole circle (at 1.1 -1.1) (size 0.5 0.5) (drill 0.2) (property pad_prop_heatsink) (layers *.Cu))
  (pad 25 thru_hole circle (at -1.1 0) (size 0.5 0.5) (drill 0.2) (property pad_prop_heatsink) (layers *.Cu))
  (pad 25 thru_hole circle (at 0 0) (size 0.5 0.5) (drill 0.2) (property pad_prop_heatsink) (layers *.Cu))
  (pad 25 thru_hole circle (at 1.1 0) (size 0.5 0.5) (drill 0.2) (property pad_prop_heatsink) (layers *.Cu))
  (pad 25 thru_hole circle (at -1.1 1.1) (size 0.5 0.5) (drill 0.2) (property pad_prop_heatsink) (layers *.Cu))
  (pad 25 thru_hole circle (at 0 1.1) (size 0.5 0.5) (drill 0.2) (property pad_prop_heatsink) (layers *.Cu))
  (pad 25 thru_hole circle (at 1.1 1.1) (size 0.5 0.5) (drill 0.2) (property pad_prop_heatsink) (layers *.Cu))
  (pad 25 smd rect (at 0 0) (size 2.7 2.7) (property pad_prop_heatsink) (layers B.Cu)
    (zone_connect 2))
  (pad "" smd roundrect (at -0.55 -0.55) (size 0.886848 0.886848) (layers F.Paste) (roundrect_rratio 0.25))
  (pad "" smd roundrect (at -0.55 0.55) (size 0.886848 0.886848) (layers F.Paste) (roundrect_rratio 0.25))
  (pad "" smd roundrect (at 0.55 -0.55) (size 0.886848 0.886848) (layers F.Paste) (roundrect_rratio 0.25))
  (pad "" smd roundrect (at 0.55 0.55) (size 0.886848 0.886848) (layers F.Paste) (roundrect_rratio 0.25))
  (pad "" smd custom (at -1.3625 -0.55) (size 0.334597 0.334597) (layers F.Paste)
    (options (clearance outline) (anchor circle))
    (primitives
      (gr_poly (pts
         (xy -0.122962 -0.354752) (xy 0.049504 -0.354752) (xy 0.122962 -0.281294) (xy 0.122962 0.281294)
         (xy 0.049504 0.354752) (xy -0.122962 0.354752)) (width 0.177344))
    ))
  (pad "" smd custom (at -1.3625 0.55) (size 0.334597 0.334597) (layers F.Paste)
    (options (clearance outline) (anchor circle))
    (primitives
      (gr_poly (pts
         (xy -0.122962 -0.354752) (xy 0.049504 -0.354752) (xy 0.122962 -0.281294) (xy 0.122962 0.281294)
         (xy 0.049504 0.354752) (xy -0.122962 0.354752)) (width 0.177344))
    ))
  (pad "" smd custom (at 1.3625 -0.55) (size 0.334597 0.334597) (layers F.Paste)
    (options (clearance outline) (anchor circle))
    (primitives
      (gr_poly (pts
         (xy -0.122962 -0.281294) (xy -0.049504 -0.354752) (xy 0.122962 -0.354752) (xy 0.122962 0.354752)
         (xy -0.049504 0.354752) (xy -0.122962 0.281294)) (width 0.177344))
    ))
  (pad "" smd custom (at 1.3625 0.55) (size 0.334597 0.334597) (layers F.Paste)
    (options (clearance outline) (anchor circle))
    (primitives
      (gr_poly (pts
         (xy -0.122962 -0.281294) (xy -0.049504 -0.354752) (xy 0.122962 -0.354752) (xy 0.122962 0.354752)
         (xy -0.049504 0.354752) (xy -0.122962 0.281294)) (width 0.177344))
    ))
  (pad "" smd custom (at -0.55 -1.3625) (size 0.334597 0.334597) (layers F.Paste)
    (options (clearance outline) (anchor circle))
    (primitives
      (gr_poly (pts
         (xy -0.354752 -0.122962) (xy 0.354752 -0.122962) (xy 0.354752 0.049504) (xy 0.281294 0.122962)
         (xy -0.281294 0.122962) (xy -0.354752 0.049504)) (width 0.177344))
    ))
  (pad "" smd custom (at 0.55 -1.3625) (size 0.334597 0.334597) (layers F.Paste)
    (options (clearance outline) (anchor circle))
    (primitives
      (gr_poly (pts
         (xy -0.354752 -0.122962) (xy 0.354752 -0.122962) (xy 0.354752 0.049504) (xy 0.281294 0.122962)
         (xy -0.281294 0.122962) (xy -0.354752 0.049504)) (width 0.177344))
    ))
  (pad "" smd custom (at -0.55 1.3625) (size 0.334597 0.334597) (layers F.Paste)
    (options (clearance outline) (anchor circle))
    (primitives
      (gr_poly (pts
         (xy -0.354752 -0.049504) (xy -0.281294 -0.122962) (xy 0.281294 -0.122962) (xy 0.354752 -0.049504)
         (xy 0.354752 0.122962) (xy -0.354752 0.122962)) (width 0.177344))
    ))
  (pad "" smd custom (at 0.55 1.3625) (size 0.334597 0.334597) (layers F.Paste)
    (options (clearance outline) (anchor circle))
    (primitives
      (gr_poly (pts
         (xy -0.354752 -0.049504) (xy -0.281294 -0.122962) (xy 0.281294 -0.122962) (xy 0.354752 -0.049504)
         (xy 0.354752 0.122962) (xy -0.354752 0.122962)) (width 0.177344))
    ))
  (pad "" smd custom (at -1.3625 -1.3625) (size 0.295204 0.295204) (layers F.Paste)
    (options (clearance outline) (anchor circle))
    (primitives
      (gr_poly (pts
         (xy -0.105817 -0.105817) (xy 0.105817 -0.105817) (xy 0.105817 -0.013308) (xy -0.013308 0.105817)
         (xy -0.105817 0.105817)) (width 0.211634))
    ))
  (pad "" smd custom (at -1.3625 1.3625) (size 0.295204 0.295204) (layers F.Paste)
    (options (clearance outline) (anchor circle))
    (primitives
      (gr_poly (pts
         (xy -0.105817 -0.105817) (xy -0.013308 -0.105817) (xy 0.105817 0.013308) (xy 0.105817 0.105817)
         (xy -0.105817 0.105817)) (width 0.211634))
    ))
  (pad "" smd custom (at 1.3625 -1.3625) (size 0.295204 0.295204) (layers F.Paste)
    (options (clearance outline) (anchor circle))
    (primitives
      (gr_poly (pts
         (xy -0.105817 -0.105817) (xy 0.105817 -0.105817) (xy 0.105817 0.105817) (xy 0.013308 0.105817)
         (xy -0.105817 -0.013308)) (width 0.211634))
    ))
  (pad "" smd custom (at 1.3625 1.3625) (size 0.295204 0.295204) (layers F.Paste)
    (options (clearance outline) (anchor circle))
    (primitives
      (gr_poly (pts
         (xy -0.105817 0.013308) (xy 0.013308 -0.105817) (xy 0.105817 -0.105817) (xy 0.105817 0.105817)
         (xy -0.105817 0.105817)) (width 0.211634))
    ))
  (fp_poly (pts (xy -2.61 -2.61) (xy -2.79 -2.862) (xy -2.43 -2.862) (xy -2.61 -2.61))
    (stroke (width 0.12) (type solid)) (fill solid) (layer F.SilkS))
  (fp_text user ${REFERENCE} (at 0 0) (layer F.Fab)
    (effects (font (size 1 1) (thickness 0.15)))
  )
  (model ${KICAD7_3DMODEL_DIR}/Package_DFN_QFN.3dshapes/QFN-24-1EP_5x5mm_P0.65mm_EP3.25x3.25mm.wrl
    (offset (xyz 0 0 0))
    (scale (xyz 1 1 1))
    (rotate (xyz 0 0 0))
  )
)
