(footprint QFN-28-1EP_5x6mm_P0.5mm_EP3.65x4.65mm (version 20221018) (generator kicad-footprint-generator)
  (layer F.Cu)
  (descr "QFN, 28 Pin (http://www.analog.com/media/en/package-pcb-resources/package/pkg_pdf/ltc-legacy-qfn/05081932_0_UHE28.pdf), generated with kicad-footprint-generator ipc_noLead_generator.py")
  (tags "QFN NoLead")
  (attr smd)
  (fp_text reference REF** (at 0 -4.33) (layer F.SilkS)
    (effects (font (size 1 1) (thickness 0.15)))
  )
  (fp_text value QFN-28-1EP_5x6mm_P0.5mm_EP3.65x4.65mm (at 0 4.33) (layer F.Fab)
    (effects (font (size 1 1) (thickness 0.15)))
  )
  (fp_line (start -1.635 -3.11) (end -2.31 -3.11)
    (stroke (width 0.12) (type solid)) (layer F.SilkS))
  (fp_line (start -2.61 -2.135) (end -2.61 -2.87)
    (stroke (width 0.12) (type solid)) (layer F.SilkS))
  (fp_line (start 1.635 -3.11) (end 2.61 -3.11)
    (stroke (width 0.12) (type solid)) (layer F.SilkS))
  (fp_line (start 2.61 -3.11) (end 2.61 -2.135)
    (stroke (width 0.12) (type solid)) (layer F.SilkS))
  (fp_line (start -1.635 3.11) (end -2.61 3.11)
    (stroke (width 0.12) (type solid)) (layer F.SilkS))
  (fp_line (start -2.61 3.11) (end -2.61 2.135)
    (stroke (width 0.12) (type solid)) (layer F.SilkS))
  (fp_line (start 1.635 3.11) (end 2.61 3.11)
    (stroke (width 0.12) (type solid)) (layer F.SilkS))
  (fp_line (start 2.61 3.11) (end 2.61 2.135)
    (stroke (width 0.12) (type solid)) (layer F.SilkS))
  (fp_line (start -1.5 -3) (end 2.5 -3)
    (stroke (width 0.1) (type solid)) (layer F.Fab))
  (fp_line (start 2.5 -3) (end 2.5 3)
    (stroke (width 0.1) (type solid)) (layer F.Fab))
  (fp_line (start 2.5 3) (end -2.5 3)
    (stroke (width 0.1) (type solid)) (layer F.Fab))
  (fp_line (start -2.5 3) (end -2.5 -2)
    (stroke (width 0.1) (type solid)) (layer F.Fab))
  (fp_line (start -2.5 -2) (end -1.5 -3)
    (stroke (width 0.1) (type solid)) (layer F.Fab))
  (fp_line (start -3.13 -3.63) (end -3.13 3.63)
    (stroke (width 0.05) (type solid)) (layer F.CrtYd))
  (fp_line (start -3.13 3.63) (end 3.13 3.63)
    (stroke (width 0.05) (type solid)) (layer F.CrtYd))
  (fp_line (start 3.13 3.63) (end 3.13 -3.63)
    (stroke (width 0.05) (type solid)) (layer F.CrtYd))
  (fp_line (start 3.13 -3.63) (end -3.13 -3.63)
    (stroke (width 0.05) (type solid)) (layer F.CrtYd))
  (pad 1 smd roundrect (at -2.45 -1.75) (size 0.85 0.25) (layers F.Cu F.Mask F.Paste) (roundrect_rratio 0.25))
  (pad 2 smd roundrect (at -2.45 -1.25) (size 0.85 0.25) (layers F.Cu F.Mask F.Paste) (roundrect_rratio 0.25))
  (pad 3 smd roundrect (at -2.45 -0.75) (size 0.85 0.25) (layers F.Cu F.Mask F.Paste) (roundrect_rratio 0.25))
  (pad 4 smd roundrect (at -2.45 -0.25) (size 0.85 0.25) (layers F.Cu F.Mask F.Paste) (roundrect_rratio 0.25))
  (pad 5 smd roundrect (at -2.45 0.25) (size 0.85 0.25) (layers F.Cu F.Mask F.Paste) (roundrect_rratio 0.25))
  (pad 6 smd roundrect (at -2.45 0.75) (size 0.85 0.25) (layers F.Cu F.Mask F.Paste) (roundrect_rratio 0.25))
  (pad 7 smd roundrect (at -2.45 1.25) (size 0.85 0.25) (layers F.Cu F.Mask F.Paste) (roundrect_rratio 0.25))
  (pad 8 smd roundrect (at -2.45 1.75) (size 0.85 0.25) (layers F.Cu F.Mask F.Paste) (roundrect_rratio 0.25))
  (pad 9 smd roundrect (at -1.25 2.95) (size 0.25 0.85) (layers F.Cu F.Mask F.Paste) (roundrect_rratio 0.25))
  (pad 10 smd roundrect (at -0.75 2.95) (size 0.25 0.85) (layers F.Cu F.Mask F.Paste) (roundrect_rratio 0.25))
  (pad 11 smd roundrect (at -0.25 2.95) (size 0.25 0.85) (layers F.Cu F.Mask F.Paste) (roundrect_rratio 0.25))
  (pad 12 smd roundrect (at 0.25 2.95) (size 0.25 0.85) (layers F.Cu F.Mask F.Paste) (roundrect_rratio 0.25))
  (pad 13 smd roundrect (at 0.75 2.95) (size 0.25 0.85) (layers F.Cu F.Mask F.Paste) (roundrect_rratio 0.25))
  (pad 14 smd roundrect (at 1.25 2.95) (size 0.25 0.85) (layers F.Cu F.Mask F.Paste) (roundrect_rratio 0.25))
  (pad 15 smd roundrect (at 2.45 1.75) (size 0.85 0.25) (layers F.Cu F.Mask F.Paste) (roundrect_rratio 0.25))
  (pad 16 smd roundrect (at 2.45 1.25) (size 0.85 0.25) (layers F.Cu F.Mask F.Paste) (roundrect_rratio 0.25))
  (pad 17 smd roundrect (at 2.45 0.75) (size 0.85 0.25) (layers F.Cu F.Mask F.Paste) (roundrect_rratio 0.25))
  (pad 18 smd roundrect (at 2.45 0.25) (size 0.85 0.25) (layers F.Cu F.Mask F.Paste) (roundrect_rratio 0.25))
  (pad 19 smd roundrect (at 2.45 -0.25) (size 0.85 0.25) (layers F.Cu F.Mask F.Paste) (roundrect_rratio 0.25))
  (pad 20 smd roundrect (at 2.45 -0.75) (size 0.85 0.25) (layers F.Cu F.Mask F.Paste) (roundrect_rratio 0.25))
  (pad 21 smd roundrect (at 2.45 -1.25) (size 0.85 0.25) (layers F.Cu F.Mask F.Paste) (roundrect_rratio 0.25))
  (pad 22 smd roundrect (at 2.45 -1.75) (size 0.85 0.25) (layers F.Cu F.Mask F.Paste) (roundrect_rratio 0.25))
  (pad 23 smd roundrect (at 1.25 -2.95) (size 0.25 0.85) (layers F.Cu F.Mask F.Paste) (roundrect_rratio 0.25))
  (pad 24 smd roundrect (at 0.75 -2.95) (size 0.25 0.85) (layers F.Cu F.Mask F.Paste) (roundrect_rratio 0.25))
  (pad 25 smd roundrect (at 0.25 -2.95) (size 0.25 0.85) (layers F.Cu F.Mask F.Paste) (roundrect_rratio 0.25))
  (pad 26 smd roundrect (at -0.25 -2.95) (size 0.25 0.85) (layers F.Cu F.Mask F.Paste) (roundrect_rratio 0.25))
  (pad 27 smd roundrect (at -0.75 -2.95) (size 0.25 0.85) (layers F.Cu F.Mask F.Paste) (roundrect_rratio 0.25))
  (pad 28 smd roundrect (at -1.25 -2.95) (size 0.25 0.85) (layers F.Cu F.Mask F.Paste) (roundrect_rratio 0.25))
  (pad 29 smd rect (at 0 0) (size 3.65 4.65) (property pad_prop_heatsink) (layers F.Cu F.Mask)
    (zone_connect 2))
  (pad "" smd roundrect (at -1.22 -1.74) (size 0.98 0.94) (layers F.Paste) (roundrect_rratio 0.25))
  (pad "" smd roundrect (at -1.22 -0.58) (size 0.98 0.94) (layers F.Paste) (roundrect_rratio 0.25))
  (pad "" smd roundrect (at -1.22 0.58) (size 0.98 0.94) (layers F.Paste) (roundrect_rratio 0.25))
  (pad "" smd roundrect (at -1.22 1.74) (size 0.98 0.94) (layers F.Paste) (roundrect_rratio 0.25))
  (pad "" smd roundrect (at 0 -1.74) (size 0.98 0.94) (layers F.Paste) (roundrect_rratio 0.25))
  (pad "" smd roundrect (at 0 -0.58) (size 0.98 0.94) (layers F.Paste) (roundrect_rratio 0.25))
  (pad "" smd roundrect (at 0 0.58) (size 0.98 0.94) (layers F.Paste) (roundrect_rratio 0.25))
  (pad "" smd roundrect (at 0 1.74) (size 0.98 0.94) (layers F.Paste) (roundrect_rratio 0.25))
  (pad "" smd roundrect (at 1.22 -1.74) (size 0.98 0.94) (layers F.Paste) (roundrect_rratio 0.25))
  (pad "" smd roundrect (at 1.22 -0.58) (size 0.98 0.94) (layers F.Paste) (roundrect_rratio 0.25))
  (pad "" smd roundrect (at 1.22 0.58) (size 0.98 0.94) (layers F.Paste) (roundrect_rratio 0.25))
  (pad "" smd roundrect (at 1.22 1.74) (size 0.98 0.94) (layers F.Paste) (roundrect_rratio 0.25))
  (fp_poly (pts (xy -2.61 -3.11) (xy -2.79 -3.362) (xy -2.43 -3.362) (xy -2.61 -3.11))
    (stroke (width 0.12) (type solid)) (fill solid) (layer F.SilkS))
  (fp_text user ${REFERENCE} (at 0 0) (layer F.Fab)
    (effects (font (size 1 1) (thickness 0.15)))
  )
  (model ${KICAD7_3DMODEL_DIR}/Package_DFN_QFN.3dshapes/QFN-28-1EP_5x6mm_P0.5mm_EP3.65x4.65mm.wrl
    (offset (xyz 0 0 0))
    (scale (xyz 1 1 1))
    (rotate (xyz 0 0 0))
  )
)
