(footprint QFN-64-1EP_9x9mm_P0.5mm_EP7.65x7.65mm_ThermalVias (version 20221018) (generator kicad-footprint-generator)
  (layer F.Cu)
  (descr "QFN, 64 Pin (http://ww1.microchip.com/downloads/en/DeviceDoc/Atmel-2549-8-bit-AVR-Microcontroller-ATmega640-1280-1281-2560-2561_datasheet.pdf (page 415)), generated with kicad-footprint-generator ipc_noLead_generator.py")
  (tags "QFN NoLead")
  (attr smd)
  (fp_text reference REF** (at 0 -5.83) (layer F.SilkS)
    (effects (font (size 1 1) (thickness 0.15)))
  )
  (fp_text value QFN-64-1EP_9x9mm_P0.5mm_EP7.65x7.65mm_ThermalVias (at 0 5.83) (layer F.Fab)
    (effects (font (size 1 1) (thickness 0.15)))
  )
  (fp_line (start -4.135 -4.61) (end -4.31 -4.61)
    (stroke (width 0.12) (type solid)) (layer F.SilkS))
  (fp_line (start -4.61 -4.135) (end -4.61 -4.37)
    (stroke (width 0.12) (type solid)) (layer F.SilkS))
  (fp_line (start 4.135 -4.61) (end 4.61 -4.61)
    (stroke (width 0.12) (type solid)) (layer F.SilkS))
  (fp_line (start 4.61 -4.61) (end 4.61 -4.135)
    (stroke (width 0.12) (type solid)) (layer F.SilkS))
  (fp_line (start -4.135 4.61) (end -4.61 4.61)
    (stroke (width 0.12) (type solid)) (layer F.SilkS))
  (fp_line (start -4.61 4.61) (end -4.61 4.135)
    (stroke (width 0.12) (type solid)) (layer F.SilkS))
  (fp_line (start 4.135 4.61) (end 4.61 4.61)
    (stroke (width 0.12) (type solid)) (layer F.SilkS))
  (fp_line (start 4.61 4.61) (end 4.61 4.135)
    (stroke (width 0.12) (type solid)) (layer F.SilkS))
  (fp_line (start -3.5 -4.5) (end 4.5 -4.5)
    (stroke (width 0.1) (type solid)) (layer F.Fab))
  (fp_line (start 4.5 -4.5) (end 4.5 4.5)
    (stroke (width 0.1) (type solid)) (layer F.Fab))
  (fp_line (start 4.5 4.5) (end -4.5 4.5)
    (stroke (width 0.1) (type solid)) (layer F.Fab))
  (fp_line (start -4.5 4.5) (end -4.5 -3.5)
    (stroke (width 0.1) (type solid)) (layer F.Fab))
  (fp_line (start -4.5 -3.5) (end -3.5 -4.5)
    (stroke (width 0.1) (type solid)) (layer F.Fab))
  (fp_line (start -5.13 -5.13) (end -5.13 5.13)
    (stroke (width 0.05) (type solid)) (layer F.CrtYd))
  (fp_line (start -5.13 5.13) (end 5.13 5.13)
    (stroke (width 0.05) (type solid)) (layer F.CrtYd))
  (fp_line (start 5.13 5.13) (end 5.13 -5.13)
    (stroke (width 0.05) (type solid)) (layer F.CrtYd))
  (fp_line (start 5.13 -5.13) (end -5.13 -5.13)
    (stroke (width 0.05) (type solid)) (layer F.CrtYd))
  (pad 1 smd roundrect (at -4.45 -3.75) (size 0.85 0.25) (layers F.Cu F.Mask F.Paste) (roundrect_rratio 0.25))
  (pad 2 smd roundrect (at -4.45 -3.25) (size 0.85 0.25) (layers F.Cu F.Mask F.Paste) (roundrect_rratio 0.25))
  (pad 3 smd roundrect (at -4.45 -2.75) (size 0.85 0.25) (layers F.Cu F.Mask F.Paste) (roundrect_rratio 0.25))
  (pad 4 smd roundrect (at -4.45 -2.25) (size 0.85 0.25) (layers F.Cu F.Mask F.Paste) (roundrect_rratio 0.25))
  (pad 5 smd roundrect (at -4.45 -1.75) (size 0.85 0.25) (layers F.Cu F.Mask F.Paste) (roundrect_rratio 0.25))
  (pad 6 smd roundrect (at -4.45 -1.25) (size 0.85 0.25) (layers F.Cu F.Mask F.Paste) (roundrect_rratio 0.25))
  (pad 7 smd roundrect (at -4.45 -0.75) (size 0.85 0.25) (layers F.Cu F.Mask F.Paste) (roundrect_rratio 0.25))
  (pad 8 smd roundrect (at -4.45 -0.25) (size 0.85 0.25) (layers F.Cu F.Mask F.Paste) (roundrect_rratio 0.25))
  (pad 9 smd roundrect (at -4.45 0.25) (size 0.85 0.25) (layers F.Cu F.Mask F.Paste) (roundrect_rratio 0.25))
  (pad 10 smd roundrect (at -4.45 0.75) (size 0.85 0.25) (layers F.Cu F.Mask F.Paste) (roundrect_rratio 0.25))
  (pad 11 smd roundrect (at -4.45 1.25) (size 0.85 0.25) (layers F.Cu F.Mask F.Paste) (roundrect_rratio 0.25))
  (pad 12 smd roundrect (at -4.45 1.75) (size 0.85 0.25) (layers F.Cu F.Mask F.Paste) (roundrect_rratio 0.25))
  (pad 13 smd roundrect (at -4.45 2.25) (size 0.85 0.25) (layers F.Cu F.Mask F.Paste) (roundrect_rratio 0.25))
  (pad 14 smd roundrect (at -4.45 2.75) (size 0.85 0.25) (layers F.Cu F.Mask F.Paste) (roundrect_rratio 0.25))
  (pad 15 smd roundrect (at -4.45 3.25) (size 0.85 0.25) (layers F.Cu F.Mask F.Paste) (roundrect_rratio 0.25))
  (pad 16 smd roundrect (at -4.45 3.75) (size 0.85 0.25) (layers F.Cu F.Mask F.Paste) (roundrect_rratio 0.25))
  (pad 17 smd roundrect (at -3.75 4.45) (size 0.25 0.85) (layers F.Cu F.Mask F.Paste) (roundrect_rratio 0.25))
  (pad 18 smd roundrect (at -3.25 4.45) (size 0.25 0.85) (layers F.Cu F.Mask F.Paste) (roundrect_rratio 0.25))
  (pad 19 smd roundrect (at -2.75 4.45) (size 0.25 0.85) (layers F.Cu F.Mask F.Paste) (roundrect_rratio 0.25))
  (pad 20 smd roundrect (at -2.25 4.45) (size 0.25 0.85) (layers F.Cu F.Mask F.Paste) (roundrect_rratio 0.25))
  (pad 21 smd roundrect (at -1.75 4.45) (size 0.25 0.85) (layers F.Cu F.Mask F.Paste) (roundrect_rratio 0.25))
  (pad 22 smd roundrect (at -1.25 4.45) (size 0.25 0.85) (layers F.Cu F.Mask F.Paste) (roundrect_rratio 0.25))
  (pad 23 smd roundrect (at -0.75 4.45) (size 0.25 0.85) (layers F.Cu F.Mask F.Paste) (roundrect_rratio 0.25))
  (pad 24 smd roundrect (at -0.25 4.45) (size 0.25 0.85) (layers F.Cu F.Mask F.Paste) (roundrect_rratio 0.25))
  (pad 25 smd roundrect (at 0.25 4.45) (size 0.25 0.85) (layers F.Cu F.Mask F.Paste) (roundrect_rratio 0.25))
  (pad 26 smd roundrect (at 0.75 4.45) (size 0.25 0.85) (layers F.Cu F.Mask F.Paste) (roundrect_rratio 0.25))
  (pad 27 smd roundrect (at 1.25 4.45) (size 0.25 0.85) (layers F.Cu F.Mask F.Paste) (roundrect_rratio 0.25))
  (pad 28 smd roundrect (at 1.75 4.45) (size 0.25 0.85) (layers F.Cu F.Mask F.Paste) (roundrect_rratio 0.25))
  (pad 29 smd roundrect (at 2.25 4.45) (size 0.25 0.85) (layers F.Cu F.Mask F.Paste) (roundrect_rratio 0.25))
  (pad 30 smd roundrect (at 2.75 4.45) (size 0.25 0.85) (layers F.Cu F.Mask F.Paste) (roundrect_rratio 0.25))
  (pad 31 smd roundrect (at 3.25 4.45) (size 0.25 0.85) (layers F.Cu F.Mask F.Paste) (roundrect_rratio 0.25))
  (pad 32 smd roundrect (at 3.75 4.45) (size 0.25 0.85) (layers F.Cu F.Mask F.Paste) (roundrect_rratio 0.25))
  (pad 33 smd roundrect (at 4.45 3.75) (size 0.85 0.25) (layers F.Cu F.Mask F.Paste) (roundrect_rratio 0.25))
  (pad 34 smd roundrect (at 4.45 3.25) (size 0.85 0.25) (layers F.Cu F.Mask F.Paste) (roundrect_rratio 0.25))
  (pad 35 smd roundrect (at 4.45 2.75) (size 0.85 0.25) (layers F.Cu F.Mask F.Paste) (roundrect_rratio 0.25))
  (pad 36 smd roundrect (at 4.45 2.25) (size 0.85 0.25) (layers F.Cu F.Mask F.Paste) (roundrect_rratio 0.25))
  (pad 37 smd roundrect (at 4.45 1.75) (size 0.85 0.25) (layers F.Cu F.Mask F.Paste) (roundrect_rratio 0.25))
  (pad 38 smd roundrect (at 4.45 1.25) (size 0.85 0.25) (layers F.Cu F.Mask F.Paste) (roundrect_rratio 0.25))
  (pad 39 smd roundrect (at 4.45 0.75) (size 0.85 0.25) (layers F.Cu F.Mask F.Paste) (roundrect_rratio 0.25))
  (pad 40 smd roundrect (at 4.45 0.25) (size 0.85 0.25) (layers F.Cu F.Mask F.Paste) (roundrect_rratio 0.25))
  (pad 41 smd roundrect (at 4.45 -0.25) (size 0.85 0.25) (layers F.Cu F.Mask F.Paste) (roundrect_rratio 0.25))
  (pad 42 smd roundrect (at 4.45 -0.75) (size 0.85 0.25) (layers F.Cu F.Mask F.Paste) (roundrect_rratio 0.25))
  (pad 43 smd roundrect (at 4.45 -1.25) (size 0.85 0.25) (layers F.Cu F.Mask F.Paste) (roundrect_rratio 0.25))
  (pad 44 smd roundrect (at 4.45 -1.75) (size 0.85 0.25) (layers F.Cu F.Mask F.Paste) (roundrect_rratio 0.25))
  (pad 45 smd roundrect (at 4.45 -2.25) (size 0.85 0.25) (layers F.Cu F.Mask F.Paste) (roundrect_rratio 0.25))
  (pad 46 smd roundrect (at 4.45 -2.75) (size 0.85 0.25) (layers F.Cu F.Mask F.Paste) (roundrect_rratio 0.25))
  (pad 47 smd roundrect (at 4.45 -3.25) (size 0.85 0.25) (layers F.Cu F.Mask F.Paste) (roundrect_rratio 0.25))
  (pad 48 smd roundrect (at 4.45 -3.75) (size 0.85 0.25) (layers F.Cu F.Mask F.Paste) (roundrect_rratio 0.25))
  (pad 49 smd roundrect (at 3.75 -4.45) (size 0.25 0.85) (layers F.Cu F.Mask F.Paste) (roundrect_rratio 0.25))
  (pad 50 smd roundrect (at 3.25 -4.45) (size 0.25 0.85) (layers F.Cu F.Mask F.Paste) (roundrect_rratio 0.25))
  (pad 51 smd roundrect (at 2.75 -4.45) (size 0.25 0.85) (layers F.Cu F.Mask F.Paste) (roundrect_rratio 0.25))
  (pad 52 smd roundrect (at 2.25 -4.45) (size 0.25 0.85) (layers F.Cu F.Mask F.Paste) (roundrect_rratio 0.25))
  (pad 53 smd roundrect (at 1.75 -4.45) (size 0.25 0.85) (layers F.Cu F.Mask F.Paste) (roundrect_rratio 0.25))
  (pad 54 smd roundrect (at 1.25 -4.45) (size 0.25 0.85) (layers F.Cu F.Mask F.Paste) (roundrect_rratio 0.25))
  (pad 55 smd roundrect (at 0.75 -4.45) (size 0.25 0.85) (layers F.Cu F.Mask F.Paste) (roundrect_rratio 0.25))
  (pad 56 smd roundrect (at 0.25 -4.45) (size 0.25 0.85) (layers F.Cu F.Mask F.Paste) (roundrect_rratio 0.25))
  (pad 57 smd roundrect (at -0.25 -4.45) (size 0.25 0.85) (layers F.Cu F.Mask F.Paste) (roundrect_rratio 0.25))
  (pad 58 smd roundrect (at -0.75 -4.45) (size 0.25 0.85) (layers F.Cu F.Mask F.Paste) (roundrect_rratio 0.25))
  (pad 59 smd roundrect (at -1.25 -4.45) (size 0.25 0.85) (layers F.Cu F.Mask F.Paste) (roundrect_rratio 0.25))
  (pad 60 smd roundrect (at -1.75 -4.45) (size 0.25 0.85) (layers F.Cu F.Mask F.Paste) (roundrect_rratio 0.25))
  (pad 61 smd roundrect (at -2.25 -4.45) (size 0.25 0.85) (layers F.Cu F.Mask F.Paste) (roundrect_rratio 0.25))
  (pad 62 smd roundrect (at -2.75 -4.45) (size 0.25 0.85) (layers F.Cu F.Mask F.Paste) (roundrect_rratio 0.25))
  (pad 63 smd roundrect (at -3.25 -4.45) (size 0.25 0.85) (layers F.Cu F.Mask F.Paste) (roundrect_rratio 0.25))
  (pad 64 smd roundrect (at -3.75 -4.45) (size 0.25 0.85) (layers F.Cu F.Mask F.Paste) (roundrect_rratio 0.25))
  (pad 65 smd rect (at 0 0) (size 7.65 7.65) (property pad_prop_heatsink) (layers F.Cu F.Mask)
    (zone_connect 2))
  (pad 65 thru_hole circle (at -3.575 -3.575) (size 0.5 0.5) (drill 0.2) (property pad_prop_heatsink) (layers *.Cu))
  (pad 65 thru_hole circle (at -2.383333 -3.575) (size 0.5 0.5) (drill 0.2) (property pad_prop_heatsink) (layers *.Cu))
  (pad 65 thru_hole circle (at -1.191667 -3.575) (size 0.5 0.5) (drill 0.2) (property pad_prop_heatsink) (layers *.Cu))
  (pad 65 thru_hole circle (at 0 -3.575) (size 0.5 0.5) (drill 0.2) (property pad_prop_heatsink) (layers *.Cu))
  (pad 65 thru_hole circle (at 1.191667 -3.575) (size 0.5 0.5) (drill 0.2) (property pad_prop_heatsink) (layers *.Cu))
  (pad 65 thru_hole circle (at 2.383333 -3.575) (size 0.5 0.5) (drill 0.2) (property pad_prop_heatsink) (layers *.Cu))
  (pad 65 thru_hole circle (at 3.575 -3.575) (size 0.5 0.5) (drill 0.2) (property pad_prop_heatsink) (layers *.Cu))
  (pad 65 thru_hole circle (at -3.575 -2.383333) (size 0.5 0.5) (drill 0.2) (property pad_prop_heatsink) (layers *.Cu))
  (pad 65 thru_hole circle (at -2.383333 -2.383333) (size 0.5 0.5) (drill 0.2) (property pad_prop_heatsink) (layers *.Cu))
  (pad 65 thru_hole circle (at -1.191667 -2.383333) (size 0.5 0.5) (drill 0.2) (property pad_prop_heatsink) (layers *.Cu))
  (pad 65 thru_hole circle (at 0 -2.383333) (size 0.5 0.5) (drill 0.2) (property pad_prop_heatsink) (layers *.Cu))
  (pad 65 thru_hole circle (at 1.191667 -2.383333) (size 0.5 0.5) (drill 0.2) (property pad_prop_heatsink) (layers *.Cu))
  (pad 65 thru_hole circle (at 2.383333 -2.383333) (size 0.5 0.5) (drill 0.2) (property pad_prop_heatsink) (layers *.Cu))
  (pad 65 thru_hole circle (at 3.575 -2.383333) (size 0.5 0.5) (drill 0.2) (property pad_prop_heatsink) (layers *.Cu))
  (pad 65 thru_hole circle (at -3.575 -1.191667) (size 0.5 0.5) (drill 0.2) (property pad_prop_heatsink) (layers *.Cu))
  (pad 65 thru_hole circle (at -2.383333 -1.191667) (size 0.5 0.5) (drill 0.2) (property pad_prop_heatsink) (layers *.Cu))
  (pad 65 thru_hole circle (at -1.191667 -1.191667) (size 0.5 0.5) (drill 0.2) (property pad_prop_heatsink) (layers *.Cu))
  (pad 65 thru_hole circle (at 0 -1.191667) (size 0.5 0.5) (drill 0.2) (property pad_prop_heatsink) (layers *.Cu))
  (pad 65 thru_hole circle (at 1.191667 -1.191667) (size 0.5 0.5) (drill 0.2) (property pad_prop_heatsink) (layers *.Cu))
  (pad 65 thru_hole circle (at 2.383333 -1.191667) (size 0.5 0.5) (drill 0.2) (property pad_prop_heatsink) (layers *.Cu))
  (pad 65 thru_hole circle (at 3.575 -1.191667) (size 0.5 0.5) (drill 0.2) (property pad_prop_heatsink) (layers *.Cu))
  (pad 65 thru_hole circle (at -3.575 0) (size 0.5 0.5) (drill 0.2) (property pad_prop_heatsink) (layers *.Cu))
  (pad 65 thru_hole circle (at -2.383333 0) (size 0.5 0.5) (drill 0.2) (property pad_prop_heatsink) (layers *.Cu))
  (pad 65 thru_hole circle (at -1.191667 0) (size 0.5 0.5) (drill 0.2) (property pad_prop_heatsink) (layers *.Cu))
  (pad 65 thru_hole circle (at 0 0) (size 0.5 0.5) (drill 0.2) (property pad_prop_heatsink) (layers *.Cu))
  (pad 65 thru_hole circle (at 1.191667 0) (size 0.5 0.5) (drill 0.2) (property pad_prop_heatsink) (layers *.Cu))
  (pad 65 thru_hole circle (at 2.383333 0) (size 0.5 0.5) (drill 0.2) (property pad_prop_heatsink) (layers *.Cu))
  (pad 65 thru_hole circle (at 3.575 0) (size 0.5 0.5) (drill 0.2) (property pad_prop_heatsink) (layers *.Cu))
  (pad 65 thru_hole circle (at -3.575 1.191667) (size 0.5 0.5) (drill 0.2) (property pad_prop_heatsink) (layers *.Cu))
  (pad 65 thru_hole circle (at -2.383333 1.191667) (size 0.5 0.5) (drill 0.2) (property pad_prop_heatsink) (layers *.Cu))
  (pad 65 thru_hole circle (at -1.191667 1.191667) (size 0.5 0.5) (drill 0.2) (property pad_prop_heatsink) (layers *.Cu))
  (pad 65 thru_hole circle (at 0 1.191667) (size 0.5 0.5) (drill 0.2) (property pad_prop_heatsink) (layers *.Cu))
  (pad 65 thru_hole circle (at 1.191667 1.191667) (size 0.5 0.5) (drill 0.2) (property pad_prop_heatsink) (layers *.Cu))
  (pad 65 thru_hole circle (at 2.383333 1.191667) (size 0.5 0.5) (drill 0.2) (property pad_prop_heatsink) (layers *.Cu))
  (pad 65 thru_hole circle (at 3.575 1.191667) (size 0.5 0.5) (drill 0.2) (property pad_prop_heatsink) (layers *.Cu))
  (pad 65 thru_hole circle (at -3.575 2.383333) (size 0.5 0.5) (drill 0.2) (property pad_prop_heatsink) (layers *.Cu))
  (pad 65 thru_hole circle (at -2.383333 2.383333) (size 0.5 0.5) (drill 0.2) (property pad_prop_heatsink) (layers *.Cu))
  (pad 65 thru_hole circle (at -1.191667 2.383333) (size 0.5 0.5) (drill 0.2) (property pad_prop_heatsink) (layers *.Cu))
  (pad 65 thru_hole circle (at 0 2.383333) (size 0.5 0.5) (drill 0.2) (property pad_prop_heatsink) (layers *.Cu))
  (pad 65 thru_hole circle (at 1.191667 2.383333) (size 0.5 0.5) (drill 0.2) (property pad_prop_heatsink) (layers *.Cu))
  (pad 65 thru_hole circle (at 2.383333 2.383333) (size 0.5 0.5) (drill 0.2) (property pad_prop_heatsink) (layers *.Cu))
  (pad 65 thru_hole circle (at 3.575 2.383333) (size 0.5 0.5) (drill 0.2) (property pad_prop_heatsink) (layers *.Cu))
  (pad 65 thru_hole circle (at -3.575 3.575) (size 0.5 0.5) (drill 0.2) (property pad_prop_heatsink) (layers *.Cu))
  (pad 65 thru_hole circle (at -2.383333 3.575) (size 0.5 0.5) (drill 0.2) (property pad_prop_heatsink) (layers *.Cu))
  (pad 65 thru_hole circle (at -1.191667 3.575) (size 0.5 0.5) (drill 0.2) (property pad_prop_heatsink) (layers *.Cu))
  (pad 65 thru_hole circle (at 0 3.575) (size 0.5 0.5) (drill 0.2) (property pad_prop_heatsink) (layers *.Cu))
  (pad 65 thru_hole circle (at 1.191667 3.575) (size 0.5 0.5) (drill 0.2) (property pad_prop_heatsink) (layers *.Cu))
  (pad 65 thru_hole circle (at 2.383333 3.575) (size 0.5 0.5) (drill 0.2) (property pad_prop_heatsink) (layers *.Cu))
  (pad 65 thru_hole circle (at 3.575 3.575) (size 0.5 0.5) (drill 0.2) (property pad_prop_heatsink) (layers *.Cu))
  (pad 65 smd rect (at 0 0) (size 7.65 7.65) (property pad_prop_heatsink) (layers B.Cu)
    (zone_connect 2))
  (pad "" smd roundrect (at -2.979167 -2.979167) (size 1.027938 1.027938) (layers F.Paste) (roundrect_rratio 0.243205))
  (pad "" smd roundrect (at -2.979167 -1.7875) (size 1.027938 1.027938) (layers F.Paste) (roundrect_rratio 0.243205))
  (pad "" smd roundrect (at -2.979167 -0.595833) (size 1.027938 1.027938) (layers F.Paste) (roundrect_rratio 0.243205))
  (pad "" smd roundrect (at -2.979167 0.595833) (size 1.027938 1.027938) (layers F.Paste) (roundrect_rratio 0.243205))
  (pad "" smd roundrect (at -2.979167 1.7875) (size 1.027938 1.027938) (layers F.Paste) (roundrect_rratio 0.243205))
  (pad "" smd roundrect (at -2.979167 2.979167) (size 1.027938 1.027938) (layers F.Paste) (roundrect_rratio 0.243205))
  (pad "" smd roundrect (at -1.7875 -2.979167) (size 1.027938 1.027938) (layers F.Paste) (roundrect_rratio 0.243205))
  (pad "" smd roundrect (at -1.7875 -1.7875) (size 1.027938 1.027938) (layers F.Paste) (roundrect_rratio 0.243205))
  (pad "" smd roundrect (at -1.7875 -0.595833) (size 1.027938 1.027938) (layers F.Paste) (roundrect_rratio 0.243205))
  (pad "" smd roundrect (at -1.7875 0.595833) (size 1.027938 1.027938) (layers F.Paste) (roundrect_rratio 0.243205))
  (pad "" smd roundrect (at -1.7875 1.7875) (size 1.027938 1.027938) (layers F.Paste) (roundrect_rratio 0.243205))
  (pad "" smd roundrect (at -1.7875 2.979167) (size 1.027938 1.027938) (layers F.Paste) (roundrect_rratio 0.243205))
  (pad "" smd roundrect (at -0.595833 -2.979167) (size 1.027938 1.027938) (layers F.Paste) (roundrect_rratio 0.243205))
  (pad "" smd roundrect (at -0.595833 -1.7875) (size 1.027938 1.027938) (layers F.Paste) (roundrect_rratio 0.243205))
  (pad "" smd roundrect (at -0.595833 -0.595833) (size 1.027938 1.027938) (layers F.Paste) (roundrect_rratio 0.243205))
  (pad "" smd roundrect (at -0.595833 0.595833) (size 1.027938 1.027938) (layers F.Paste) (roundrect_rratio 0.243205))
  (pad "" smd roundrect (at -0.595833 1.7875) (size 1.027938 1.027938) (layers F.Paste) (roundrect_rratio 0.243205))
  (pad "" smd roundrect (at -0.595833 2.979167) (size 1.027938 1.027938) (layers F.Paste) (roundrect_rratio 0.243205))
  (pad "" smd roundrect (at 0.595833 -2.979167) (size 1.027938 1.027938) (layers F.Paste) (roundrect_rratio 0.243205))
  (pad "" smd roundrect (at 0.595833 -1.7875) (size 1.027938 1.027938) (layers F.Paste) (roundrect_rratio 0.243205))
  (pad "" smd roundrect (at 0.595833 -0.595833) (size 1.027938 1.027938) (layers F.Paste) (roundrect_rratio 0.243205))
  (pad "" smd roundrect (at 0.595833 0.595833) (size 1.027938 1.027938) (layers F.Paste) (roundrect_rratio 0.243205))
  (pad "" smd roundrect (at 0.595833 1.7875) (size 1.027938 1.027938) (layers F.Paste) (roundrect_rratio 0.243205))
  (pad "" smd roundrect (at 0.595833 2.979167) (size 1.027938 1.027938) (layers F.Paste) (roundrect_rratio 0.243205))
  (pad "" smd roundrect (at 1.7875 -2.979167) (size 1.027938 1.027938) (layers F.Paste) (roundrect_rratio 0.243205))
  (pad "" smd roundrect (at 1.7875 -1.7875) (size 1.027938 1.027938) (layers F.Paste) (roundrect_rratio 0.243205))
  (pad "" smd roundrect (at 1.7875 -0.595833) (size 1.027938 1.027938) (layers F.Paste) (roundrect_rratio 0.243205))
  (pad "" smd roundrect (at 1.7875 0.595833) (size 1.027938 1.027938) (layers F.Paste) (roundrect_rratio 0.243205))
  (pad "" smd roundrect (at 1.7875 1.7875) (size 1.027938 1.027938) (layers F.Paste) (roundrect_rratio 0.243205))
  (pad "" smd roundrect (at 1.7875 2.979167) (size 1.027938 1.027938) (layers F.Paste) (roundrect_rratio 0.243205))
  (pad "" smd roundrect (at 2.979167 -2.979167) (size 1.027938 1.027938) (layers F.Paste) (roundrect_rratio 0.243205))
  (pad "" smd roundrect (at 2.979167 -1.7875) (size 1.027938 1.027938) (layers F.Paste) (roundrect_rratio 0.243205))
  (pad "" smd roundrect (at 2.979167 -0.595833) (size 1.027938 1.027938) (layers F.Paste) (roundrect_rratio 0.243205))
  (pad "" smd roundrect (at 2.979167 0.595833) (size 1.027938 1.027938) (layers F.Paste) (roundrect_rratio 0.243205))
  (pad "" smd roundrect (at 2.979167 1.7875) (size 1.027938 1.027938) (layers F.Paste) (roundrect_rratio 0.243205))
  (pad "" smd roundrect (at 2.979167 2.979167) (size 1.027938 1.027938) (layers F.Paste) (roundrect_rratio 0.243205))
  (fp_poly (pts (xy -4.61 -4.61) (xy -4.79 -4.862) (xy -4.43 -4.862) (xy -4.61 -4.61))
    (stroke (width 0.12) (type solid)) (fill solid) (layer F.SilkS))
  (fp_text user ${REFERENCE} (at 0 0) (layer F.Fab)
    (effects (font (size 1 1) (thickness 0.15)))
  )
  (model ${KICAD7_3DMODEL_DIR}/Package_DFN_QFN.3dshapes/QFN-64-1EP_9x9mm_P0.5mm_EP7.65x7.65mm.wrl
    (offset (xyz 0 0 0))
    (scale (xyz 1 1 1))
    (rotate (xyz 0 0 0))
  )
)
