(footprint QFN-24-1EP_3x4mm_P0.4mm_EP1.65x2.65mm_ThermalVias (version 20221018) (generator kicad-footprint-generator)
  (layer F.Cu)
  (descr "QFN, 24 Pin (http://www.analog.com/media/en/package-pcb-resources/package/pkg_pdf/ltc-legacy-qfn/QFN_20_05-08-1742.pdf), generated with kicad-footprint-generator ipc_noLead_generator.py")
  (tags "QFN NoLead")
  (attr smd)
  (fp_text reference REF** (at 0 -3.33) (layer F.SilkS)
    (effects (font (size 1 1) (thickness 0.15)))
  )
  (fp_text value QFN-24-1EP_3x4mm_P0.4mm_EP1.65x2.65mm_ThermalVias (at 0 3.33) (layer F.Fab)
    (effects (font (size 1 1) (thickness 0.15)))
  )
  (fp_line (start -1.16 -2.11) (end -1.31 -2.11)
    (stroke (width 0.12) (type solid)) (layer F.SilkS))
  (fp_line (start -1.61 -1.56) (end -1.61 -1.87)
    (stroke (width 0.12) (type solid)) (layer F.SilkS))
  (fp_line (start 1.16 -2.11) (end 1.61 -2.11)
    (stroke (width 0.12) (type solid)) (layer F.SilkS))
  (fp_line (start 1.61 -2.11) (end 1.61 -1.56)
    (stroke (width 0.12) (type solid)) (layer F.SilkS))
  (fp_line (start -1.16 2.11) (end -1.61 2.11)
    (stroke (width 0.12) (type solid)) (layer F.SilkS))
  (fp_line (start -1.61 2.11) (end -1.61 1.56)
    (stroke (width 0.12) (type solid)) (layer F.SilkS))
  (fp_line (start 1.16 2.11) (end 1.61 2.11)
    (stroke (width 0.12) (type solid)) (layer F.SilkS))
  (fp_line (start 1.61 2.11) (end 1.61 1.56)
    (stroke (width 0.12) (type solid)) (layer F.SilkS))
  (fp_line (start -0.75 -2) (end 1.5 -2)
    (stroke (width 0.1) (type solid)) (layer F.Fab))
  (fp_line (start 1.5 -2) (end 1.5 2)
    (stroke (width 0.1) (type solid)) (layer F.Fab))
  (fp_line (start 1.5 2) (end -1.5 2)
    (stroke (width 0.1) (type solid)) (layer F.Fab))
  (fp_line (start -1.5 2) (end -1.5 -1.25)
    (stroke (width 0.1) (type solid)) (layer F.Fab))
  (fp_line (start -1.5 -1.25) (end -0.75 -2)
    (stroke (width 0.1) (type solid)) (layer F.Fab))
  (fp_line (start -2.13 -2.63) (end -2.13 2.63)
    (stroke (width 0.05) (type solid)) (layer F.CrtYd))
  (fp_line (start -2.13 2.63) (end 2.13 2.63)
    (stroke (width 0.05) (type solid)) (layer F.CrtYd))
  (fp_line (start 2.13 2.63) (end 2.13 -2.63)
    (stroke (width 0.05) (type solid)) (layer F.CrtYd))
  (fp_line (start 2.13 -2.63) (end -2.13 -2.63)
    (stroke (width 0.05) (type solid)) (layer F.CrtYd))
  (pad 1 smd roundrect (at -1.45 -1.2) (size 0.85 0.2) (layers F.Cu F.Mask F.Paste) (roundrect_rratio 0.25))
  (pad 2 smd roundrect (at -1.45 -0.8) (size 0.85 0.2) (layers F.Cu F.Mask F.Paste) (roundrect_rratio 0.25))
  (pad 3 smd roundrect (at -1.45 -0.4) (size 0.85 0.2) (layers F.Cu F.Mask F.Paste) (roundrect_rratio 0.25))
  (pad 4 smd roundrect (at -1.45 0) (size 0.85 0.2) (layers F.Cu F.Mask F.Paste) (roundrect_rratio 0.25))
  (pad 5 smd roundrect (at -1.45 0.4) (size 0.85 0.2) (layers F.Cu F.Mask F.Paste) (roundrect_rratio 0.25))
  (pad 6 smd roundrect (at -1.45 0.8) (size 0.85 0.2) (layers F.Cu F.Mask F.Paste) (roundrect_rratio 0.25))
  (pad 7 smd roundrect (at -1.45 1.2) (size 0.85 0.2) (layers F.Cu F.Mask F.Paste) (roundrect_rratio 0.25))
  (pad 8 smd roundrect (at -0.8 1.95) (size 0.2 0.85) (layers F.Cu F.Mask F.Paste) (roundrect_rratio 0.25))
  (pad 9 smd roundrect (at -0.4 1.95) (size 0.2 0.85) (layers F.Cu F.Mask F.Paste) (roundrect_rratio 0.25))
  (pad 10 smd roundrect (at 0 1.95) (size 0.2 0.85) (layers F.Cu F.Mask F.Paste) (roundrect_rratio 0.25))
  (pad 11 smd roundrect (at 0.4 1.95) (size 0.2 0.85) (layers F.Cu F.Mask F.Paste) (roundrect_rratio 0.25))
  (pad 12 smd roundrect (at 0.8 1.95) (size 0.2 0.85) (layers F.Cu F.Mask F.Paste) (roundrect_rratio 0.25))
  (pad 13 smd roundrect (at 1.45 1.2) (size 0.85 0.2) (layers F.Cu F.Mask F.Paste) (roundrect_rratio 0.25))
  (pad 14 smd roundrect (at 1.45 0.8) (size 0.85 0.2) (layers F.Cu F.Mask F.Paste) (roundrect_rratio 0.25))
  (pad 15 smd roundrect (at 1.45 0.4) (size 0.85 0.2) (layers F.Cu F.Mask F.Paste) (roundrect_rratio 0.25))
  (pad 16 smd roundrect (at 1.45 0) (size 0.85 0.2) (layers F.Cu F.Mask F.Paste) (roundrect_rratio 0.25))
  (pad 17 smd roundrect (at 1.45 -0.4) (size 0.85 0.2) (layers F.Cu F.Mask F.Paste) (roundrect_rratio 0.25))
  (pad 18 smd roundrect (at 1.45 -0.8) (size 0.85 0.2) (layers F.Cu F.Mask F.Paste) (roundrect_rratio 0.25))
  (pad 19 smd roundrect (at 1.45 -1.2) (size 0.85 0.2) (layers F.Cu F.Mask F.Paste) (roundrect_rratio 0.25))
  (pad 20 smd roundrect (at 0.8 -1.95) (size 0.2 0.85) (layers F.Cu F.Mask F.Paste) (roundrect_rratio 0.25))
  (pad 21 smd roundrect (at 0.4 -1.95) (size 0.2 0.85) (layers F.Cu F.Mask F.Paste) (roundrect_rratio 0.25))
  (pad 22 smd roundrect (at 0 -1.95) (size 0.2 0.85) (layers F.Cu F.Mask F.Paste) (roundrect_rratio 0.25))
  (pad 23 smd roundrect (at -0.4 -1.95) (size 0.2 0.85) (layers F.Cu F.Mask F.Paste) (roundrect_rratio 0.25))
  (pad 24 smd roundrect (at -0.8 -1.95) (size 0.2 0.85) (layers F.Cu F.Mask F.Paste) (roundrect_rratio 0.25))
  (pad 25 smd rect (at 0 0) (size 1.65 2.65) (property pad_prop_heatsink) (layers F.Cu F.Mask)
    (zone_connect 2))
  (pad 25 thru_hole circle (at -0.575 -1.075) (size 0.5 0.5) (drill 0.2) (property pad_prop_heatsink) (layers *.Cu))
  (pad 25 thru_hole circle (at 0.575 -1.075) (size 0.5 0.5) (drill 0.2) (property pad_prop_heatsink) (layers *.Cu))
  (pad 25 thru_hole circle (at -0.575 0) (size 0.5 0.5) (drill 0.2) (property pad_prop_heatsink) (layers *.Cu))
  (pad 25 thru_hole circle (at 0.575 0) (size 0.5 0.5) (drill 0.2) (property pad_prop_heatsink) (layers *.Cu))
  (pad 25 thru_hole circle (at -0.575 1.075) (size 0.5 0.5) (drill 0.2) (property pad_prop_heatsink) (layers *.Cu))
  (pad 25 thru_hole circle (at 0.575 1.075) (size 0.5 0.5) (drill 0.2) (property pad_prop_heatsink) (layers *.Cu))
  (pad 25 smd rect (at 0 0) (size 1.65 2.65) (property pad_prop_heatsink) (layers B.Cu)
    (zone_connect 2))
  (pad "" smd roundrect (at -0.41 -0.88) (size 0.71 0.76) (layers F.Paste) (roundrect_rratio 0.25))
  (pad "" smd roundrect (at -0.41 0) (size 0.71 0.76) (layers F.Paste) (roundrect_rratio 0.25))
  (pad "" smd roundrect (at -0.41 0.88) (size 0.71 0.76) (layers F.Paste) (roundrect_rratio 0.25))
  (pad "" smd roundrect (at 0.41 -0.88) (size 0.71 0.76) (layers F.Paste) (roundrect_rratio 0.25))
  (pad "" smd roundrect (at 0.41 0) (size 0.71 0.76) (layers F.Paste) (roundrect_rratio 0.25))
  (pad "" smd roundrect (at 0.41 0.88) (size 0.71 0.76) (layers F.Paste) (roundrect_rratio 0.25))
  (fp_poly (pts (xy -1.61 -2.11) (xy -1.79 -2.362) (xy -1.43 -2.362) (xy -1.61 -2.11))
    (stroke (width 0.12) (type solid)) (fill solid) (layer F.SilkS))
  (fp_text user ${REFERENCE} (at 0 0 90) (layer F.Fab)
    (effects (font (size 1 1) (thickness 0.15)))
  )
  (model ${KICAD7_3DMODEL_DIR}/Package_DFN_QFN.3dshapes/QFN-24-1EP_3x4mm_P0.4mm_EP1.65x2.65mm.wrl
    (offset (xyz 0 0 0))
    (scale (xyz 1 1 1))
    (rotate (xyz 0 0 0))
  )
)
