(footprint QFN-32-1EP_5x5mm_P0.5mm_EP3.7x3.7mm_ThermalVias (version 20221018) (generator kicad-footprint-generator)
  (layer F.Cu)
  (descr "QFN, 32 Pin (https://www.espressif.com/sites/default/files/documentation/0a-esp8285_datasheet_en.pdf), generated with kicad-footprint-generator ipc_noLead_generator.py")
  (tags "QFN NoLead")
  (attr smd)
  (fp_text reference REF** (at 0 -3.8) (layer F.SilkS)
    (effects (font (size 1 1) (thickness 0.15)))
  )
  (fp_text value QFN-32-1EP_5x5mm_P0.5mm_EP3.7x3.7mm_ThermalVias (at 0 3.8) (layer F.Fab)
    (effects (font (size 1 1) (thickness 0.15)))
  )
  (fp_line (start -2.135 -2.61) (end -2.31 -2.61)
    (stroke (width 0.12) (type solid)) (layer F.SilkS))
  (fp_line (start -2.61 -2.135) (end -2.61 -2.37)
    (stroke (width 0.12) (type solid)) (layer F.SilkS))
  (fp_line (start 2.135 -2.61) (end 2.61 -2.61)
    (stroke (width 0.12) (type solid)) (layer F.SilkS))
  (fp_line (start 2.61 -2.61) (end 2.61 -2.135)
    (stroke (width 0.12) (type solid)) (layer F.SilkS))
  (fp_line (start -2.135 2.61) (end -2.61 2.61)
    (stroke (width 0.12) (type solid)) (layer F.SilkS))
  (fp_line (start -2.61 2.61) (end -2.61 2.135)
    (stroke (width 0.12) (type solid)) (layer F.SilkS))
  (fp_line (start 2.135 2.61) (end 2.61 2.61)
    (stroke (width 0.12) (type solid)) (layer F.SilkS))
  (fp_line (start 2.61 2.61) (end 2.61 2.135)
    (stroke (width 0.12) (type solid)) (layer F.SilkS))
  (fp_line (start -1.5 -2.5) (end 2.5 -2.5)
    (stroke (width 0.1) (type solid)) (layer F.Fab))
  (fp_line (start 2.5 -2.5) (end 2.5 2.5)
    (stroke (width 0.1) (type solid)) (layer F.Fab))
  (fp_line (start 2.5 2.5) (end -2.5 2.5)
    (stroke (width 0.1) (type solid)) (layer F.Fab))
  (fp_line (start -2.5 2.5) (end -2.5 -1.5)
    (stroke (width 0.1) (type solid)) (layer F.Fab))
  (fp_line (start -2.5 -1.5) (end -1.5 -2.5)
    (stroke (width 0.1) (type solid)) (layer F.Fab))
  (fp_line (start -3.1 -3.1) (end -3.1 3.1)
    (stroke (width 0.05) (type solid)) (layer F.CrtYd))
  (fp_line (start -3.1 3.1) (end 3.1 3.1)
    (stroke (width 0.05) (type solid)) (layer F.CrtYd))
  (fp_line (start 3.1 3.1) (end 3.1 -3.1)
    (stroke (width 0.05) (type solid)) (layer F.CrtYd))
  (fp_line (start 3.1 -3.1) (end -3.1 -3.1)
    (stroke (width 0.05) (type solid)) (layer F.CrtYd))
  (pad 1 smd roundrect (at -2.45 -1.75) (size 0.8 0.25) (layers F.Cu F.Mask F.Paste) (roundrect_rratio 0.25))
  (pad 2 smd roundrect (at -2.45 -1.25) (size 0.8 0.25) (layers F.Cu F.Mask F.Paste) (roundrect_rratio 0.25))
  (pad 3 smd roundrect (at -2.45 -0.75) (size 0.8 0.25) (layers F.Cu F.Mask F.Paste) (roundrect_rratio 0.25))
  (pad 4 smd roundrect (at -2.45 -0.25) (size 0.8 0.25) (layers F.Cu F.Mask F.Paste) (roundrect_rratio 0.25))
  (pad 5 smd roundrect (at -2.45 0.25) (size 0.8 0.25) (layers F.Cu F.Mask F.Paste) (roundrect_rratio 0.25))
  (pad 6 smd roundrect (at -2.45 0.75) (size 0.8 0.25) (layers F.Cu F.Mask F.Paste) (roundrect_rratio 0.25))
  (pad 7 smd roundrect (at -2.45 1.25) (size 0.8 0.25) (layers F.Cu F.Mask F.Paste) (roundrect_rratio 0.25))
  (pad 8 smd roundrect (at -2.45 1.75) (size 0.8 0.25) (layers F.Cu F.Mask F.Paste) (roundrect_rratio 0.25))
  (pad 9 smd roundrect (at -1.75 2.45) (size 0.25 0.8) (layers F.Cu F.Mask F.Paste) (roundrect_rratio 0.25))
  (pad 10 smd roundrect (at -1.25 2.45) (size 0.25 0.8) (layers F.Cu F.Mask F.Paste) (roundrect_rratio 0.25))
  (pad 11 smd roundrect (at -0.75 2.45) (size 0.25 0.8) (layers F.Cu F.Mask F.Paste) (roundrect_rratio 0.25))
  (pad 12 smd roundrect (at -0.25 2.45) (size 0.25 0.8) (layers F.Cu F.Mask F.Paste) (roundrect_rratio 0.25))
  (pad 13 smd roundrect (at 0.25 2.45) (size 0.25 0.8) (layers F.Cu F.Mask F.Paste) (roundrect_rratio 0.25))
  (pad 14 smd roundrect (at 0.75 2.45) (size 0.25 0.8) (layers F.Cu F.Mask F.Paste) (roundrect_rratio 0.25))
  (pad 15 smd roundrect (at 1.25 2.45) (size 0.25 0.8) (layers F.Cu F.Mask F.Paste) (roundrect_rratio 0.25))
  (pad 16 smd roundrect (at 1.75 2.45) (size 0.25 0.8) (layers F.Cu F.Mask F.Paste) (roundrect_rratio 0.25))
  (pad 17 smd roundrect (at 2.45 1.75) (size 0.8 0.25) (layers F.Cu F.Mask F.Paste) (roundrect_rratio 0.25))
  (pad 18 smd roundrect (at 2.45 1.25) (size 0.8 0.25) (layers F.Cu F.Mask F.Paste) (roundrect_rratio 0.25))
  (pad 19 smd roundrect (at 2.45 0.75) (size 0.8 0.25) (layers F.Cu F.Mask F.Paste) (roundrect_rratio 0.25))
  (pad 20 smd roundrect (at 2.45 0.25) (size 0.8 0.25) (layers F.Cu F.Mask F.Paste) (roundrect_rratio 0.25))
  (pad 21 smd roundrect (at 2.45 -0.25) (size 0.8 0.25) (layers F.Cu F.Mask F.Paste) (roundrect_rratio 0.25))
  (pad 22 smd roundrect (at 2.45 -0.75) (size 0.8 0.25) (layers F.Cu F.Mask F.Paste) (roundrect_rratio 0.25))
  (pad 23 smd roundrect (at 2.45 -1.25) (size 0.8 0.25) (layers F.Cu F.Mask F.Paste) (roundrect_rratio 0.25))
  (pad 24 smd roundrect (at 2.45 -1.75) (size 0.8 0.25) (layers F.Cu F.Mask F.Paste) (roundrect_rratio 0.25))
  (pad 25 smd roundrect (at 1.75 -2.45) (size 0.25 0.8) (layers F.Cu F.Mask F.Paste) (roundrect_rratio 0.25))
  (pad 26 smd roundrect (at 1.25 -2.45) (size 0.25 0.8) (layers F.Cu F.Mask F.Paste) (roundrect_rratio 0.25))
  (pad 27 smd roundrect (at 0.75 -2.45) (size 0.25 0.8) (layers F.Cu F.Mask F.Paste) (roundrect_rratio 0.25))
  (pad 28 smd roundrect (at 0.25 -2.45) (size 0.25 0.8) (layers F.Cu F.Mask F.Paste) (roundrect_rratio 0.25))
  (pad 29 smd roundrect (at -0.25 -2.45) (size 0.25 0.8) (layers F.Cu F.Mask F.Paste) (roundrect_rratio 0.25))
  (pad 30 smd roundrect (at -0.75 -2.45) (size 0.25 0.8) (layers F.Cu F.Mask F.Paste) (roundrect_rratio 0.25))
  (pad 31 smd roundrect (at -1.25 -2.45) (size 0.25 0.8) (layers F.Cu F.Mask F.Paste) (roundrect_rratio 0.25))
  (pad 32 smd roundrect (at -1.75 -2.45) (size 0.25 0.8) (layers F.Cu F.Mask F.Paste) (roundrect_rratio 0.25))
  (pad 33 smd rect (at 0 0) (size 3.7 3.7) (property pad_prop_heatsink) (layers F.Cu F.Mask)
    (zone_connect 2))
  (pad 33 thru_hole circle (at -1 -1) (size 0.5 0.5) (drill 0.2) (property pad_prop_heatsink) (layers *.Cu))
  (pad 33 thru_hole circle (at 0 -1) (size 0.5 0.5) (drill 0.2) (property pad_prop_heatsink) (layers *.Cu))
  (pad 33 thru_hole circle (at 1 -1) (size 0.5 0.5) (drill 0.2) (property pad_prop_heatsink) (layers *.Cu))
  (pad 33 thru_hole circle (at -1 0) (size 0.5 0.5) (drill 0.2) (property pad_prop_heatsink) (layers *.Cu))
  (pad 33 thru_hole circle (at 0 0) (size 0.5 0.5) (drill 0.2) (property pad_prop_heatsink) (layers *.Cu))
  (pad 33 thru_hole circle (at 1 0) (size 0.5 0.5) (drill 0.2) (property pad_prop_heatsink) (layers *.Cu))
  (pad 33 thru_hole circle (at -1 1) (size 0.5 0.5) (drill 0.2) (property pad_prop_heatsink) (layers *.Cu))
  (pad 33 thru_hole circle (at 0 1) (size 0.5 0.5) (drill 0.2) (property pad_prop_heatsink) (layers *.Cu))
  (pad 33 thru_hole circle (at 1 1) (size 0.5 0.5) (drill 0.2) (property pad_prop_heatsink) (layers *.Cu))
  (pad 33 smd rect (at 0 0) (size 2.5 2.5) (property pad_prop_heatsink) (layers B.Cu)
    (zone_connect 2))
  (pad "" smd roundrect (at -0.5 -0.5) (size 0.806226 0.806226) (layers F.Paste) (roundrect_rratio 0.25))
  (pad "" smd roundrect (at -0.5 0.5) (size 0.806226 0.806226) (layers F.Paste) (roundrect_rratio 0.25))
  (pad "" smd roundrect (at 0.5 -0.5) (size 0.806226 0.806226) (layers F.Paste) (roundrect_rratio 0.25))
  (pad "" smd roundrect (at 0.5 0.5) (size 0.806226 0.806226) (layers F.Paste) (roundrect_rratio 0.25))
  (pad "" smd custom (at -1.425 -0.5) (size 0.612035 0.612035) (layers F.Paste)
    (options (clearance outline) (anchor circle))
    (primitives
      (gr_poly (pts
         (xy -0.269389 -0.329856) (xy 0.2087 -0.329856) (xy 0.269389 -0.269167) (xy 0.269389 0.269167)
         (xy 0.2087 0.329856) (xy -0.269389 0.329856)) (width 0.146515))
    ))
  (pad "" smd custom (at -1.425 0.5) (size 0.612035 0.612035) (layers F.Paste)
    (options (clearance outline) (anchor circle))
    (primitives
      (gr_poly (pts
         (xy -0.269389 -0.329856) (xy 0.2087 -0.329856) (xy 0.269389 -0.269167) (xy 0.269389 0.269167)
         (xy 0.2087 0.329856) (xy -0.269389 0.329856)) (width 0.146515))
    ))
  (pad "" smd custom (at 1.425 -0.5) (size 0.612035 0.612035) (layers F.Paste)
    (options (clearance outline) (anchor circle))
    (primitives
      (gr_poly (pts
         (xy -0.269389 -0.269167) (xy -0.2087 -0.329856) (xy 0.269389 -0.329856) (xy 0.269389 0.329856)
         (xy -0.2087 0.329856) (xy -0.269389 0.269167)) (width 0.146515))
    ))
  (pad "" smd custom (at 1.425 0.5) (size 0.612035 0.612035) (layers F.Paste)
    (options (clearance outline) (anchor circle))
    (primitives
      (gr_poly (pts
         (xy -0.269389 -0.269167) (xy -0.2087 -0.329856) (xy 0.269389 -0.329856) (xy 0.269389 0.329856)
         (xy -0.2087 0.329856) (xy -0.269389 0.269167)) (width 0.146515))
    ))
  (pad "" smd custom (at -0.5 -1.425) (size 0.612035 0.612035) (layers F.Paste)
    (options (clearance outline) (anchor circle))
    (primitives
      (gr_poly (pts
         (xy -0.329856 -0.269389) (xy 0.329856 -0.269389) (xy 0.329856 0.2087) (xy 0.269167 0.269389)
         (xy -0.269167 0.269389) (xy -0.329856 0.2087)) (width 0.146515))
    ))
  (pad "" smd custom (at 0.5 -1.425) (size 0.612035 0.612035) (layers F.Paste)
    (options (clearance outline) (anchor circle))
    (primitives
      (gr_poly (pts
         (xy -0.329856 -0.269389) (xy 0.329856 -0.269389) (xy 0.329856 0.2087) (xy 0.269167 0.269389)
         (xy -0.269167 0.269389) (xy -0.329856 0.2087)) (width 0.146515))
    ))
  (pad "" smd custom (at -0.5 1.425) (size 0.612035 0.612035) (layers F.Paste)
    (options (clearance outline) (anchor circle))
    (primitives
      (gr_poly (pts
         (xy -0.329856 -0.2087) (xy -0.269167 -0.269389) (xy 0.269167 -0.269389) (xy 0.329856 -0.2087)
         (xy 0.329856 0.269389) (xy -0.329856 0.269389)) (width 0.146515))
    ))
  (pad "" smd custom (at 0.5 1.425) (size 0.612035 0.612035) (layers F.Paste)
    (options (clearance outline) (anchor circle))
    (primitives
      (gr_poly (pts
         (xy -0.329856 -0.2087) (xy -0.269167 -0.269389) (xy 0.269167 -0.269389) (xy 0.329856 -0.2087)
         (xy 0.329856 0.269389) (xy -0.329856 0.269389)) (width 0.146515))
    ))
  (pad "" smd custom (at -1.425 -1.425) (size 0.601758 0.601758) (layers F.Paste)
    (options (clearance outline) (anchor circle))
    (primitives
      (gr_poly (pts
         (xy -0.259112 -0.259112) (xy 0.259112 -0.259112) (xy 0.259112 0.189911) (xy 0.189911 0.259112)
         (xy -0.259112 0.259112)) (width 0.167068))
    ))
  (pad "" smd custom (at -1.425 1.425) (size 0.601758 0.601758) (layers F.Paste)
    (options (clearance outline) (anchor circle))
    (primitives
      (gr_poly (pts
         (xy -0.259112 -0.259112) (xy 0.189911 -0.259112) (xy 0.259112 -0.189911) (xy 0.259112 0.259112)
         (xy -0.259112 0.259112)) (width 0.167068))
    ))
  (pad "" smd custom (at 1.425 -1.425) (size 0.601758 0.601758) (layers F.Paste)
    (options (clearance outline) (anchor circle))
    (primitives
      (gr_poly (pts
         (xy -0.259112 -0.259112) (xy 0.259112 -0.259112) (xy 0.259112 0.259112) (xy -0.189911 0.259112)
         (xy -0.259112 0.189911)) (width 0.167068))
    ))
  (pad "" smd custom (at 1.425 1.425) (size 0.601758 0.601758) (layers F.Paste)
    (options (clearance outline) (anchor circle))
    (primitives
      (gr_poly (pts
         (xy -0.259112 -0.189911) (xy -0.189911 -0.259112) (xy 0.259112 -0.259112) (xy 0.259112 0.259112)
         (xy -0.259112 0.259112)) (width 0.167068))
    ))
  (fp_poly (pts (xy -2.61 -2.61) (xy -2.79 -2.862) (xy -2.43 -2.862) (xy -2.61 -2.61))
    (stroke (width 0.12) (type solid)) (fill solid) (layer F.SilkS))
  (fp_text user ${REFERENCE} (at 0 0) (layer F.Fab)
    (effects (font (size 1 1) (thickness 0.15)))
  )
  (model ${KICAD7_3DMODEL_DIR}/Package_DFN_QFN.3dshapes/QFN-32-1EP_5x5mm_P0.5mm_EP3.7x3.7mm.wrl
    (offset (xyz 0 0 0))
    (scale (xyz 1 1 1))
    (rotate (xyz 0 0 0))
  )
)
