(footprint Qorvo_TQFN66-48-1EP_6x6mm_P0.4mm_EP4.2x4.2mm_ThermalVias (version 20221018) (generator kicad-footprint-generator)
  (layer F.Cu)
  (descr "Qorvo  TQFN66, 48 Pin (https://www.qorvo.com/products/d/da006847), generated with kicad-footprint-generator ipc_noLead_generator.py")
  (tags "Qorvo TQFN66 NoLead")
  (attr smd)
  (fp_text reference REF** (at 0 -4.3) (layer F.SilkS)
    (effects (font (size 1 1) (thickness 0.15)))
  )
  (fp_text value Qorvo_TQFN66-48-1EP_6x6mm_P0.4mm_EP4.2x4.2mm_ThermalVias (at 0 4.3) (layer F.Fab)
    (effects (font (size 1 1) (thickness 0.15)))
  )
  (fp_line (start -2.56 -3.11) (end -2.81 -3.11)
    (stroke (width 0.12) (type solid)) (layer F.SilkS))
  (fp_line (start -3.11 -2.56) (end -3.11 -2.87)
    (stroke (width 0.12) (type solid)) (layer F.SilkS))
  (fp_line (start 2.56 -3.11) (end 3.11 -3.11)
    (stroke (width 0.12) (type solid)) (layer F.SilkS))
  (fp_line (start 3.11 -3.11) (end 3.11 -2.56)
    (stroke (width 0.12) (type solid)) (layer F.SilkS))
  (fp_line (start -2.56 3.11) (end -3.11 3.11)
    (stroke (width 0.12) (type solid)) (layer F.SilkS))
  (fp_line (start -3.11 3.11) (end -3.11 2.56)
    (stroke (width 0.12) (type solid)) (layer F.SilkS))
  (fp_line (start 2.56 3.11) (end 3.11 3.11)
    (stroke (width 0.12) (type solid)) (layer F.SilkS))
  (fp_line (start 3.11 3.11) (end 3.11 2.56)
    (stroke (width 0.12) (type solid)) (layer F.SilkS))
  (fp_line (start -2 -3) (end 3 -3)
    (stroke (width 0.1) (type solid)) (layer F.Fab))
  (fp_line (start 3 -3) (end 3 3)
    (stroke (width 0.1) (type solid)) (layer F.Fab))
  (fp_line (start 3 3) (end -3 3)
    (stroke (width 0.1) (type solid)) (layer F.Fab))
  (fp_line (start -3 3) (end -3 -2)
    (stroke (width 0.1) (type solid)) (layer F.Fab))
  (fp_line (start -3 -2) (end -2 -3)
    (stroke (width 0.1) (type solid)) (layer F.Fab))
  (fp_line (start -3.6 -3.6) (end -3.6 3.6)
    (stroke (width 0.05) (type solid)) (layer F.CrtYd))
  (fp_line (start -3.6 3.6) (end 3.6 3.6)
    (stroke (width 0.05) (type solid)) (layer F.CrtYd))
  (fp_line (start 3.6 3.6) (end 3.6 -3.6)
    (stroke (width 0.05) (type solid)) (layer F.CrtYd))
  (fp_line (start 3.6 -3.6) (end -3.6 -3.6)
    (stroke (width 0.05) (type solid)) (layer F.CrtYd))
  (pad 1 smd roundrect (at -2.9375 -2.2) (size 0.825 0.2) (layers F.Cu F.Mask F.Paste) (roundrect_rratio 0.25))
  (pad 2 smd roundrect (at -2.9375 -1.8) (size 0.825 0.2) (layers F.Cu F.Mask F.Paste) (roundrect_rratio 0.25))
  (pad 3 smd roundrect (at -2.9375 -1.4) (size 0.825 0.2) (layers F.Cu F.Mask F.Paste) (roundrect_rratio 0.25))
  (pad 4 smd roundrect (at -2.9375 -1) (size 0.825 0.2) (layers F.Cu F.Mask F.Paste) (roundrect_rratio 0.25))
  (pad 5 smd roundrect (at -2.9375 -0.6) (size 0.825 0.2) (layers F.Cu F.Mask F.Paste) (roundrect_rratio 0.25))
  (pad 6 smd roundrect (at -2.9375 -0.2) (size 0.825 0.2) (layers F.Cu F.Mask F.Paste) (roundrect_rratio 0.25))
  (pad 7 smd roundrect (at -2.9375 0.2) (size 0.825 0.2) (layers F.Cu F.Mask F.Paste) (roundrect_rratio 0.25))
  (pad 8 smd roundrect (at -2.9375 0.6) (size 0.825 0.2) (layers F.Cu F.Mask F.Paste) (roundrect_rratio 0.25))
  (pad 9 smd roundrect (at -2.9375 1) (size 0.825 0.2) (layers F.Cu F.Mask F.Paste) (roundrect_rratio 0.25))
  (pad 10 smd roundrect (at -2.9375 1.4) (size 0.825 0.2) (layers F.Cu F.Mask F.Paste) (roundrect_rratio 0.25))
  (pad 11 smd roundrect (at -2.9375 1.8) (size 0.825 0.2) (layers F.Cu F.Mask F.Paste) (roundrect_rratio 0.25))
  (pad 12 smd roundrect (at -2.9375 2.2) (size 0.825 0.2) (layers F.Cu F.Mask F.Paste) (roundrect_rratio 0.25))
  (pad 13 smd roundrect (at -2.2 2.9375) (size 0.2 0.825) (layers F.Cu F.Mask F.Paste) (roundrect_rratio 0.25))
  (pad 14 smd roundrect (at -1.8 2.9375) (size 0.2 0.825) (layers F.Cu F.Mask F.Paste) (roundrect_rratio 0.25))
  (pad 15 smd roundrect (at -1.4 2.9375) (size 0.2 0.825) (layers F.Cu F.Mask F.Paste) (roundrect_rratio 0.25))
  (pad 16 smd roundrect (at -1 2.9375) (size 0.2 0.825) (layers F.Cu F.Mask F.Paste) (roundrect_rratio 0.25))
  (pad 17 smd roundrect (at -0.6 2.9375) (size 0.2 0.825) (layers F.Cu F.Mask F.Paste) (roundrect_rratio 0.25))
  (pad 18 smd roundrect (at -0.2 2.9375) (size 0.2 0.825) (layers F.Cu F.Mask F.Paste) (roundrect_rratio 0.25))
  (pad 19 smd roundrect (at 0.2 2.9375) (size 0.2 0.825) (layers F.Cu F.Mask F.Paste) (roundrect_rratio 0.25))
  (pad 20 smd roundrect (at 0.6 2.9375) (size 0.2 0.825) (layers F.Cu F.Mask F.Paste) (roundrect_rratio 0.25))
  (pad 21 smd roundrect (at 1 2.9375) (size 0.2 0.825) (layers F.Cu F.Mask F.Paste) (roundrect_rratio 0.25))
  (pad 22 smd roundrect (at 1.4 2.9375) (size 0.2 0.825) (layers F.Cu F.Mask F.Paste) (roundrect_rratio 0.25))
  (pad 23 smd roundrect (at 1.8 2.9375) (size 0.2 0.825) (layers F.Cu F.Mask F.Paste) (roundrect_rratio 0.25))
  (pad 24 smd roundrect (at 2.2 2.9375) (size 0.2 0.825) (layers F.Cu F.Mask F.Paste) (roundrect_rratio 0.25))
  (pad 25 smd roundrect (at 2.9375 2.2) (size 0.825 0.2) (layers F.Cu F.Mask F.Paste) (roundrect_rratio 0.25))
  (pad 26 smd roundrect (at 2.9375 1.8) (size 0.825 0.2) (layers F.Cu F.Mask F.Paste) (roundrect_rratio 0.25))
  (pad 27 smd roundrect (at 2.9375 1.4) (size 0.825 0.2) (layers F.Cu F.Mask F.Paste) (roundrect_rratio 0.25))
  (pad 28 smd roundrect (at 2.9375 1) (size 0.825 0.2) (layers F.Cu F.Mask F.Paste) (roundrect_rratio 0.25))
  (pad 29 smd roundrect (at 2.9375 0.6) (size 0.825 0.2) (layers F.Cu F.Mask F.Paste) (roundrect_rratio 0.25))
  (pad 30 smd roundrect (at 2.9375 0.2) (size 0.825 0.2) (layers F.Cu F.Mask F.Paste) (roundrect_rratio 0.25))
  (pad 31 smd roundrect (at 2.9375 -0.2) (size 0.825 0.2) (layers F.Cu F.Mask F.Paste) (roundrect_rratio 0.25))
  (pad 32 smd roundrect (at 2.9375 -0.6) (size 0.825 0.2) (layers F.Cu F.Mask F.Paste) (roundrect_rratio 0.25))
  (pad 33 smd roundrect (at 2.9375 -1) (size 0.825 0.2) (layers F.Cu F.Mask F.Paste) (roundrect_rratio 0.25))
  (pad 34 smd roundrect (at 2.9375 -1.4) (size 0.825 0.2) (layers F.Cu F.Mask F.Paste) (roundrect_rratio 0.25))
  (pad 35 smd roundrect (at 2.9375 -1.8) (size 0.825 0.2) (layers F.Cu F.Mask F.Paste) (roundrect_rratio 0.25))
  (pad 36 smd roundrect (at 2.9375 -2.2) (size 0.825 0.2) (layers F.Cu F.Mask F.Paste) (roundrect_rratio 0.25))
  (pad 37 smd roundrect (at 2.2 -2.9375) (size 0.2 0.825) (layers F.Cu F.Mask F.Paste) (roundrect_rratio 0.25))
  (pad 38 smd roundrect (at 1.8 -2.9375) (size 0.2 0.825) (layers F.Cu F.Mask F.Paste) (roundrect_rratio 0.25))
  (pad 39 smd roundrect (at 1.4 -2.9375) (size 0.2 0.825) (layers F.Cu F.Mask F.Paste) (roundrect_rratio 0.25))
  (pad 40 smd roundrect (at 1 -2.9375) (size 0.2 0.825) (layers F.Cu F.Mask F.Paste) (roundrect_rratio 0.25))
  (pad 41 smd roundrect (at 0.6 -2.9375) (size 0.2 0.825) (layers F.Cu F.Mask F.Paste) (roundrect_rratio 0.25))
  (pad 42 smd roundrect (at 0.2 -2.9375) (size 0.2 0.825) (layers F.Cu F.Mask F.Paste) (roundrect_rratio 0.25))
  (pad 43 smd roundrect (at -0.2 -2.9375) (size 0.2 0.825) (layers F.Cu F.Mask F.Paste) (roundrect_rratio 0.25))
  (pad 44 smd roundrect (at -0.6 -2.9375) (size 0.2 0.825) (layers F.Cu F.Mask F.Paste) (roundrect_rratio 0.25))
  (pad 45 smd roundrect (at -1 -2.9375) (size 0.2 0.825) (layers F.Cu F.Mask F.Paste) (roundrect_rratio 0.25))
  (pad 46 smd roundrect (at -1.4 -2.9375) (size 0.2 0.825) (layers F.Cu F.Mask F.Paste) (roundrect_rratio 0.25))
  (pad 47 smd roundrect (at -1.8 -2.9375) (size 0.2 0.825) (layers F.Cu F.Mask F.Paste) (roundrect_rratio 0.25))
  (pad 48 smd roundrect (at -2.2 -2.9375) (size 0.2 0.825) (layers F.Cu F.Mask F.Paste) (roundrect_rratio 0.25))
  (pad 49 smd rect (at 0 0) (size 4.2 4.2) (property pad_prop_heatsink) (layers F.Cu F.Mask)
    (zone_connect 2))
  (pad 49 thru_hole circle (at -1.85 -1.85) (size 0.5 0.5) (drill 0.2) (property pad_prop_heatsink) (layers *.Cu))
  (pad 49 thru_hole circle (at -0.616667 -1.85) (size 0.5 0.5) (drill 0.2) (property pad_prop_heatsink) (layers *.Cu))
  (pad 49 thru_hole circle (at 0.616667 -1.85) (size 0.5 0.5) (drill 0.2) (property pad_prop_heatsink) (layers *.Cu))
  (pad 49 thru_hole circle (at 1.85 -1.85) (size 0.5 0.5) (drill 0.2) (property pad_prop_heatsink) (layers *.Cu))
  (pad 49 thru_hole circle (at -1.85 -0.616667) (size 0.5 0.5) (drill 0.2) (property pad_prop_heatsink) (layers *.Cu))
  (pad 49 thru_hole circle (at -0.616667 -0.616667) (size 0.5 0.5) (drill 0.2) (property pad_prop_heatsink) (layers *.Cu))
  (pad 49 thru_hole circle (at 0.616667 -0.616667) (size 0.5 0.5) (drill 0.2) (property pad_prop_heatsink) (layers *.Cu))
  (pad 49 thru_hole circle (at 1.85 -0.616667) (size 0.5 0.5) (drill 0.2) (property pad_prop_heatsink) (layers *.Cu))
  (pad 49 thru_hole circle (at -1.85 0.616667) (size 0.5 0.5) (drill 0.2) (property pad_prop_heatsink) (layers *.Cu))
  (pad 49 thru_hole circle (at -0.616667 0.616667) (size 0.5 0.5) (drill 0.2) (property pad_prop_heatsink) (layers *.Cu))
  (pad 49 thru_hole circle (at 0.616667 0.616667) (size 0.5 0.5) (drill 0.2) (property pad_prop_heatsink) (layers *.Cu))
  (pad 49 thru_hole circle (at 1.85 0.616667) (size 0.5 0.5) (drill 0.2) (property pad_prop_heatsink) (layers *.Cu))
  (pad 49 thru_hole circle (at -1.85 1.85) (size 0.5 0.5) (drill 0.2) (property pad_prop_heatsink) (layers *.Cu))
  (pad 49 thru_hole circle (at -0.616667 1.85) (size 0.5 0.5) (drill 0.2) (property pad_prop_heatsink) (layers *.Cu))
  (pad 49 thru_hole circle (at 0.616667 1.85) (size 0.5 0.5) (drill 0.2) (property pad_prop_heatsink) (layers *.Cu))
  (pad 49 thru_hole circle (at 1.85 1.85) (size 0.5 0.5) (drill 0.2) (property pad_prop_heatsink) (layers *.Cu))
  (pad 49 smd rect (at 0 0) (size 4.2 4.2) (property pad_prop_heatsink) (layers B.Cu)
    (zone_connect 2))
  (pad "" smd roundrect (at -1.233333 -1.233333) (size 1.084435 1.084435) (layers F.Paste) (roundrect_rratio 0.230535))
  (pad "" smd roundrect (at -1.233333 0) (size 1.084435 1.084435) (layers F.Paste) (roundrect_rratio 0.230535))
  (pad "" smd roundrect (at -1.233333 1.233333) (size 1.084435 1.084435) (layers F.Paste) (roundrect_rratio 0.230535))
  (pad "" smd roundrect (at 0 -1.233333) (size 1.084435 1.084435) (layers F.Paste) (roundrect_rratio 0.230535))
  (pad "" smd roundrect (at 0 0) (size 1.084435 1.084435) (layers F.Paste) (roundrect_rratio 0.230535))
  (pad "" smd roundrect (at 0 1.233333) (size 1.084435 1.084435) (layers F.Paste) (roundrect_rratio 0.230535))
  (pad "" smd roundrect (at 1.233333 -1.233333) (size 1.084435 1.084435) (layers F.Paste) (roundrect_rratio 0.230535))
  (pad "" smd roundrect (at 1.233333 0) (size 1.084435 1.084435) (layers F.Paste) (roundrect_rratio 0.230535))
  (pad "" smd roundrect (at 1.233333 1.233333) (size 1.084435 1.084435) (layers F.Paste) (roundrect_rratio 0.230535))
  (fp_poly (pts (xy -3.11 -3.11) (xy -3.29 -3.362) (xy -2.93 -3.362) (xy -3.11 -3.11))
    (stroke (width 0.12) (type solid)) (fill solid) (layer F.SilkS))
  (fp_text user ${REFERENCE} (at 0 0) (layer F.Fab)
    (effects (font (size 1 1) (thickness 0.15)))
  )
  (model ${KICAD7_3DMODEL_DIR}/Package_DFN_QFN.3dshapes/Qorvo_TQFN66-48-1EP_6x6mm_P0.4mm_EP4.2x4.2mm.wrl
    (offset (xyz 0 0 0))
    (scale (xyz 1 1 1))
    (rotate (xyz 0 0 0))
  )
)
