(footprint Texas_X2QFN-RUE-12_1.4x2mm_P0.4mm (version 20221018) (generator kicad-footprint-generator)
  (layer F.Cu)
  (descr "Texas  X2QFN-RUE, 12 Pin (https://www.ti.com/lit/ml/mpqf214b/mpqf214b.pdf), generated with kicad-footprint-generator ipc_noLead_generator.py")
  (tags "Texas X2QFN-RUE NoLead")
  (attr smd)
  (fp_text reference REF** (at 0 -2.3) (layer F.SilkS)
    (effects (font (size 1 1) (thickness 0.15)))
  )
  (fp_text value Texas_X2QFN-RUE-12_1.4x2mm_P0.4mm (at 0 2.3) (layer F.Fab)
    (effects (font (size 1 1) (thickness 0.15)))
  )
  (fp_line (start -0.36 -1.12) (end -0.51 -1.12)
    (stroke (width 0.12) (type solid)) (layer F.SilkS))
  (fp_line (start 0.36 -1.11) (end 0.81 -1.11)
    (stroke (width 0.12) (type solid)) (layer F.SilkS))
  (fp_line (start -0.36 1.11) (end -0.81 1.11)
    (stroke (width 0.12) (type solid)) (layer F.SilkS))
  (fp_line (start 0.36 1.11) (end 0.81 1.11)
    (stroke (width 0.12) (type solid)) (layer F.SilkS))
  (fp_line (start -0.35 -1) (end 0.7 -1)
    (stroke (width 0.1) (type solid)) (layer F.Fab))
  (fp_line (start 0.7 -1) (end 0.7 1)
    (stroke (width 0.1) (type solid)) (layer F.Fab))
  (fp_line (start 0.7 1) (end -0.7 1)
    (stroke (width 0.1) (type solid)) (layer F.Fab))
  (fp_line (start -0.7 1) (end -0.7 -0.65)
    (stroke (width 0.1) (type solid)) (layer F.Fab))
  (fp_line (start -0.7 -0.65) (end -0.35 -1)
    (stroke (width 0.1) (type solid)) (layer F.Fab))
  (fp_line (start -1.3 -1.6) (end -1.3 1.6)
    (stroke (width 0.05) (type solid)) (layer F.CrtYd))
  (fp_line (start -1.3 1.6) (end 1.3 1.6)
    (stroke (width 0.05) (type solid)) (layer F.CrtYd))
  (fp_line (start 1.3 1.6) (end 1.3 -1.6)
    (stroke (width 0.05) (type solid)) (layer F.CrtYd))
  (fp_line (start 1.3 -1.6) (end -1.3 -1.6)
    (stroke (width 0.05) (type solid)) (layer F.CrtYd))
  (pad 1 smd roundrect (at -0.65 -0.8) (size 0.8 0.2) (layers F.Cu F.Mask F.Paste) (roundrect_rratio 0.25))
  (pad 2 smd roundrect (at -0.65 -0.4) (size 0.8 0.2) (layers F.Cu F.Mask F.Paste) (roundrect_rratio 0.25))
  (pad 3 smd roundrect (at -0.65 0) (size 0.8 0.2) (layers F.Cu F.Mask F.Paste) (roundrect_rratio 0.25))
  (pad 4 smd roundrect (at -0.65 0.4) (size 0.8 0.2) (layers F.Cu F.Mask F.Paste) (roundrect_rratio 0.25))
  (pad 5 smd roundrect (at -0.65 0.8) (size 0.8 0.2) (layers F.Cu F.Mask F.Paste) (roundrect_rratio 0.25))
  (pad 6 smd roundrect (at 0 0.95) (size 0.2 0.8) (layers F.Cu F.Mask F.Paste) (roundrect_rratio 0.25))
  (pad 7 smd roundrect (at 0.65 0.8) (size 0.8 0.2) (layers F.Cu F.Mask F.Paste) (roundrect_rratio 0.25))
  (pad 8 smd roundrect (at 0.65 0.4) (size 0.8 0.2) (layers F.Cu F.Mask F.Paste) (roundrect_rratio 0.25))
  (pad 9 smd roundrect (at 0.65 0) (size 0.8 0.2) (layers F.Cu F.Mask F.Paste) (roundrect_rratio 0.25))
  (pad 10 smd roundrect (at 0.65 -0.4) (size 0.8 0.2) (layers F.Cu F.Mask F.Paste) (roundrect_rratio 0.25))
  (pad 11 smd roundrect (at 0.65 -0.8) (size 0.8 0.2) (layers F.Cu F.Mask F.Paste) (roundrect_rratio 0.25))
  (pad 12 smd roundrect (at 0 -0.95) (size 0.2 0.8) (layers F.Cu F.Mask F.Paste) (roundrect_rratio 0.25))
  (fp_poly (pts (xy -0.81 -1.12) (xy -0.99 -1.372) (xy -0.63 -1.372) (xy -0.81 -1.12))
    (stroke (width 0.12) (type solid)) (fill solid) (layer F.SilkS))
  (fp_text user ${REFERENCE} (at 0 0 90) (layer F.Fab)
    (effects (font (size 0.5 0.5) (thickness 0.08)))
  )
  (model ${KICAD7_3DMODEL_DIR}/Package_DFN_QFN.3dshapes/Texas_X2QFN-RUE-12_1.4x2mm_P0.4mm.wrl
    (offset (xyz 0 0 0))
    (scale (xyz 1 1 1))
    (rotate (xyz 0 0 0))
  )
)
