(footprint TQFN-24-1EP_4x4mm_P0.5mm_EP2.6x2.6mm_ThermalVias (version 20221018) (generator kicad-footprint-generator)
  (layer F.Cu)
  (descr "TQFN, 24 Pin (http://pdfserv.maxim-ic.com/package_dwgs/21-0139.PDF), generated with kicad-footprint-generator ipc_noLead_generator.py")
  (tags "TQFN NoLead")
  (attr smd)
  (fp_text reference REF** (at 0 -3.03) (layer F.SilkS)
    (effects (font (size 1 1) (thickness 0.15)))
  )
  (fp_text value TQFN-24-1EP_4x4mm_P0.5mm_EP2.6x2.6mm_ThermalVias (at 0 3.03) (layer F.Fab)
    (effects (font (size 1 1) (thickness 0.15)))
  )
  (fp_line (start -1.685 -2.11) (end -1.81 -2.11)
    (stroke (width 0.12) (type solid)) (layer F.SilkS))
  (fp_line (start -2.11 -1.685) (end -2.11 -1.87)
    (stroke (width 0.12) (type solid)) (layer F.SilkS))
  (fp_line (start 1.685 -2.11) (end 2.11 -2.11)
    (stroke (width 0.12) (type solid)) (layer F.SilkS))
  (fp_line (start 2.11 -2.11) (end 2.11 -1.685)
    (stroke (width 0.12) (type solid)) (layer F.SilkS))
  (fp_line (start -1.685 2.11) (end -2.11 2.11)
    (stroke (width 0.12) (type solid)) (layer F.SilkS))
  (fp_line (start -2.11 2.11) (end -2.11 1.685)
    (stroke (width 0.12) (type solid)) (layer F.SilkS))
  (fp_line (start 1.685 2.11) (end 2.11 2.11)
    (stroke (width 0.12) (type solid)) (layer F.SilkS))
  (fp_line (start 2.11 2.11) (end 2.11 1.685)
    (stroke (width 0.12) (type solid)) (layer F.SilkS))
  (fp_line (start -1 -2) (end 2 -2)
    (stroke (width 0.1) (type solid)) (layer F.Fab))
  (fp_line (start 2 -2) (end 2 2)
    (stroke (width 0.1) (type solid)) (layer F.Fab))
  (fp_line (start 2 2) (end -2 2)
    (stroke (width 0.1) (type solid)) (layer F.Fab))
  (fp_line (start -2 2) (end -2 -1)
    (stroke (width 0.1) (type solid)) (layer F.Fab))
  (fp_line (start -2 -1) (end -1 -2)
    (stroke (width 0.1) (type solid)) (layer F.Fab))
  (fp_line (start -2.33 -2.33) (end -2.33 2.33)
    (stroke (width 0.05) (type solid)) (layer F.CrtYd))
  (fp_line (start -2.33 2.33) (end 2.33 2.33)
    (stroke (width 0.05) (type solid)) (layer F.CrtYd))
  (fp_line (start 2.33 2.33) (end 2.33 -2.33)
    (stroke (width 0.05) (type solid)) (layer F.CrtYd))
  (fp_line (start 2.33 -2.33) (end -2.33 -2.33)
    (stroke (width 0.05) (type solid)) (layer F.CrtYd))
  (pad 1 smd roundrect (at -1.7875 -1.25) (size 0.575 0.35) (layers F.Cu F.Mask F.Paste) (roundrect_rratio 0.25))
  (pad 2 smd roundrect (at -1.7875 -0.75) (size 0.575 0.35) (layers F.Cu F.Mask F.Paste) (roundrect_rratio 0.25))
  (pad 3 smd roundrect (at -1.7875 -0.25) (size 0.575 0.35) (layers F.Cu F.Mask F.Paste) (roundrect_rratio 0.25))
  (pad 4 smd roundrect (at -1.7875 0.25) (size 0.575 0.35) (layers F.Cu F.Mask F.Paste) (roundrect_rratio 0.25))
  (pad 5 smd roundrect (at -1.7875 0.75) (size 0.575 0.35) (layers F.Cu F.Mask F.Paste) (roundrect_rratio 0.25))
  (pad 6 smd roundrect (at -1.7875 1.25) (size 0.575 0.35) (layers F.Cu F.Mask F.Paste) (roundrect_rratio 0.25))
  (pad 7 smd roundrect (at -1.25 1.7875) (size 0.35 0.575) (layers F.Cu F.Mask F.Paste) (roundrect_rratio 0.25))
  (pad 8 smd roundrect (at -0.75 1.7875) (size 0.35 0.575) (layers F.Cu F.Mask F.Paste) (roundrect_rratio 0.25))
  (pad 9 smd roundrect (at -0.25 1.7875) (size 0.35 0.575) (layers F.Cu F.Mask F.Paste) (roundrect_rratio 0.25))
  (pad 10 smd roundrect (at 0.25 1.7875) (size 0.35 0.575) (layers F.Cu F.Mask F.Paste) (roundrect_rratio 0.25))
  (pad 11 smd roundrect (at 0.75 1.7875) (size 0.35 0.575) (layers F.Cu F.Mask F.Paste) (roundrect_rratio 0.25))
  (pad 12 smd roundrect (at 1.25 1.7875) (size 0.35 0.575) (layers F.Cu F.Mask F.Paste) (roundrect_rratio 0.25))
  (pad 13 smd roundrect (at 1.7875 1.25) (size 0.575 0.35) (layers F.Cu F.Mask F.Paste) (roundrect_rratio 0.25))
  (pad 14 smd roundrect (at 1.7875 0.75) (size 0.575 0.35) (layers F.Cu F.Mask F.Paste) (roundrect_rratio 0.25))
  (pad 15 smd roundrect (at 1.7875 0.25) (size 0.575 0.35) (layers F.Cu F.Mask F.Paste) (roundrect_rratio 0.25))
  (pad 16 smd roundrect (at 1.7875 -0.25) (size 0.575 0.35) (layers F.Cu F.Mask F.Paste) (roundrect_rratio 0.25))
  (pad 17 smd roundrect (at 1.7875 -0.75) (size 0.575 0.35) (layers F.Cu F.Mask F.Paste) (roundrect_rratio 0.25))
  (pad 18 smd roundrect (at 1.7875 -1.25) (size 0.575 0.35) (layers F.Cu F.Mask F.Paste) (roundrect_rratio 0.25))
  (pad 19 smd roundrect (at 1.25 -1.7875) (size 0.35 0.575) (layers F.Cu F.Mask F.Paste) (roundrect_rratio 0.25))
  (pad 20 smd roundrect (at 0.75 -1.7875) (size 0.35 0.575) (layers F.Cu F.Mask F.Paste) (roundrect_rratio 0.25))
  (pad 21 smd roundrect (at 0.25 -1.7875) (size 0.35 0.575) (layers F.Cu F.Mask F.Paste) (roundrect_rratio 0.25))
  (pad 22 smd roundrect (at -0.25 -1.7875) (size 0.35 0.575) (layers F.Cu F.Mask F.Paste) (roundrect_rratio 0.25))
  (pad 23 smd roundrect (at -0.75 -1.7875) (size 0.35 0.575) (layers F.Cu F.Mask F.Paste) (roundrect_rratio 0.25))
  (pad 24 smd roundrect (at -1.25 -1.7875) (size 0.35 0.575) (layers F.Cu F.Mask F.Paste) (roundrect_rratio 0.25))
  (pad 25 smd rect (at 0 0) (size 2.6 2.6) (property pad_prop_heatsink) (layers F.Cu F.Mask)
    (zone_connect 2))
  (pad 25 thru_hole circle (at -1 -1) (size 0.6 0.6) (drill 0.3) (property pad_prop_heatsink) (layers *.Cu))
  (pad 25 thru_hole circle (at 0 -1) (size 0.6 0.6) (drill 0.3) (property pad_prop_heatsink) (layers *.Cu))
  (pad 25 thru_hole circle (at 1 -1) (size 0.6 0.6) (drill 0.3) (property pad_prop_heatsink) (layers *.Cu))
  (pad 25 thru_hole circle (at -1 0) (size 0.6 0.6) (drill 0.3) (property pad_prop_heatsink) (layers *.Cu))
  (pad 25 thru_hole circle (at 0 0) (size 0.6 0.6) (drill 0.3) (property pad_prop_heatsink) (layers *.Cu))
  (pad 25 thru_hole circle (at 1 0) (size 0.6 0.6) (drill 0.3) (property pad_prop_heatsink) (layers *.Cu))
  (pad 25 thru_hole circle (at -1 1) (size 0.6 0.6) (drill 0.3) (property pad_prop_heatsink) (layers *.Cu))
  (pad 25 thru_hole circle (at 0 1) (size 0.6 0.6) (drill 0.3) (property pad_prop_heatsink) (layers *.Cu))
  (pad 25 thru_hole circle (at 1 1) (size 0.6 0.6) (drill 0.3) (property pad_prop_heatsink) (layers *.Cu))
  (pad 25 smd rect (at 0 0) (size 2.6 2.6) (property pad_prop_heatsink) (layers B.Cu)
    (zone_connect 2))
  (pad "" smd roundrect (at -0.65 -0.65) (size 1.05 1.05) (layers F.Paste) (roundrect_rratio 0.238095))
  (pad "" smd roundrect (at -0.65 0.65) (size 1.05 1.05) (layers F.Paste) (roundrect_rratio 0.238095))
  (pad "" smd roundrect (at 0.65 -0.65) (size 1.05 1.05) (layers F.Paste) (roundrect_rratio 0.238095))
  (pad "" smd roundrect (at 0.65 0.65) (size 1.05 1.05) (layers F.Paste) (roundrect_rratio 0.238095))
  (fp_poly (pts (xy -2.11 -2.11) (xy -2.29 -2.362) (xy -1.93 -2.362) (xy -2.11 -2.11))
    (stroke (width 0.12) (type solid)) (fill solid) (layer F.SilkS))
  (fp_text user ${REFERENCE} (at 0 0) (layer F.Fab)
    (effects (font (size 1 1) (thickness 0.15)))
  )
  (model ${KICAD7_3DMODEL_DIR}/Package_DFN_QFN.3dshapes/TQFN-24-1EP_4x4mm_P0.5mm_EP2.6x2.6mm.wrl
    (offset (xyz 0 0 0))
    (scale (xyz 1 1 1))
    (rotate (xyz 0 0 0))
  )
)
